[gd_scene load_steps=5 format=2]

[ext_resource path="res://scripts/loader.gd" type="Script" id=1]
[ext_resource path="res://fonts/Play-Bold.ttf" type="DynamicFontData" id=2]

[sub_resource type="DynamicFont" id=1]
size = 32
font_data = ExtResource( 2 )

[sub_resource type="Animation" id=2]
resource_name = "loading"
length = 1.2
loop = true
tracks/0/type = "value"
tracks/0/path = NodePath("Dots:text")
tracks/0/interp = 1
tracks/0/loop_wrap = true
tracks/0/imported = false
tracks/0/enabled = true
tracks/0/keys = {
"times": PoolRealArray( 0, 0.2, 0.4, 0.6, 1 ),
"transitions": PoolRealArray( 1, 1, 1, 1, 1 ),
"update": 1,
"values": [ "", ".", "..", "...", "" ]
}

[node name="Loading" type="CanvasLayer"]
layer = 125
script = ExtResource( 1 )

[node name="Label" type="Label" parent="."]
anchor_top = 1.0
anchor_right = 0.5
anchor_bottom = 1.0
margin_left = 128.0
margin_top = -64.0
margin_bottom = -16.0
custom_fonts/font = SubResource( 1 )
text = "LOADING"
align = 2
valign = 1

[node name="Dots" type="Label" parent="."]
anchor_left = 0.5
anchor_top = 1.0
anchor_right = 1.0
anchor_bottom = 1.0
margin_top = -64.0
margin_right = -128.0
margin_bottom = -16.0
custom_fonts/font = SubResource( 1 )
valign = 1

[node name="AnimationPlayer" type="AnimationPlayer" parent="."]
autoplay = "loading"
anims/loading = SubResource( 2 )
