[gd_scene load_steps=5 format=2]

[ext_resource path="res://meshes/levels/canyon_curve_right2.dae" type="PackedScene" id=1]
[ext_resource path="res://materials/base.shader" type="Shader" id=2]

[sub_resource type="SpatialMaterial" id=1]
flags_unshaded = true
params_diffuse_mode = 4
params_specular_mode = 4
params_cull_mode = 1
params_grow = true
params_grow_amount = 0.03
albedo_color = Color( 0.0627451, 0.0313726, 0.0470588, 1 )

[sub_resource type="ShaderMaterial" id=2]
next_pass = SubResource( 1 )
shader = ExtResource( 2 )
shader_param/albedo = Color( 0.603922, 0.34902, 0.0980392, 1 )
shader_param/specular = 0.5
shader_param/metallic = 0.1
shader_param/roughness = 0.9
shader_param/point_size = 1.0
shader_param/metallic_texture_channel = Plane( 1, 0, 0, 0 )
shader_param/roughness_texture_channel = Plane( 1, 0, 0, 0 )
shader_param/uv1_scale = Vector3( 1, 1, 1 )
shader_param/uv1_offset = Vector3( 0, 0, 0 )

[node name="Scene Root" instance=ExtResource( 1 )]

[node name="Curved4" parent="." index="0"]
material/0 = SubResource( 2 )
