<?xml version="1.0" encoding="utf-8"?>
<COLLADA xmlns="http://www.collada.org/2005/11/COLLADASchema" version="1.4.1">
  <asset>
    <contributor>
      <author>Blender User</author>
      <authoring_tool>Blender 2.79.0</authoring_tool>
    </contributor>
    <created>2019-07-11T20:59:01</created>
    <modified>2019-07-11T20:59:01</modified>
    <unit name="meter" meter="1"/>
    <up_axis>Z_UP</up_axis>
  </asset>
  <library_images/>
  <library_geometries>
    <geometry id="Plane_023-mesh" name="Plane.023">
      <mesh>
        <source id="Plane_023-mesh-positions">
          <float_array id="Plane_023-mesh-positions-array" count="1149">5.247827 -6.324579 -2.376099 10.93479 -6.448593 15.17873 22.28665 -5.460701 16.11862 8.587652 -6.071842 5.862634 9.416714 -6.109771 10.47826 16.63322 -5.032304 15.66956 -5.609002 -6.050496 -1.554799 -10.60107 -6.170179 15.82424 -8.861657 -6.079238 1.708453 -9.290243 -6.130731 11.02336 -21.82369 -4.738023 16.53741 14.35782 -6.044219 15.52459 -14.59036 -5.944127 15.45774 -6.889256 -6.017657 -0.3269103 7.151093 -6.778688 -0.4565105 18.71319 -5.090087 15.88243 10.24428 37.79004 -2.176143 7.763432 39.28494 16.56548 -2.726812 48.32671 16.14316 8.182515 40.26362 1.459615 8.236568 40.10902 5.91146 2.246684 44.5873 15.82435 16.3634 31.5851 -3.256993 10.88351 35.45063 -3.731848 20.63184 27.48969 15.07785 19.65221 28.18129 1.516175 20.15289 27.83996 6.096823 28.36343 16.87075 16.38316 24.55797 21.78989 15.44175 20.12447 27.90801 12.00049 5.517784 41.83627 16.35167 19.08349 29.08594 -0.4196735 22.33077 24.88309 15.6864 8.505586 39.81921 13.17675 9.915287 39.19182 -0.2403325 -0.580922 46.79043 15.99876 20.22498 27.90789 8.605111 12.42414 -4.249692 14.94226 20.40288 22.86221 14.80286 11.01925 -3.200732 13.35338 18.8731 23.28293 13.42405 19.85641 25.71409 13.99991 6.456975 -4.813217 -2.558352 15.98426 27.60123 -2.130109 23.10963 -0.1535291 16.78077 18.81794 23.57053 11.18989 26.44887 5.057322 15.73375 18.97055 26.48303 9.947742 10.60085 -2.814712 8.840604 9.660081 -4.18872 7.161795 19.13967 26.63255 6.39062 18.02633 25.28598 6.235997 19.19513 26.76553 2.273529 8.948321 -4.693892 1.923515 17.69836 26.77071 0.08469045 28.39867 11.44367 16.30188 31.05943 15.14671 17.39109 -20.21775 9.024265 17.74412 -17.46264 23.45551 15.32962 -9.929247 36.40054 16.85548 5.593161 37.41539 0.6016747 7.964682 35.68087 -0.8878582 6.957041 36.96137 15.86405 -8.04179 -2.510733 0.993418 -4.882287 -2.76895 -1.64641 -11.39819 -3.620912 14.23804 -7.207607 40.80773 17.20196 -4.383697 44.52023 16.21505 -18.78058 -1.731791 16.43209 -20.48015 3.807245 17.63195 -17.89669 13.88538 16.40746 -18.16949 18.60827 16.78874 -14.93165 27.41209 16.10493 -13.04406 31.66713 16.82118 1.620051 38.47428 18.90321 -1.429237 42.21345 16.46842 -12.90677 -2.486329 16.75319 17.05012 -0.4131605 16.49512 20.06102 19.67331 14.88048 22.98828 17.16058 15.72297 14.30591 -1.926341 15.46833 -9.944357 -3.423668 11.63986 -9.748141 -2.716076 8.331418 -9.175133 -3.84247 4.763995 6.95419 36.48076 12.13233 6.840816 37.4015 8.720402 5.845884 37.44378 3.614248 3.876609 -3.294081 -3.491065 -2.166758 -4.615306 -2.268209 1.848831 -3.865332 -3.381435 -5.56185 -8 -2.028837 5.63283 -8 -1.99536 9 -8 16 -9 -8 16 24 -8 16 -23.82216 -8.196467 16.37834 7.94781 -8 1.52198 8.758151 -8 6.06178 8.66379 -8.282768 10.8574 -8.80938 -8 11.1162 -8.723697 -8.171441 6.07794 -8.22565 -8 1.730607 16.50952 -8 16 -16.66851 -8 16 -2.576408 -7.887671 -4.064087 4.204292 -8 -3.12587 8.777586 -7.80502 13.6432 -6.912746 -7.68388 -0.421187 19.92554 -8 16 -13.11812 -8 16 7.155961 -7.84656 -0.3210144 8.50707 -8.09635 3.783371 8.710986 -8.13989 8.667725 -8.751996 -8 13.71754 -8.490111 -8 8.547372 -8.550641 -7.845388 3.90232 12.76396 -8 16 -20.61925 -8 16 -4.019613 -8 -3.109608 -0.2712702 -7.9036 -4.166147 2.015272 -7.929605 -3.854202 11.53132 39.36896 -2.028837 19.44716 31.45313 -1.99536 21.82811 29.07218 16 9.100186 41.8001 16 32.43471 18.46558 16 -1.506416 52.40671 16 21.0841 29.8162 1.52198 21.65709 29.2432 6.06178 21.39042 29.10997 10.8574 9.234974 41.66531 11.1162 9.174336 41.4835 6.07794 9.647734 41.25255 1.730607 27.13814 23.76215 16 3.677731 47.22256 16 13.72178 37.33737 -4.0641 17.51772 33.56605 -4.15678 18.43703 32.46326 -3.12587 21.80871 29.36733 13.6432 10.79963 40.54772 -0.421187 29.55363 21.34667 16 6.188234 44.71206 16 20.63267 30.48462 -0.3210144 21.41142 29.35261 3.783371 21.52483 29.17763 8.667725 9.275551 41.62474 13.71754 9.460732 41.43956 8.547372 9.527258 41.59169 3.90232 24.48963 26.41066 16 0.8841324 50.01616 16 12.62185 38.27844 -3.109608 15.52465 35.37564 -4.30027 16.31647 9.925705 14.80099 9.177513 13.58578 -0.4892324 14.26505 11.20146 11.22049 11.19816 12.65924 3.732783 13.04887 16.08304 5.388028 9.250529 7.272116 5.094607 8.702794 6.440904 -0.9201012 12.16871 16.81098 1.650872 13.65508 5.879307 12.27483 14.62649 15.89652 11.20509 16.8492 14.48061 12.96837 16.34144 4.183836 14.51593 14.58709 22.52928 1.323354 15.36549 20.81079 6.702009 8.887537 1.089586 3.610522 11.94096 2.257738 12.3464 17.97582 20.91694 12.80472 7.820921 1.004529 -1.312817 19.90739 17.79843 14.27349 15.48757 0.9584169 14.47262 -8.754077 7.688729 2.023695 -6.493495 17.68665 1.610302 -1.868887 29.41802 1.989437 3.469043 26.61911 12.46822 -3.104486 16.64042 11.01654 -4.763656 5.780616 12.03011 4.600904 26.70642 14.96647 0.09104973 15.54356 15.56127 -9.192836 7.497894 6.884351 -5.808779 17.29304 6.121377 0.148274 29.50718 7.128442 -6.173552 1.4071 18.07568 -4.795523 14.53332 18.27957 0.4445965 26.40143 18.65025 -14.77117 15.83017 17.93617 -10.55179 29.62482 16.79394 22.8539 5.187861 17.26743 17.94126 2.222258 16.83901 18.95167 5.171688 16.62897 19.10119 8.151384 17.39702 20.01113 10.08927 16.64701 20.85455 12.53013 15.6517 22.28946 15.01806 15.65043 13.24114 7.475844 11.05696 13.60581 9.742311 11.26715 16.53442 7.022544 15.45857 16.21533 7.992736 14.2075 10.33424 10.44188 5.198244 9.950528 9.132711 4.523948 9.388387 11.83333 -0.4584936 8.367835 8.867803 -0.1380724 12.27317 -0.4191505 12.39841 17.83824 -3.210198 15.90483 25.66383 17.48268 15.98244 9.138875 3.512644 3.430516 11.83431 13.37854 4.961769 14.77491 18.86408 6.300704 15.97474 24.01932 0.5475782 10.57846 14.73364 0.5651074 14.25164 13.90615 11.06125 16.80184 12.09687 14.34366 13.32836 19.76159 0.3865058 16.80954 23.88683 6.063668 9.72923 -1.189695 2.769738 13.24543 4.237125 12.48142 19.48213 21.57218 12.81793 7.994556 -1.180225 -0.197877 16.18229 3.051891 15.20928 17.40582 18.0517 12.12417 7.948752 3.73686 0.04501378 18.6172 15.63944 13.88413 27.24569 13.74795 15.96874 21.0311 -3.310473 16.38095 23.09257 1.991733 16.67734 23.39771 10.84167 16.9114 20.70183 3.453711 17.11833 26.09391 7.791219 16.27279 25.44673 12.69119 16.97546 20.12846 -0.2788339 16.44783 -0.8986564 -0.09512019 -2.913892 0.9208483 4.222628 -3.483066 2.075582 8.997874 -3.199489 3.414547 12.94612 -3.390144 4.453889 16.57281 -3.451387 6.463272 21.31114 -3.261853 8.115782 25.90256 -3.188935 10.99696 29.57964 -3.459161 1.194431 -0.1647824 -3.807642 5.195688 -0.7944403 -2.32949 6.587951 5.261336 -1.762087 3.498472 7.295391 -2.414757 11.87545 23.41998 -2.062083 6.070401 15.82697 -1.696816 2.797219 10.58069 -2.96333 5.608261 1.998593 -1.402335 3.001492 3.120857 -2.693305 10.06086 18.36128 -1.684671 -5.99894 1.76704 0.8090695 -5.790289 6.570818 -0.009773552 -4.094737 9.935946 -0.08927303 -2.417994 15.00567 0.09850138 -0.4799845 19.80722 0.1922379 2.464001 23.07978 -0.07442885 4.762141 27.12687 -0.8695269 6.715154 31.03019 -0.8432103 3.973474 22.8012 -1.234275 2.556602 19.02799 -1.284378 1.33568 15.06736 -1.463195 -0.487874 10.29459 -1.586165 -1.905628 6.022098 -1.617401 -3.179997 2.170886 -1.334435 0.4829761 32.44639 1.284088 3.43153 35.12647 1.452145 -5.705954 2.84482 11.41959 -8.404542 -0.7850084 11.22428 -8.566773 0.5803415 17.18045 -11.28771 -0.7679713 16.0965 -8.063286 0.7344243 1.570123 -8.921832 4.027396 0.6655523 -7.468133 10.62316 1.663378 -6.859161 14.36244 1.87593 -5.019727 21.10104 1.804219 -3.744258 24.7815 2.467268 5.768302 32.99721 12.77387 4.417687 30.24319 12.29177 0.4061836 23.2177 12.35126 0.1356113 19.68095 11.62695 -3.346525 12.26667 11.66439 -4.089537 7.590326 11.51303 3.745052 22.70905 15.08059 1.984687 20.28328 15.52645 -1.263625 11.6815 15.40151 -1.615744 7.905922 15.79049 -4.124688 21.78088 5.937483 -2.76592 24.88465 6.959178 -7.616715 11.24938 6.202355 -6.395813 14.23348 6.437123 -9.154343 0.5819664 4.742718 -7.972137 3.940004 5.304792 1.157892 32.23343 5.632199 2.990613 35.20476 5.844885 -2.506232 2.746585 16.74573 -4.665222 1.396053 16.59606 0.974517 29.01493 19.38268 0.6261055 33.4042 18.51597 1.489833 36.29968 19.49515 -7.838129 32.96685 17.65921 -5.38112 35.95584 17.30258 -3.443568 39.3495 16.30978 -5.807064 4.851866 17.79811 -5.569683 7.912794 17.06057 -5.132396 12.23429 17.85143 -4.946928 17.08312 18.39723 -2.190851 19.62908 18.75074 -0.7703874 22.22044 18.51998 -14.69837 1.699755 16.82995 -14.0561 6.546294 17.58622 -14.80431 10.71619 17.0866 -12.68586 18.59654 18.05692 -12.3279 22.12669 17.22929 -10.52933 25.925 17.65382 4.47328 36.70343 18.5283 4.33729 32.83347 16.41065 4.417771 30.09842 17.25926 -6.909501 14.91832 18.05784 -11.07055 14.83244 17.86813 -4.483582 27.38412 18.24674 -7.980328 28.9231 17.87222 -6.780722 16.67234 17.45069 -10.55864 17.77352 17.85014 -5.125756 21.11535 18.20564 -8.544653 21.58963 17.37194 -4.998179 23.89478 18.70561 -8.060362 25.31081 18.19626 -7.860174 10.4443 18.69558 -11.34461 10.10434 17.416 -2.835487 31.15453 18.53206 -5.623576 31.33905 18.24425 -10.50676 3.149375 16.84449 -9.1714 5.845375 17.36028 -2.150341 35.38772 18.4443 -1.235478 37.86677 17.58539 -17.78184 4.595155 16.99914 6.955615 36.72106 13.99819 -7.096263 5.848558 9.756186 -5.146416 16.65927 8.609225 1.772542 28.23359 10.08718 -2.103832 16.02448 12.64896 4.863145 34.1735 9.092095 -6.898766 2.797342 8.878372 -5.87828 9.295816 9.009699 -4.695796 13.35099 9.585906 -2.729549 20.40047 9.090556 -0.8036324 24.20062 8.810375 -2.362586 7.418429 13.16393 -2.346119 12.73308 13.63469 5.394915 32.94501 14.71412 -10.25801 -0.4060219 14.00724 -3.613876 4.162986 14.80789 -6.599202 0.6621956 14.27253 -4.913465 2.193892 14.16965 -8.409133 0.7143285 15.03167 2.221678 28.93977 10.14478 3.540126 32.13619 9.444427 -8.481144 1.837749 8.867501 0.06712746 17.32169 13.15854 1.598052 21.69674 14.10669 13.05355 11.16948 9.01145 12.10051 12.1357 6.214118 10.72331 5.967692 7.772117 11.90088 6.491108 9.424504 14.49771 16.40314 9.541872 12.88818 16.28746 7.204345 10.62306 2.326565 6.910874 11.62005 1.909007 9.162911 15.83434 20.8884 8.476054 16.83739 20.68662 10.23497 11.48092 8.19503 9.447209 10.68882 8.789671 7.056927 12.63153 9.708189 9.131164 11.40598 9.700816 7.095639 17.70102 22.91079 9.125682 18.50187 22.53132 10.9987 10.54745 3.939217 7.027534 12.02901 3.816324 9.668007 13.20766 13.71486 8.622745 12.17824 13.74988 6.969981 9.926127 -0.9680688 5.971471 11.27548 -0.501343 9.212223 15.87656 18.82774 8.655381 15.57077 18.64151 10.39617</float_array>
          <technique_common>
            <accessor source="#Plane_023-mesh-positions-array" count="383" stride="3">
              <param name="X" type="float"/>
              <param name="Y" type="float"/>
              <param name="Z" type="float"/>
            </accessor>
          </technique_common>
        </source>
        <source id="Plane_023-mesh-normals">
          <float_array id="Plane_023-mesh-normals-array" count="1149">0.8325775 -0.3317492 0.4435734 0.3308563 -0.1984038 0.9225888 0.4476221 -0.1642532 0.8790082 0.895372 -0.1803684 0.4071565 0.8971365 -0.359758 -0.2563596 0.9515508 -0.09372371 -0.29286 0.3295751 -0.2750376 0.9031804 0.04437404 -0.09759861 0.9942362 0.1046795 0.0287792 0.9940896 0.004913568 -0.01321476 0.9999007 0.4767724 -0.1655367 0.8632993 0.4081906 -0.1722793 0.8964934 -0.7564257 0.6000133 0.2603924 -0.7954323 0.5966581 0.1062387 -0.766674 0.6420333 0.002075254 -0.4219318 0.3657454 0.8295806 -0.6555005 0.5052829 0.5612559 -0.591638 0.5243135 0.6124214 -0.06381547 -0.02536135 0.9976394 -0.1703892 -0.05084514 0.9840642 -0.0770902 0.008880913 0.9969846 0.01922708 -0.03042763 0.9993521 0.6904706 -0.0966854 0.7168699 0.5138568 -0.08615654 0.8535388 -0.1048319 0.04278731 0.9935691 0.2348728 -0.06930822 0.9695521 -0.1177114 0.04318422 0.9921085 0.3975448 -0.158792 0.9037384 0.4304049 -0.1224714 0.8942888 0.7231304 -0.3131002 -0.615671 0.7742388 -0.274092 -0.5704629 0.7941675 -0.2434812 -0.5567901 -0.7488973 0.009277641 0.6626211 -0.9476668 0.0594809 0.3136712 -0.9485656 0.15461 0.2762593 -0.9240594 0.362293 0.1218935 -0.9264773 0.3111758 0.2116825 -0.9134201 0.3502425 0.2073499 -0.9462945 0.1654726 0.277751 -0.9221079 -0.06885135 0.3807579 -0.8435379 0.1558287 0.5139661 0.8998896 -0.1540305 0.4080114 0.1180799 0.07690906 0.9900214 0.818141 -0.4619153 0.3424613 -0.6921471 0.6355034 0.3421518 -0.7343525 0.5345129 0.4183569 -0.1631538 0.09573769 0.9819446 -0.04095613 -0.01165813 0.9990929 -0.01989865 0.2003599 0.9795204 0.7696874 0.03521883 0.6374489 0.4034903 -0.104161 0.9090358 0.08813822 -0.0871616 0.9922876 0.5106536 -0.1066659 0.8531444 0.3887203 -0.02661252 0.9209715 -0.726846 0.6866827 -0.01272648 -0.9023233 0.413196 0.1228082 -0.1304095 0.1879693 0.9734788 0.02652108 0.1438365 0.9892461 0.04400855 0.01257383 0.9989521 0.6204361 -0.5782272 0.5298229 0.7058511 -0.7063394 -0.05346983 0.72197 -0.6488757 -0.2402497 0.1644669 0.201456 0.9655911 0.8506141 -0.2812999 0.444214 0.4660267 -0.3086092 0.8292042 -0.1593695 -0.09427273 0.9827075 -0.7571873 0.1988341 0.6221998 -0.2698469 -0.02563571 0.962562 -0.2422637 0.05539286 0.9686279 -0.2228225 0.07980835 0.9715867 -0.2309104 0.0312519 0.972473 0.7861716 -0.03973585 0.6167297 -0.3098261 0.01184123 0.9507195 -0.4570837 0.2338369 0.8581345 -0.1036736 0.0101934 0.9945591 -0.8057307 0.3950983 0.4412429 -0.5714793 0.3134056 0.7584117 -0.8277065 0.1553113 0.5392407 -0.824263 0.2010911 0.5292947 0.8028637 -0.5685997 -0.1791771 -0.05948138 0.318587 0.9460256 0.8339659 -0.2223624 0.5050307 0.3586949 -0.136666 0.9233961 -0.8127464 0.5685349 0.1273245 -0.6403176 0.02499496 0.7677035 -0.5411041 0.001312315 0.8409546 -0.03103804 -0.1309884 0.990898 -0.08658355 -0.022035 0.9960009 -0.8195881 0.4149365 0.3950991 -0.8048245 0.2518148 0.5374449 -0.6487089 0.2160125 0.7297366 0.1036733 0.03097683 0.9941289 -0.3762997 -0.01074266 0.9264358 -0.7339226 -0.001037597 0.6792324 0.9377534 -0.1221365 0.3251175 0.9442887 0.2826976 0.1685259 0.9980724 -0.06198465 0.003082394 -0.09570735 -0.1299496 0.9868907 0.01394736 -0.1007751 0.9948115 0.5223655 -0.7390818 0.4253146 0.5835973 -0.4933811 0.6449723 0.7237023 -0.3966583 0.5647276 0.8985839 -0.3087347 -0.3118171 0.7940427 -0.3698289 -0.4824134 0.5794078 -0.7191249 0.3835963 0.6528958 -0.5284693 0.5426302 -0.442891 0.5187916 0.7312339 -0.4070665 0.2498615 0.8785592 -0.8144096 0.1734111 0.5537741 -0.5898731 0.1535415 0.792764 -0.465902 0.1518317 0.8717123 -0.733832 0.6790502 0.0195322 0.5538401 -0.2442792 0.795983 0.5987659 -0.4442446 0.666428 0.3943659 -0.1267757 0.9101668 0.07385659 -0.0927785 0.9929438 0.04916596 -0.1446291 0.9882637 0.9668076 0.2510483 0.04751789 0.971747 0.2357877 0.01058995 0.5366488 -0.7765599 0.3300952 0.2406702 -0.4608014 0.8542482 0.8218201 -0.404623 -0.4011134 0.7712582 -0.09870004 -0.6288237 -0.06363248 0.3414793 0.9377328 -0.4284022 0.7777589 0.4599593 0.9900836 -0.03625714 -0.1357203 -0.2458642 -0.1362385 0.9596822 -0.4132626 -0.1449059 0.8990086 0.9041305 -0.4253152 0.04068201 0.9114761 -0.4002243 -0.09503567 -0.8548072 0.142005 0.4991385 -0.5608864 0.2686322 0.7830985 -0.7058993 0.316022 0.6339056 0.2349395 -0.1854063 0.9541635 0.3908578 -0.4147848 0.8216956 -0.5842229 0.6092789 0.5361557 -0.3514861 0.5576106 0.752016 -0.05352997 0.04254317 0.9976596 -0.1208232 -0.1208232 0.9852937 -0.1056877 -0.02789443 0.9940081 0.6191546 0.5913816 0.5166387 0.4082501 0.4672734 0.7842113 -0.03866821 0.1971255 0.9796154 0.1943136 -0.0674467 0.9786181 0.5528884 -0.1983147 0.8093119 0.1319326 -0.01614439 0.9911273 0.1235402 -0.116704 0.9854533 0.7169811 -0.03149551 0.6963809 0.8836187 0.2350578 0.4049271 0.7908162 -0.07080477 0.6079445 0.2511109 -0.1011097 0.9626631 0.09378635 0.1004701 0.99051 -0.04709106 0.1077327 0.993064 0.916285 0.1030336 0.3870475 0.9864192 0.03543305 0.1603797 0.9807122 0.1835745 0.06711226 0.8022001 -0.5931428 -0.06824117 0.9850391 0.1707552 0.02325564 0.8359875 0.5305188 0.1402671 -0.3573203 0.3166075 0.878682 -0.1201241 0.1965444 0.9731088 -0.2197673 0.1875697 0.9573505 -0.1051374 0.150641 0.9829819 -0.05047911 0.1222913 0.9912098 -0.02353042 0.007782399 0.9996929 0 -0.04666322 0.9989107 -0.03619569 -0.07559597 0.9964815 -0.9786204 0.1691054 0.1170706 -0.9483892 0.1630344 0.2719885 -0.9896526 0.1129828 0.08844518 -0.9099423 0.2056412 0.360162 -0.8456495 0.06338781 0.5299615 -0.9956684 -0.0838676 0.04013311 -0.9693044 0.2330481 0.07834392 -0.9453282 0.3260047 -0.008697926 -0.7092158 0.6850443 0.1665152 -0.9467788 0.1515908 0.2839543 -0.9002859 0.4209818 0.1107236 -0.9288104 0.2500408 0.2734794 -0.2560821 0.1038244 0.9610632 0.1813437 -0.08832192 0.9794457 0.2809638 -0.4885278 0.826075 0.278733 -0.1721289 0.9448173 0.469086 -0.3769474 0.7986671 0.5630275 -0.1686518 0.8090468 0.6434669 -0.166116 0.7472322 0.06457829 -0.3217319 0.944626 0.05838197 0.02072209 0.9980792 -0.679773 0.02496427 0.7329975 0.7020784 -0.6039571 -0.3772557 -0.7083299 0.3547906 0.6102398 -0.4249427 0.3350956 0.8409131 -0.4834811 0.1590342 0.8607869 0.9239917 -0.2505606 0.2888924 0.8263071 -0.5632011 -0.004608392 0.7172319 -0.6958684 0.03668403 0.858389 -0.510895 -0.04641997 0.9534308 -0.291889 0.07596313 0.9129822 -0.4047458 0.05142486 0.05514818 0.05200469 0.9971231 0.7857827 -0.3334243 -0.5209355 0.5625048 -0.4661242 0.6828737 -0.5849329 0.3279299 0.7418326 -0.5029568 0.2461985 0.8285052 0.139626 0.2185491 0.9657852 -0.1686502 0.3453881 0.9231816 -0.2834352 0.5522515 0.7840171 0.02694827 0.4003483 0.9159668 -0.7093898 0.1328809 0.6921769 -0.7546204 0.6445373 0.1229623 -0.6896358 0.7241527 -0.002319395 -0.6981808 0.7156682 -0.01904374 -0.7434732 0.1468879 0.6524351 -0.6838138 0.7278531 0.05127227 -0.7501725 0.6462532 0.1399935 0.8229134 -0.2515373 -0.5094531 0.96688 -0.1347729 0.2167476 0.08169937 -0.07751828 0.9936379 0.2508344 -0.08450663 0.9643344 0.8890569 -0.3044297 -0.3419074 0.9637969 -0.2177546 0.1538779 0.7360426 -0.3369675 -0.5871067 0.02176022 0.005127191 0.9997501 0.04901325 -0.003875851 0.9987907 0.6895475 -0.3625664 -0.626953 0.7165064 -0.3245749 -0.6174706 -0.7805363 0.3798152 0.4964913 -0.8720505 0.19581 0.4485381 -0.5545682 -0.01727396 0.8319591 -0.6794878 0.4027973 0.6132298 -0.214091 0.04864728 0.9756017 -0.03885132 -0.1185377 0.9921893 -0.5988795 0.1906538 0.7778139 -0.3952266 0.07822126 0.9152472 -0.4815362 -0.06814998 0.8737725 0.6680977 -0.5044533 0.5469666 0.7963385 -0.5042694 -0.3340025 0.1516171 -0.05960309 0.9866406 -0.03878968 -0.08359163 0.9957449 -0.7615477 0.2454666 0.599826 -0.8329 0.3943999 0.388235 -0.8710196 -0.03064131 0.4902918 -0.7629551 0.2787033 0.5832872 -0.03338795 -9.15575e-4 0.9994421 0.09906399 0.03857576 0.994333 0.04361236 0.1059942 0.9934099 -0.2250497 0.1944998 0.954737 -0.1486266 0.09009152 0.9847811 -0.9441865 0.08646214 0.3178622 -0.8282275 0.2551702 0.4989264 0.791593 -0.05182063 0.6088473 0.745861 -0.4670978 -0.4748802 0.7000484 -0.3828628 -0.6027839 -0.03561604 0.1457909 0.9886742 -0.2883743 0.1689838 0.9424886 -0.2714678 0.1548541 0.9499082 0.9227078 -0.3790445 0.07025444 -0.4005302 0.2672541 0.8764422 -0.6224992 0.6501495 0.4356609 -0.1856473 -0.02774178 0.9822248 0.8658365 -0.1402978 0.4802539 -0.1239995 -0.05124169 0.9909585 -0.1080072 -0.04168909 0.9932757 -0.1537235 0.06167864 0.986187 0.7509036 -0.5023216 -0.428739 -0.9198814 0.1058408 0.3776454 -0.6161826 0.156533 0.7718915 -0.08130317 -0.1081296 0.9908066 -0.04260414 3.05187e-5 0.9990921 -0.6789569 0.1380986 0.7210731 -0.3726092 0.1894938 0.9084352 0.1317522 -0.04217779 0.9903851 0.3489867 -0.121039 0.9292781 0.4362459 -0.1493014 0.8873549 0.8159925 -0.3932707 0.4236679 0.05328691 -0.005310356 0.9985652 -0.8068994 -0.05005162 0.5885645 0.4894395 -0.2232493 0.8429762 -0.7718112 0.3456044 0.5337275 -0.867465 0.4109045 0.2804673 -0.7685984 0.5013103 0.3974225 0.1248536 0.05819988 0.9904668 -0.7383448 0.2031646 0.6430951 -0.7697771 0.1714244 0.6148634 -0.7074632 0.2267874 0.6693754 -0.828904 0.2135435 0.5170274 -0.08121103 0.1062976 0.9910125 0.8687316 -0.4368836 0.2333199 0.2304787 -0.1516179 0.9611929 -0.1013227 -0.1005597 0.9897583 -0.8681086 0.3561244 0.3457785 -0.9047322 0.2146698 0.3679356 0.02798581 -0.1045882 0.9941218 -0.9160206 0.298636 0.2678111 0.7151506 -0.2577326 -0.6497181 0.8454413 -0.1393809 -0.5155599 0.6928829 -0.2528231 -0.6752732 -0.6114497 -0.02645999 0.7908409 0.7660107 -0.359368 0.5329938 -0.1940082 -0.05581891 0.9794106 -0.7878211 0.1059625 0.6067206 -0.1925153 -0.06485337 0.9791486 3.35712e-4 0.07617604 0.9970943 0.05743616 -0.01016271 0.9982975 0.8027519 -0.1213451 0.5838362 0.9888944 -0.1242107 0.08160674 0.7169586 0.09778368 0.6902237 0.4454892 0.003173947 0.8952817 0.9210172 -0.2974125 -0.2515417 -0.05874878 0.1922077 0.9795942 0.1552496 0.05719238 0.9862183 -0.7605014 0.4436843 0.4741117 0.7169048 -0.3816778 -0.5834122 -0.4456412 -0.150368 0.8824928 -0.3702231 -0.04351973 0.9279229 0.8004617 -0.5156856 -0.3054988 0.8081525 -0.1316605 -0.574069 0.7045977 -0.3115709 -0.6375468 0.4436542 -0.1660231 0.8806858 0.7323042 -0.4741437 -0.4887928 0.7046888 -0.4210126 -0.5711061 0.3126404 -0.2054259 0.9273922 0.6368425 -0.1817108 0.749275 -0.799518 0.4188489 0.4305073 0.8375118 -0.1399312 -0.5281983 0.3408989 -0.1123104 0.9333672 0.4693883 -0.1113958 0.8759371 0.04171985 -0.1191474 0.9919996 0.2635296 -0.05813825 0.9628978 -0.1735644 0.1026066 0.9794628 -0.2674112 0.04773235 0.9623996 0.786315 -0.2604774 0.5602323 -0.7794955 0.5813332 0.2333207 0.09729522 0.05386638 0.9937969 0.9354978 -0.2208963 -0.2757694 -0.01556468 -0.03943055 0.9991012 0.8366501 -0.2593511 -0.4824456 0.8932313 -0.4482637 0.03460854 -0.9662947 -0.07321524 0.2468076 0.472622 -0.3983685 0.7860859 0.9171693 -0.3786543 -0.1241834 -0.9284255 0.1704193 0.3301265 -0.9666897 -0.09216737 0.2387807 -0.9311764 0.2259348 0.2861191 0.1634276 -0.0720241 0.9839227 -0.2427218 -0.002105832 0.9700937 0.4468885 -0.8939295 -0.03436428 0.2140882 -0.9700653 0.114628 0.8264137 -0.5628854 -0.01416063 -0.03402918 -0.7198935 0.69325 0.6690188 -0.6510122 0.3586045 -0.6521339 -0.1075496 0.7504362 -0.3922337 -0.1100525 0.9132587 -0.8169733 0.1698709 0.5510885 -0.9490364 -0.1089548 0.2957346 0.7063764 -0.3305273 -0.6259266 0.3390048 -0.1509163 0.928601 0.8967384 -0.3945795 0.2004179 0.7546322 -0.4523338 -0.4753152 -0.04611396 -0.1045575 0.9934492 -0.3223078 0.4040368 0.8560795 -0.3086096 0.3119666 0.898575 -0.4289435 0.1485661 0.8910306 -0.6307143 0.045596 0.7746744 0.007751882 0.2148262 0.9766215 -0.7986915 0.3861308 0.4615136 -0.4142419 0.102149 0.9044166 -0.1653237 0.1087712 0.980223 -0.1247927 -0.07547378 0.9893081 -0.8569775 0.2928922 0.4240329 0.1352602 0.02502554 0.990494 -0.1249742 0.08859586 0.9881966 0.8125084 -0.3579578 -0.460105 -0.7792685 0.4390748 0.4471623 -0.9487389 0.2871516 0.1320549 -0.8874066 0.3388851 0.3125165 -0.916005 0.01764011 0.4007789 -0.9028526 -0.07800734 0.4228144 -0.8715361 0.3806352 0.3090982 -0.8655305 0.1767684 0.4686256 -0.8818895 0.4179636 0.2181223 -0.8088287 0.4309663 0.4000806 0.02697843 0.02697843 0.999272</float_array>
          <technique_common>
            <accessor source="#Plane_023-mesh-normals-array" count="383" stride="3">
              <param name="X" type="float"/>
              <param name="Y" type="float"/>
              <param name="Z" type="float"/>
            </accessor>
          </technique_common>
        </source>
        <vertices id="Plane_023-mesh-vertices">
          <input semantic="POSITION" source="#Plane_023-mesh-positions"/>
        </vertices>
        <triangles material="Material_002-material" count="684">
          <input semantic="VERTEX" source="#Plane_023-mesh-vertices" offset="0"/>
          <input semantic="NORMAL" source="#Plane_023-mesh-normals" offset="1"/>
          <p>274 0 253 1 254 2 172 3 287 4 180 5 76 6 68 7 12 8 245 9 259 10 260 11 52 12 51 13 50 14 43 15 54 16 31 17 308 18 327 19 309 20 297 21 314 22 313 23 318 24 295 25 328 26 251 27 261 28 260 11 358 29 278 30 277 31 158 32 206 33 157 34 4 35 48 36 49 37 45 38 40 39 41 40 284 41 301 42 293 43 127 44 31 17 25 45 320 46 317 47 316 48 270 49 250 50 172 3 54 16 52 12 25 45 232 51 262 52 231 53 36 54 50 14 47 55 75 56 21 57 35 58 264 59 86 60 292 61 30 62 62 63 17 64 148 65 24 66 32 67 312 68 319 69 187 70 65 71 76 6 12 8 77 72 80 73 5 74 39 75 48 36 4 35 212 76 211 77 154 78 86 60 85 79 292 61 21 57 74 80 30 62 253 1 173 81 252 82 24 66 29 83 41 40 24 66 41 40 32 67 32 67 38 84 78 85 204 86 5 74 15 87 252 82 260 11 259 10 382 88 161 89 220 90 68 7 103 91 12 8 242 92 202 93 245 9 81 94 9 95 82 96 65 71 9 95 81 94 330 97 308 18 307 98 132 99 34 100 139 101 285 102 274 0 286 103 19 104 86 60 60 105 39 75 1 106 37 107 14 108 42 109 0 110 50 14 26 111 52 12 51 13 47 55 50 14 54 16 25 45 31 17 61 112 16 113 34 100 61 112 23 114 16 113 10 115 117 116 103 91 9 95 99 117 114 118 294 119 301 42 183 120 341 121 180 5 336 122 116 123 1 106 92 124 290 125 172 3 180 5 120 126 105 127 0 110 85 79 33 128 84 129 167 130 219 131 216 132 41 40 47 55 45 38 135 133 150 134 23 114 142 135 122 136 31 17 140 137 133 138 28 139 93 140 7 141 109 142 237 143 257 144 236 145 10 115 95 146 117 116 103 91 109 142 12 8 13 147 101 148 107 149 228 150 229 151 226 152 8 153 83 154 115 155 19 104 20 156 86 60 115 155 83 154 100 157 7 141 93 140 113 158 82 96 9 95 114 118 115 155 101 148 8 153 99 117 9 95 113 158 333 159 299 160 332 161 5 74 11 162 102 163 116 123 102 163 11 162 108 164 94 165 2 166 3 167 53 168 111 169 53 168 14 108 96 170 14 108 110 171 96 170 96 170 111 169 53 168 111 169 97 172 3 167 112 173 98 174 4 35 98 174 106 175 4 35 97 172 112 173 3 167 106 175 92 124 1 106 378 176 156 177 207 178 28 139 78 85 79 179 184 180 320 46 316 48 104 181 88 182 118 183 6 184 90 185 118 183 119 186 120 126 89 187 105 127 91 188 0 110 352 189 293 43 294 119 210 190 248 191 244 192 1 106 4 35 106 175 348 193 62 63 314 22 131 194 20 156 147 195 19 104 132 99 147 195 131 194 146 196 20 156 146 196 130 197 33 128 130 197 145 198 33 128 35 58 67 199 75 56 75 56 333 159 74 80 16 113 23 114 150 134 350 200 284 41 293 43 16 113 150 134 121 201 220 90 162 202 222 203 23 114 151 204 135 133 22 205 122 136 137 206 137 206 136 207 22 205 136 207 151 204 22 205 24 66 123 208 138 209 138 209 129 210 29 83 129 210 144 211 36 54 201 212 245 9 202 93 128 213 143 214 26 111 346 215 283 216 284 41 127 44 25 45 143 214 68 7 334 217 69 218 29 83 36 54 47 55 276 219 178 220 175 221 149 222 18 223 35 58 344 224 286 103 345 225 371 226 154 78 359 227 211 77 162 202 161 89 220 90 170 228 168 229 89 187 0 110 87 230 146 196 85 79 20 156 204 86 230 231 77 72 163 232 189 233 190 234 263 235 292 61 291 236 230 231 225 237 227 238 369 239 370 240 361 241 78 85 38 84 217 242 235 243 259 10 234 244 223 245 56 246 27 247 366 248 203 249 167 130 314 22 295 25 315 250 345 225 182 251 338 252 121 201 34 100 16 113 310 253 58 254 71 255 17 64 62 63 335 256 243 257 209 258 43 15 325 259 318 24 319 69 272 260 251 27 252 82 323 261 324 262 325 259 318 24 329 263 319 69 6 184 107 149 90 185 313 23 30 62 74 80 340 264 85 79 84 129 376 265 167 130 216 132 80 73 77 72 171 266 224 267 2 166 44 268 197 269 190 234 191 270 188 271 225 237 46 272 226 152 227 238 188 271 255 273 263 235 174 274 228 150 46 272 55 275 362 276 361 241 376 265 253 1 259 10 258 277 213 278 208 279 164 280 243 257 238 281 237 143 160 282 197 269 195 283 195 283 198 284 196 285 229 151 55 275 223 245 205 286 223 245 27 247 179 287 305 288 304 289 190 234 189 233 227 238 227 238 225 237 188 271 77 72 230 231 227 238 250 50 262 52 261 28 42 109 87 230 0 110 217 242 40 39 45 38 31 17 22 205 43 15 207 178 155 290 360 291 233 292 261 28 232 51 34 100 60 105 61 112 164 280 208 279 165 293 342 294 279 295 280 296 155 290 210 190 153 297 274 0 273 298 253 1 301 42 330 97 183 120 309 20 317 47 186 299 42 109 53 168 218 300 332 161 297 21 333 159 143 214 52 12 26 111 248 191 213 278 243 257 322 301 320 46 304 289 141 302 21 57 30 62 239 303 89 187 87 230 8 153 63 304 83 154 63 304 289 305 83 154 7 141 9 95 65 71 264 59 61 112 60 105 203 249 171 266 167 130 270 49 269 306 249 307 255 273 254 2 257 144 174 274 291 236 182 251 273 298 181 308 173 81 300 309 67 199 66 310 368 311 220 90 168 229 12 8 7 141 65 71 354 312 175 221 338 252 317 47 310 253 186 299 240 313 247 314 239 303 356 315 290 125 341 121 343 316 176 317 279 295 237 143 256 318 255 273 80 73 11 162 5 74 195 283 371 226 369 239 357 319 179 287 339 320 240 313 42 109 218 300 324 262 185 321 318 24 1 106 11 162 37 107 168 229 78 85 217 242 124 322 33 128 145 198 49 37 112 173 4 35 256 318 23 114 61 112 289 305 270 49 290 125 207 178 159 323 210 190 347 324 179 287 283 216 212 76 222 203 162 202 39 75 80 73 203 249 303 325 284 41 283 216 6 184 88 182 64 326 249 307 64 326 262 52 303 325 326 327 302 328 254 2 174 274 274 0 231 53 89 187 239 303 311 329 72 330 58 254 271 331 250 50 251 27 201 212 244 192 234 244 286 103 174 274 182 251 164 280 214 332 209 258 323 261 312 68 311 329 320 46 323 261 321 333 100 157 82 96 114 118 254 2 258 277 257 144 309 20 334 217 308 18 271 331 288 334 287 4 134 335 35 58 21 57 181 308 344 224 337 336 175 221 281 337 277 31 215 338 3 167 49 37 229 151 205 286 79 179 28 139 79 179 205 286 268 339 330 97 307 98 276 219 275 340 315 250 315 250 348 193 314 22 62 63 313 23 314 22 216 132 163 232 160 282 209 258 54 16 43 15 43 15 22 205 238 281 204 86 77 72 5 74 215 338 218 300 53 168 380 341 379 342 48 36 48 36 215 338 49 37 158 32 200 343 202 93 213 278 159 323 156 177 297 21 296 344 314 22 38 84 40 39 217 242 51 13 45 38 47 55 231 53 239 303 232 51 239 303 247 314 232 51 223 245 55 275 56 246 70 345 186 299 71 255 351 346 352 189 294 119 353 347 266 348 351 346 268 339 76 6 65 71 294 119 183 120 267 349 353 347 349 350 266 348 240 313 169 351 246 352 333 159 297 21 74 80 281 337 178 220 185 321 321 333 311 329 310 253 179 287 184 180 283 216 221 353 166 354 206 33 313 23 74 80 297 21 336 122 280 296 177 355 306 356 305 288 282 357 349 350 268 339 65 71 272 260 181 308 288 334 355 358 276 219 354 312 15 87 2 166 224 267 331 359 326 327 327 19 184 180 303 325 283 216 198 284 191 270 192 360 68 7 76 6 307 98 307 98 308 18 334 217 303 325 184 180 316 48 79 179 78 85 170 228 242 92 232 51 247 314 356 315 266 348 82 96 326 327 317 47 327 19 193 361 194 362 222 203 152 363 198 284 192 360 212 76 192 360 193 361 38 84 41 40 40 39 77 72 189 233 171 266 14 108 91 188 110 171 171 266 189 233 219 131 230 231 224 267 44 268 226 152 188 271 228 150 228 150 188 271 46 272 308 18 331 359 327 19 160 282 163 232 197 269 195 283 197 269 198 284 79 179 226 152 229 151 226 152 79 179 194 362 193 361 192 360 226 152 192 360 191 270 226 152 226 152 194 362 193 361 77 72 227 238 189 233 227 238 226 152 191 270 190 234 227 238 191 270 204 86 15 87 224 267 27 247 125 364 140 137 374 365 217 242 45 38 245 9 234 244 259 10 52 12 54 16 209 258 154 78 152 363 212 76 155 290 207 178 210 190 172 3 271 331 287 4 245 9 233 292 242 92 241 366 221 353 158 32 281 337 306 356 282 357 242 92 241 366 158 32 244 192 235 243 234 244 148 65 28 139 133 138 221 353 246 352 169 351 244 192 153 297 210 190 159 323 213 278 248 191 213 278 164 280 243 257 87 230 240 313 239 303 244 192 236 145 235 243 119 186 88 182 104 181 102 163 15 87 5 74 140 137 205 286 27 247 298 367 73 368 187 70 264 59 263 235 256 318 185 321 315 250 295 25 173 81 272 260 252 82 243 257 236 145 248 191 241 366 247 314 246 352 63 304 249 307 269 306 202 93 199 369 201 212 170 228 194 362 79 179 236 145 258 277 235 243 299 160 329 263 332 161 66 310 299 160 300 309 319 69 298 367 187 70 233 292 245 9 260 11 231 53 64 326 88 182 214 332 52 12 209 258 322 301 306 356 324 262 355 358 340 264 275 340 81 94 82 96 266 348 82 96 83 154 289 305 281 337 358 29 277 31 289 305 269 306 270 49 304 289 305 288 322 301 307 98 76 6 268 339 267 349 183 120 330 97 301 42 302 328 331 359 124 322 30 62 17 64 329 263 328 26 332 161 328 26 295 25 296 344 332 161 328 26 296 344 57 370 69 218 334 217 201 212 155 290 153 297 196 285 152 363 154 78 70 345 57 370 309 20 186 299 310 253 71 255 169 351 215 338 166 354 73 368 72 330 187 70 23 114 22 205 151 204 298 367 299 160 59 371 312 68 187 70 72 330 13 147 64 326 63 304 128 213 36 54 144 211 292 61 355 358 291 236 291 236 354 312 182 251 180 5 342 294 336 122 268 339 353 347 267 349 267 349 351 346 294 119 265 372 351 346 266 348 176 317 344 224 278 30 279 295 339 320 347 324 357 319 176 317 278 30 288 334 337 336 343 316 356 315 265 372 266 348 182 251 354 312 338 252 287 4 343 316 342 294 277 31 338 252 175 221 278 30 345 225 277 31 280 296 347 324 346 215 177 355 346 215 350 200 275 340 335 256 348 193 265 372 350 200 352 189 265 372 336 122 177 355 282 357 357 319 358 29 200 343 372 373 199 369 370 240 371 226 372 373 165 293 381 374 367 375 367 375 382 88 368 311 206 33 365 376 375 377 375 377 366 248 376 265 166 354 379 342 365 376 365 376 380 341 366 248 199 369 360 291 155 290 372 373 359 227 360 291 211 77 363 378 377 379 377 379 364 380 378 176 208 279 364 380 381 374 381 374 363 378 382 88 374 365 373 381 368 311 318 24 185 321 295 25 251 27 250 50 261 28 358 29 357 319 278 30 158 32 221 353 206 33 284 41 302 328 301 42 127 44 142 135 31 17 320 46 321 333 317 47 270 49 249 307 250 50 232 51 261 28 262 52 36 54 26 111 50 14 264 59 60 105 86 60 148 65 123 208 24 66 312 68 325 259 319 69 39 75 203 249 48 36 212 76 162 202 211 77 86 60 20 156 85 79 21 57 75 56 74 80 253 1 273 298 173 81 24 66 138 209 29 83 252 82 251 27 260 11 382 88 363 378 161 89 68 7 10 115 103 91 242 92 158 32 202 93 330 97 331 359 308 18 132 99 19 104 34 100 285 102 273 298 274 0 294 119 293 43 301 42 341 121 290 125 180 5 290 125 270 49 172 3 167 130 171 266 219 131 41 40 29 83 47 55 237 143 255 273 257 144 13 147 8 153 101 148 228 150 55 275 229 151 19 104 147 195 20 156 333 159 300 309 299 160 378 176 364 380 156 177 28 139 32 67 78 85 184 180 304 289 320 46 352 189 350 200 293 43 210 190 159 323 248 191 1 106 39 75 4 35 348 193 335 256 62 63 35 58 18 223 67 199 75 56 300 309 333 159 350 200 346 215 284 41 220 90 161 89 162 202 201 212 234 244 245 9 346 215 347 324 283 216 68 7 307 98 334 217 29 83 129 210 36 54 276 219 315 250 178 220 149 222 126 382 18 223 344 224 285 102 286 103 371 226 196 285 154 78 220 90 222 203 170 228 89 187 120 126 0 110 146 196 33 128 85 79 204 86 224 267 230 231 163 232 219 131 189 233 263 235 264 59 292 61 230 231 44 268 225 237 200 343 157 34 370 240 157 34 361 241 370 240 361 241 362 276 369 239 362 276 160 282 195 283 369 239 362 276 195 283 235 243 258 277 259 10 366 248 380 341 203 249 314 22 296 344 295 25 345 225 286 103 182 251 121 201 139 101 34 100 310 253 311 329 58 254 335 256 84 129 33 128 33 128 17 64 335 256 243 257 164 280 209 258 325 259 324 262 318 24 272 260 271 331 251 27 323 261 322 301 324 262 318 24 328 26 329 263 6 184 13 147 107 149 313 23 62 63 30 62 84 129 275 340 340 264 340 264 292 61 85 79 376 265 366 248 167 130 197 269 163 232 190 234 255 273 256 318 263 235 361 241 157 34 375 377 157 34 206 33 375 377 375 377 376 265 361 241 376 265 216 132 362 276 216 132 160 282 362 276 253 1 252 82 259 10 213 278 156 177 208 279 243 257 43 15 238 281 179 287 282 357 305 288 250 50 249 307 262 52 31 17 122 136 22 205 359 227 154 78 211 77 211 77 377 379 359 227 377 379 378 176 359 227 359 227 378 176 360 291 378 176 207 178 360 291 233 292 260 11 261 28 34 100 19 104 60 105 342 294 343 316 279 295 301 42 331 359 330 97 309 20 327 19 317 47 42 109 14 108 53 168 332 161 296 344 297 21 143 214 25 45 52 12 322 301 323 261 320 46 141 302 134 335 21 57 8 153 13 147 63 304 63 304 269 306 289 305 7 141 113 158 9 95 264 59 256 318 61 112 203 249 80 73 171 266 174 274 263 235 291 236 273 298 285 102 181 308 300 309 75 56 67 199 368 311 382 88 220 90 12 8 109 142 7 141 354 312 276 219 175 221 317 47 321 333 310 253 240 313 246 352 247 314 343 316 337 336 176 317 237 143 238 281 256 318 80 73 37 107 11 162 195 283 196 285 371 226 240 313 87 230 42 109 324 262 306 356 185 321 1 106 116 123 11 162 168 229 170 228 78 85 124 322 17 64 33 128 49 37 3 167 112 173 256 318 238 281 23 114 207 178 156 177 159 323 347 324 339 320 179 287 212 76 193 361 222 203 39 75 37 107 80 73 303 325 302 328 284 41 6 184 118 183 88 182 249 307 63 304 64 326 303 325 316 48 326 327 254 2 255 273 174 274 231 53 88 182 89 187 311 329 312 68 72 330 271 331 172 3 250 50 201 212 153 297 244 192 286 103 274 0 174 274 164 280 165 293 214 332 323 261 325 259 312 68 100 157 83 154 82 96 254 2 253 1 258 277 309 20 57 370 334 217 271 331 272 260 288 334 134 335 149 222 35 58 181 308 285 102 344 224 175 221 178 220 281 337 215 338 53 168 3 167 229 151 223 245 205 286 268 339 267 349 330 97 315 250 275 340 348 193 216 132 219 131 163 232 48 36 203 249 380 341 379 342 215 338 48 36 158 32 157 34 200 343 51 13 214 332 45 38 70 345 309 20 186 299 240 313 218 300 169 351 321 333 323 261 311 329 179 287 304 289 184 180 221 353 169 351 166 354 336 122 342 294 280 296 65 71 81 94 349 350 81 94 266 348 349 350 272 260 173 81 181 308 355 358 275 340 276 219 15 87 108 164 2 166 331 359 302 328 326 327 198 284 197 269 191 270 242 92 233 292 232 51 82 96 289 305 356 315 289 305 290 125 356 315 326 327 316 48 317 47 212 76 152 363 192 360 38 84 32 67 41 40 14 108 0 110 91 188 27 247 56 246 125 364 45 38 214 332 373 381 373 381 374 365 45 38 281 337 185 321 306 356 148 65 32 67 28 139 221 353 241 366 246 352 244 192 248 191 236 145 119 186 89 187 88 182 102 163 108 164 15 87 140 137 28 139 205 286 298 367 59 371 73 368 185 321 178 220 315 250 243 257 237 143 236 145 241 366 242 92 247 314 202 93 200 343 199 369 170 228 222 203 194 362 236 145 257 144 258 277 299 160 298 367 329 263 66 310 59 371 299 160 319 69 329 263 298 367 231 53 262 52 64 326 214 332 51 13 52 12 322 301 305 288 306 356 281 337 282 357 358 29 124 322 141 302 30 62 201 212 199 369 155 290 196 285 198 284 152 363 169 351 218 300 215 338 23 114 238 281 22 205 13 147 6 184 64 326 128 213 26 111 36 54 292 61 340 264 355 358 291 236 355 358 354 312 180 5 287 4 342 294 268 339 349 350 353 347 267 349 353 347 351 346 265 372 352 189 351 346 176 317 337 336 344 224 279 295 176 317 339 320 357 319 339 320 176 317 288 334 181 308 337 336 356 315 341 121 265 372 287 4 288 334 343 316 277 31 345 225 338 252 278 30 344 224 345 225 280 296 279 295 347 324 177 355 280 296 346 215 275 340 84 129 335 256 265 372 177 355 350 200 265 372 341 121 336 122 282 357 179 287 357 319 200 343 370 240 372 373 370 240 369 239 371 226 165 293 208 279 381 374 367 375 381 374 382 88 206 33 166 354 365 376 375 377 365 376 366 248 166 354 215 338 379 342 365 376 379 342 380 341 199 369 372 373 360 291 372 373 371 226 359 227 211 77 161 89 363 378 377 379 363 378 364 380 208 279 156 177 364 380 381 374 364 380 363 378 373 381 214 332 367 375 214 332 165 293 367 375 367 375 368 311 373 381 368 311 168 229 374 365 374 365 168 229 217 242 225 237 44 268 46 272</p>
        </triangles>
      </mesh>
    </geometry>
    <geometry id="Plane_024-mesh" name="Plane.024">
      <mesh>
        <source id="Plane_024-mesh-positions">
          <float_array id="Plane_024-mesh-positions-array" count="852">10.93479 -6.448593 15.17873 22.28665 -5.460701 16.11862 8.587652 -6.071842 5.862634 9.416714 -6.109771 10.47826 -10.60107 -6.170179 15.82424 -8.861657 -6.079238 1.708453 -9.6173 -4.777199 11.33161 -21.82369 -4.738023 16.53741 14.35782 -6.044219 15.52459 -14.59036 -5.944127 15.45774 -6.249129 -6.034077 -0.9408546 7.763432 39.28494 16.56548 8.182515 40.26362 1.459615 8.236568 40.10902 5.91146 16.3634 31.5851 -3.256993 10.88351 35.45063 -3.731848 28.36343 16.87075 16.38316 24.55797 21.78989 15.44175 20.12447 27.90801 12.00049 5.517784 41.83627 16.35167 22.33077 24.88309 15.6864 8.505586 39.81921 13.17675 -0.580922 46.79043 15.99876 12.42414 -4.249692 14.94226 20.40288 22.86221 14.80286 11.01925 -3.200732 13.35338 18.8731 23.28293 13.42405 20.24412 26.60189 14.53888 6.285298 -5.972162 -1.796987 15.98426 27.60123 -2.130109 23.10963 -0.1535291 16.78077 26.44887 5.057322 15.73375 10.60085 -2.814712 8.840604 9.660081 -4.18872 7.161795 19.62202 27.21586 7.760074 18.02633 25.28598 6.235997 19.19513 26.76553 2.273529 8.948321 -4.693892 1.923515 18.81135 28.01265 0.3937307 28.39867 11.44367 16.30188 31.05943 15.14671 17.39109 -20.21775 9.024265 17.74412 -17.46264 23.45551 15.32962 -8.568428 38.60414 17.02872 5.593161 37.41539 0.6016747 9.374751 37.55424 -1.101445 6.957041 36.96137 15.86405 -8.04179 -2.510733 0.993418 -4.882287 -2.76895 -1.64641 -11.39819 -3.620912 14.23804 -4.383697 44.52023 16.21505 -18.78058 -1.731791 16.43209 -20.48015 3.807245 17.63195 -17.89669 13.88538 16.40746 -18.16949 18.60827 16.78874 -13.98786 29.53961 16.46305 1.620051 38.47428 18.90321 -12.90677 -2.486329 16.75319 17.05012 -0.4131605 16.49512 20.06102 19.67331 14.88048 22.98828 17.16058 15.72297 14.30591 -1.926341 15.46833 -9.748141 -2.716076 8.331418 -9.175133 -3.84247 4.763995 6.840816 37.4015 8.720402 5.845884 37.44378 3.614248 2.86272 -3.579707 -3.43625 -2.166758 -4.615306 -2.268209 -5.56185 -8 -2.028837 5.63283 -8 -1.99536 9 -8 16 -9 -8 16 24 -8 16 -23.82216 -8.196467 16.37834 7.94781 -8 1.52198 8.758151 -8 6.06178 8.66379 -8.282768 10.8574 -8.80938 -8 11.1162 -8.723697 -8.171441 6.07794 -8.22565 -8 1.730607 16.50952 -8 16 -16.66851 -8 16 -2.576408 -7.887671 -4.064087 8.777586 -7.80502 13.6432 -8.751996 -8 13.71754 -20.61925 -8 16 2.015272 -7.929605 -3.854202 11.53132 39.36896 -2.028837 19.44716 31.45313 -1.99536 21.82811 29.07218 16 9.100186 41.8001 16 32.43471 18.46558 16 -1.506416 52.40671 16 21.0841 29.8162 1.52198 21.65709 29.2432 6.06178 21.39042 29.10997 10.8574 9.234974 41.66531 11.1162 9.174336 41.4835 6.07794 9.647734 41.25255 1.730607 3.677731 47.22256 16 13.72178 37.33737 -4.0641 17.51772 33.56605 -4.15678 29.55363 21.34667 16 24.48963 26.41066 16 15.52465 35.37564 -4.30027 16.31647 9.925705 14.80099 9.250529 7.272116 5.094607 8.702794 6.440904 -0.9201012 12.16871 16.81098 1.650872 13.44811 6.677575 11.6659 14.5621 16.14983 10.37348 16.8492 14.48061 12.96837 15.36549 20.81079 6.702009 8.887537 1.089586 3.610522 11.94096 2.257738 12.3464 17.97582 20.91694 12.80472 15.48757 0.9584169 14.47262 -8.754077 7.688729 2.023695 -6.493495 17.68665 1.610302 -1.868887 29.41802 1.989437 3.469043 26.61911 12.46822 -3.104486 16.64042 11.01654 -4.763656 5.780616 12.03011 4.600904 26.70642 14.96647 0.09104973 15.54356 15.56127 -9.192836 7.497894 6.884351 -5.808779 17.29304 6.121377 0.148274 29.50718 7.128442 -6.173552 1.4071 18.07568 -4.795523 14.53332 18.27957 0.4445965 26.40143 18.65025 -14.77117 15.83017 17.93617 -10.55179 29.62482 16.79394 22.8539 5.187861 17.26743 18.44647 3.696973 16.73399 19.55616 9.120327 17.02201 21.572 13.77409 15.65107 13.93543 10.47189 11.24382 16.37487 7.50764 14.83303 9.388387 11.83333 -0.4584936 8.367835 8.867803 -0.1380724 12.27317 -0.4191505 12.39841 17.72821 -4.444197 15.81894 25.66383 17.48268 15.98244 9.138875 3.512644 3.430516 14.77491 18.86408 6.300704 15.28092 23.2743 0.9354662 9.877989 14.15971 0.03793746 14.25164 13.90615 11.06125 16.80184 12.09687 14.34366 13.32836 19.76159 0.3865058 16.80954 23.88683 6.063668 9.72923 -1.189695 2.769738 13.24543 4.237125 12.48142 7.994556 -1.180225 -0.197877 16.26186 3.617864 14.8626 7.884837 2.370695 -0.6339014 19.2623 16.71893 14.07881 21.0311 -3.310473 16.38095 23.09257 1.991733 16.67734 23.39771 10.84167 16.9114 20.70183 3.453711 17.11833 26.09391 7.791219 16.27279 26.34621 13.21957 16.4721 20.12846 -0.2788339 16.44783 0.1478872 -0.1299513 -3.360767 4.453889 16.57281 -3.451387 6.463272 21.31114 -3.261853 8.115782 25.90256 -3.188935 10.99696 29.57964 -3.459161 5.195688 -0.7944403 -2.32949 6.587951 5.261336 -1.762087 2.787027 8.146633 -2.807123 11.87545 23.41998 -2.062083 6.070401 15.82697 -1.696816 3.105883 11.7634 -3.176737 5.608261 1.998593 -1.402335 1.96117 3.671742 -3.088185 10.06086 18.36128 -1.684671 -5.99894 1.76704 0.8090695 -5.790289 6.570818 -0.009773552 -4.094737 9.935946 -0.08927303 -2.417994 15.00567 0.09850138 -0.4799845 19.80722 0.1922379 3.218738 22.94049 -0.654352 4.762141 27.12687 -0.8695269 6.715154 31.03019 -0.8432103 2.556602 19.02799 -1.284378 1.33568 15.06736 -1.463195 -0.487874 10.29459 -1.586165 -1.905628 6.022098 -1.617401 -3.179997 2.170886 -1.334435 0.4829761 32.44639 1.284088 3.43153 35.12647 1.452145 -5.705954 2.84482 11.41959 -8.404542 -0.7850084 11.22428 -8.566773 0.5803415 17.18045 -11.28771 -0.7679713 16.0965 -8.492559 2.38091 1.117838 -7.468133 10.62316 1.663378 -6.859161 14.36244 1.87593 -5.019727 21.10104 1.804219 -3.744258 24.7815 2.467268 5.768302 32.99721 12.77387 4.417687 30.24319 12.29177 0.4061836 23.2177 12.35126 0.1356113 19.68095 11.62695 -3.346525 12.26667 11.66439 -4.089537 7.590326 11.51303 3.745052 22.70905 15.08059 1.984687 20.28328 15.52645 -1.263625 11.6815 15.40151 -1.615744 7.905922 15.79049 -4.124688 21.78088 5.937483 -2.76592 24.88465 6.959178 -7.616715 11.24938 6.202355 -6.395813 14.23348 6.437123 -9.154343 0.5819664 4.742718 -7.972137 3.940004 5.304792 1.157892 32.23343 5.632199 2.990613 35.20476 5.844885 -2.506232 2.746585 16.74573 -4.665222 1.396053 16.59606 0.974517 29.01493 19.38268 0.6261055 33.4042 18.51597 -7.838129 32.96685 17.65921 -5.807064 4.851866 17.79811 -5.569683 7.912794 17.06057 -5.132396 12.23429 17.85143 -4.946928 17.08312 18.39723 -2.190851 19.62908 18.75074 -0.7703874 22.22044 18.51998 -14.69837 1.699755 16.82995 -11.43835 17.0675 17.92506 -12.3279 22.12669 17.22929 4.33729 32.83347 16.41065 4.417771 30.09842 17.25926 -6.845112 15.79533 17.75427 -4.483582 27.38412 18.24674 -5.125756 21.11535 18.20564 -7.860174 10.4443 18.69558 -13.40168 9.122276 17.36294 -2.835487 31.15453 18.53206 -10.50676 3.149375 16.84449 -9.1714 5.845375 17.36028 -3.103761 37.09423 17.41721 -17.78184 4.595155 16.99914 6.954903 36.60091 13.06526 -7.096263 5.848558 9.756186 -5.146416 16.65927 8.609225 -2.103832 16.02448 12.64896 4.863145 34.1735 9.092095 -6.898766 2.797342 8.878372 -5.87828 9.295816 9.009699 -4.695796 13.35099 9.585906 -2.729549 20.40047 9.090556 -0.8036324 24.20062 8.810375 -2.362586 7.418429 13.16393 -2.346119 12.73308 13.63469 5.394915 32.94501 14.71412 -9.33357 0.1541532 14.51945 -3.613876 4.162986 14.80789 -6.599202 0.6621956 14.27253 -4.913465 2.193892 14.16965 1.99711 28.58668 10.11598 3.540126 32.13619 9.444427 -8.481144 1.837749 8.867501 0.06712746 17.32169 13.15854 1.598052 21.69674 14.10669 11.31209 6.2294 8.598311 12.96853 16.18525 6.296186 10.58526 3.132891 6.969204 11.82453 2.862666 9.415459 16.83739 20.68662 10.23497 11.48092 8.19503 9.447209 10.61156 9.496368 5.93691 12.84254 10.43884 9.071307 18.25948 23.24066 10.15779 13.20766 13.71486 8.622745 11.85573 12.9361 5.493319 9.926127 -0.9680688 5.971471 11.27548 -0.501343 9.212223 15.85545 19.85807 8.565717 16.4883 18.3466 11.26017</float_array>
          <technique_common>
            <accessor source="#Plane_024-mesh-positions-array" count="284" stride="3">
              <param name="X" type="float"/>
              <param name="Y" type="float"/>
              <param name="Z" type="float"/>
            </accessor>
          </technique_common>
        </source>
        <source id="Plane_024-mesh-normals">
          <float_array id="Plane_024-mesh-normals-array" count="852">0.8388898 -0.3282679 0.4341706 0.3420247 -0.1820754 0.9218828 0.4525114 -0.1669107 0.875999 0.8919301 -0.1313555 0.4326738 0.8971365 -0.359758 -0.2563596 0.9515508 -0.09372371 -0.29286 0.3295751 -0.2750376 0.9031804 0.04437404 -0.09759861 0.9942362 0.09128254 0.0611602 0.9939452 0.03167825 0.005584836 0.9994825 0.4715526 -0.1703888 0.8652201 0.3794392 -0.1196028 0.9174537 -0.7344791 0.6239074 0.2669834 -0.7843106 0.6022031 0.1490248 -0.8037041 0.5909823 0.06927955 -0.1585777 -0.006347954 0.9873262 0.2348728 -0.06930822 0.9695521 -0.1489965 0.09940224 0.983829 0.3975448 -0.158792 0.9037384 0.3422434 -0.09308385 0.9349893 0.7231304 -0.3131002 -0.615671 0.7742388 -0.274092 -0.5704629 0.7945446 -0.2432098 -0.5563704 -0.7615225 -0.0425747 0.6467387 -0.9605143 0.05343818 0.2730506 -0.9374082 0.2198018 0.2700981 -0.9240604 0.3593025 0.1304391 -0.9264773 0.3111758 0.2116825 -0.9048585 0.3760554 0.1995334 -0.8732299 0.4194629 0.2480337 -0.852998 0.1959371 0.4837388 -0.7820121 0.1964796 0.5914836 0.8998896 -0.1540305 0.4080114 0.1180799 0.07690906 0.9900214 0.818141 -0.4619153 0.3424613 0.3966578 0.4527215 0.7985649 0.0925337 0.0268262 0.9953482 0.7640917 -0.003998041 0.6450954 0.4413952 -0.08194327 0.8935635 -0.01016283 -0.05823051 0.9982514 0.4665185 -0.1191169 0.8764541 0.1539378 -0.07718253 0.9850614 0.612405 -0.5808782 0.5362282 0.7058511 -0.7063394 -0.05346983 0.72197 -0.6488757 -0.2402497 0.1810083 0.1452095 0.9727025 0.785406 -0.2907543 0.5464424 0.4670606 -0.3112313 0.827641 -0.1960541 -0.09637898 0.9758453 -0.2538878 0.03668385 0.9665378 0.7089579 -0.1000109 0.6981236 -0.318309 0.02804654 0.9475721 -0.4464986 0.2317642 0.864248 -0.1012615 -0.03415054 0.9942736 -0.8057307 0.3950983 0.4412429 -0.5844069 0.3122087 0.7489955 -0.794008 0.2277008 0.563652 -0.8339788 0.1366363 0.534612 0.8156363 -0.5553957 -0.1620896 0.8339659 -0.2223624 0.5050307 0.3586949 -0.136666 0.9233961 -0.5687882 0.05951261 0.8203282 -0.4755511 0.001220762 0.8796872 -0.03320425 -0.02316361 0.9991802 -0.7279443 -0.008514821 0.6855836 -0.1180462 -0.0991857 0.9880422 -0.09033656 -0.06396806 0.9938548 0.01904368 -0.07437425 0.9970486 -0.7467381 0.5401858 0.3880487 -0.3886393 0.5622665 0.7299424 -0.6311394 0.5082687 0.5859403 0.8985839 -0.3087347 -0.3118171 0.7940427 -0.3698289 -0.4824134 0.5533261 -0.7407794 0.3808886 0.6609227 -0.4991407 0.5603926 -0.4334361 0.5180358 0.7374091 -0.4070665 0.2498615 0.8785592 0.07385659 -0.0927785 0.9929438 0.04916596 -0.1446291 0.9882637 0.5366488 -0.7765599 0.3300952 0.2406702 -0.4608014 0.8542482 0.8218201 -0.404623 -0.4011134 0.7712582 -0.09870004 -0.6288237 -0.0785253 0.1094105 0.9908901 -0.1363596 0.08899384 0.9866541 0.9957082 -0.01544249 -0.09125137 0.9108665 -0.4122185 0.01995933 0.9160391 -0.3992239 -0.03863751 -0.8713807 0.1554641 0.4653244 -0.6320196 0.08337807 0.7704541 -0.7086696 0.3049232 0.6362462 -0.1056877 -0.02789443 0.9940081 -0.05352997 0.04254317 0.9976596 -0.7412782 0.6702908 0.03488332 -0.6920875 0.7218134 5.49348e-4 0.6191546 0.5913816 0.5166387 0.1964504 -0.06653124 0.978254 0.1343744 -0.01818919 0.9907637 0.1235402 -0.116704 0.9854533 0.6226437 -0.07535082 0.7788692 0.8735182 0.2417724 0.4225067 0.5865504 -0.2858437 0.7577942 0.2501682 -0.08450841 0.9645073 -0.03817892 0.03299075 0.9987262 0.01788389 0.1176494 0.9928941 0.9106216 0.1003765 0.4008651 0.9820798 0.1779273 0.06213724 0.8078176 -0.5890852 -0.02023434 0.8725496 0.4608734 0.1620274 0.9835715 0.07400894 0.1646509 0.9698798 0.2435152 -0.005798697 -0.9762537 0.1592805 0.1468287 -0.9207727 0.1967591 0.3368435 -0.9884971 -0.008941888 0.1509754 -0.9390179 0.1932787 0.2844094 -0.6634521 0.08911538 0.742893 -0.9453272 0.3260043 -0.008819997 -0.7092158 0.6850443 0.1665152 -0.4284022 0.7777589 0.4599593 -0.2249863 0.09445637 0.9697728 0.2685648 -0.1313831 0.9542597 0.2408288 -0.4899591 0.8378196 -0.1221996 -0.1611424 0.9793368 -0.1511897 -0.0479449 0.9873415 0.7020784 -0.6039571 -0.3772557 -0.6973602 0.2065529 0.6863123 -0.4315456 0.3150222 0.8452984 -0.45877 0.1854673 0.8689834 0.9262209 -0.2465629 0.2851695 0.6684831 -0.01965403 0.7434678 0.5766031 -0.7308177 0.3652867 0.8210626 -0.5675688 0.06100821 0.897108 -0.4406343 -0.03222811 0.5758918 -0.4460033 0.6851494 0.424368 -0.1443858 0.8939042 0.2395437 -0.1927886 0.9515522 0.7857827 -0.3334243 -0.5209355 -0.764118 0.2803526 0.5809701 -0.6239591 0.3499298 0.6987305 -0.5340613 0.1209184 0.8367541 0.139626 0.2185491 0.9657852 0.01272624 0.4073624 0.9131779 -0.1791461 0.3552098 0.9174599 0.5678112 -0.3877474 0.7261146 -0.6755805 0.07721441 0.7332319 -0.8813136 0.4639585 0.08960545 0.655489 -0.1673666 0.7364256 -0.710221 0.1648667 0.6844014 0.8229134 -0.2515373 -0.5094531 0.96688 -0.1347729 0.2167476 0.1042823 -0.08880931 0.9905747 0.2508344 -0.08450663 0.9643344 0.8874672 -0.3069619 -0.343768 0.9637969 -0.2177546 0.1538779 0.7319868 -0.3343443 -0.5936406 0.6895475 -0.3625664 -0.626953 0.7150664 -0.3261289 -0.6183204 -0.7849261 0.3405954 0.5175769 -0.8186443 0.18931 0.5422024 -0.03479129 -0.1151165 0.9927426 0.6680977 -0.5044533 0.5469666 0.7964657 -0.5036012 -0.3347066 0.1516171 -0.05960309 0.9866406 -0.03958326 -0.0824626 0.9958078 -0.813681 0.2053658 0.5438273 -0.8723373 0.3284503 0.3621437 -0.8846037 -0.002685666 0.4663358 -0.03070241 0.01284861 0.999446 -0.1450263 0.2120155 0.9664455 -0.1192994 0.1644372 0.9791465 -0.9289203 0.08337908 0.3607703 -0.8288986 0.2631356 0.4936463 0.791593 -0.05182063 0.6088473 0.7405757 -0.4692918 -0.48095 0.7280673 -0.382803 -0.5686652 -0.08221864 0.07806807 0.993552 -0.2626466 0.1225643 0.9570762 -0.1839702 0.1847332 0.9654164 -0.3942165 0.2565138 0.8824931 -0.732746 0.5017123 0.4597478 -0.4608107 0.3652548 0.8088526 0.8658365 -0.1402978 0.4802539 -0.6262895 0.1262284 0.7693036 0.7610313 -0.4966113 -0.417383 -0.5984247 0.2184274 0.770829 -0.08313441 -0.1149049 0.9898917 -0.03143459 -0.07034641 0.9970272 -0.04260414 3.05187e-5 0.9990921 -0.6874425 0.04425263 0.7248894 -0.4157334 0.03970551 0.9086195 -0.2895374 0.160593 0.9435985 0.1317522 -0.04217779 0.9903851 0.4246472 -0.153238 0.8922964 0.8153386 -0.4001767 0.4184275 0.3489867 -0.121039 0.9292781 -9.15582e-5 -0.1228101 0.9924302 0.484983 -0.214429 0.8478276 -0.7414165 0.40164 0.537575 -0.8682158 0.4444845 0.2205331 0.1248536 0.05819988 0.9904668 -0.7498273 0.1826272 0.6359295 -0.1119748 0.09937047 0.9887301 0.8687316 -0.4368836 0.2333199 0.2304787 -0.1516179 0.9611929 -0.02819997 -0.08826231 0.9956981 -0.8885533 0.3508435 0.2956046 0.7151506 -0.2577326 -0.6497181 0.8454413 -0.1393809 -0.5155599 0.6928829 -0.2528231 -0.6752732 0.7660107 -0.359368 0.5329938 -0.1730737 0.02313345 0.9846372 -0.7636245 0.04727441 0.6439276 -0.1188707 0.03051877 0.9924407 -0.07226938 0.01260441 0.9973055 0.8030441 -0.09183138 0.5888014 0.9870151 0.028108 0.1581494 0.9843088 -0.1559842 0.08249366 0.9210172 -0.2974125 -0.2515417 -0.1675182 0.1126452 0.9794125 -0.1041622 0.1742344 0.9791796 -0.07846534 0.1198801 0.9896828 -0.8601214 0.3948568 0.3229232 -0.4314776 -0.0782507 0.8987236 0.8004617 -0.5156856 -0.3054988 0.8081525 -0.1316605 -0.574069 0.7045977 -0.3115709 -0.6375468 0.4400894 -0.1783857 0.8800567 -0.8357079 0.2872774 0.4680428 0.7323042 -0.4741437 -0.4887928 0.7046888 -0.4210126 -0.5711061 -0.8927578 0.2946357 0.3408423 -0.8163972 0.4141804 0.4024304 0.8375118 -0.1399312 -0.5281983 0.324209 -0.09235209 0.9414668 0.4690762 -0.08362191 0.8791899 0.4137496 -0.03076338 0.9098708 0.09433573 -0.1097481 0.9894727 0.2635296 -0.05813825 0.9628978 -0.2357888 0.0687285 0.969371 -0.1812216 0.02566641 0.9831074 0.786315 -0.2604774 0.5602323 0.9354978 -0.2208963 -0.2757694 0.8366501 -0.2593511 -0.4824456 0.8932313 -0.4482637 0.03460854 -0.967963 -0.05914527 0.2440279 0.4125882 -0.3694037 0.8326537 0.9258874 -0.3549367 -0.1294313 0.1467366 0.07745784 0.9861383 -0.9280015 0.1604402 0.3362621 -0.9664852 -0.102026 0.2355784 -0.8864322 0.3713279 0.2763215 -0.2409513 -0.005829215 0.9705197 0.4810418 -0.8756841 -0.0421468 0.5070797 -0.8027211 0.3138614 0.8838609 -0.4593415 -0.08829146 -0.03283846 -0.700503 0.7128937 0.996451 -0.07422262 -0.03970539 -0.737529 0.07153719 0.6715158 -0.3673878 -0.05835229 0.9282356 0.2948119 -0.2171719 0.9305495 0.1278139 -0.1279665 0.9835082 -0.9606963 -0.1155778 0.2523972 0.7063764 -0.3305273 -0.6259266 0.3117787 -0.1247603 0.9419283 0.8967384 -0.3945795 0.2004179 0.7541964 -0.4529696 -0.4754014 -0.07986956 -0.1267781 0.9887104 -0.688357 0.1447213 0.7107886 -0.3457217 0.2313052 0.9093813 0.007751882 0.2148262 0.9766215 -0.3514904 0.06384629 0.9340118 -0.1703855 0.05127125 0.9840427 -0.1481088 -0.03479164 0.9883589 -0.7920355 0.5610963 0.2405222 0.09314471 0.03878992 0.9948967 0.8125084 -0.3579578 -0.460105 -0.8426872 0.409075 0.3500515 -0.9034643 0.006531119 0.4286137 -0.9114151 0.1979758 0.3607329 0.1194196 0.08169847 0.9894768 0.01742643 0.1133787 0.9933991 0.02328622 0.003601253 0.9997224 0.01046806 0.05029559 0.9986795 0 -0.04666322 0.9989107</float_array>
          <technique_common>
            <accessor source="#Plane_024-mesh-normals-array" count="284" stride="3">
              <param name="X" type="float"/>
              <param name="Y" type="float"/>
              <param name="Z" type="float"/>
            </accessor>
          </technique_common>
        </source>
        <vertices id="Plane_024-mesh-vertices">
          <input semantic="POSITION" source="#Plane_024-mesh-positions"/>
        </vertices>
        <triangles count="514">
          <input semantic="VERTEX" source="#Plane_024-mesh-vertices" offset="0"/>
          <input semantic="NORMAL" source="#Plane_024-mesh-normals" offset="1"/>
          <p>202 0 183 1 184 2 117 3 215 4 125 5 57 6 51 7 9 8 175 9 188 10 189 11 36 12 35 13 34 14 238 15 223 16 242 17 181 18 190 19 189 11 268 20 206 21 205 22 107 23 144 24 106 25 3 26 32 27 33 28 277 29 26 30 27 31 212 32 226 33 221 34 4 35 9 8 81 36 198 37 180 38 117 3 177 39 191 40 165 41 193 42 65 43 220 44 19 45 46 46 11 47 103 48 27 31 20 49 49 50 57 6 9 8 58 51 61 52 142 53 25 54 32 27 3 26 149 55 148 56 137 57 65 43 64 58 220 44 183 1 118 59 182 60 20 49 24 61 59 62 182 60 189 11 188 10 51 7 81 36 9 8 172 63 140 64 175 9 243 65 241 66 232 67 93 68 88 69 38 70 213 71 202 0 214 72 12 73 65 43 44 74 25 54 0 75 23 76 7 77 85 78 81 36 222 79 226 33 128 80 252 81 125 5 248 82 0 75 80 83 8 84 218 85 117 3 125 5 64 58 21 86 247 87 114 88 155 89 153 90 27 31 34 14 277 29 103 48 17 91 102 92 94 93 34 14 95 94 4 35 81 36 71 95 168 96 184 2 167 97 7 77 73 98 85 78 10 99 79 100 68 101 162 102 163 103 160 104 5 105 78 106 79 100 12 73 13 107 65 43 4 35 71 95 84 108 78 106 6 109 77 110 77 110 6 109 84 108 142 53 8 84 80 83 2 111 74 112 75 113 37 114 28 115 74 112 76 116 83 117 3 26 75 113 76 116 3 26 83 117 70 118 0 75 17 91 59 62 60 119 0 75 70 118 80 83 67 120 68 101 82 121 67 120 86 122 66 123 263 124 221 34 222 79 147 125 178 126 174 127 0 75 3 26 83 117 259 128 46 46 235 129 98 130 13 107 12 73 13 107 97 131 96 132 87 133 15 134 100 135 261 136 212 32 221 34 283 137 111 138 157 139 15 134 104 140 100 135 101 141 104 140 14 142 87 133 98 130 45 143 89 144 18 145 27 31 90 146 21 86 96 132 139 147 175 9 140 64 257 148 211 149 212 32 36 12 94 93 93 68 51 7 246 150 52 151 204 152 123 153 120 154 255 155 214 72 256 156 148 56 111 138 110 157 283 137 157 139 115 158 142 53 164 159 58 51 192 160 220 44 219 161 164 159 159 162 161 163 274 164 275 165 269 166 115 158 24 61 26 30 166 167 188 10 175 9 163 103 40 168 16 169 272 170 141 171 114 88 235 129 223 16 236 172 256 156 127 173 264 174 233 175 42 176 54 177 11 47 46 46 247 87 173 178 146 179 29 180 200 181 181 18 182 60 28 115 69 182 74 112 88 69 101 141 14 142 251 183 64 58 247 87 272 170 114 88 153 90 61 52 58 51 116 184 158 185 1 186 30 187 138 188 134 189 135 190 160 104 161 163 133 191 185 192 192 160 119 193 162 102 31 194 39 195 183 1 188 10 187 196 150 197 145 198 146 179 173 178 169 199 168 96 109 200 138 188 137 57 143 201 163 103 16 169 124 202 230 203 229 204 161 163 159 162 133 191 58 51 164 159 161 163 180 38 191 40 190 19 38 70 14 142 29 180 172 63 190 19 177 39 146 179 145 198 112 205 253 206 207 207 208 208 202 0 201 209 183 1 226 33 243 65 128 80 241 66 233 175 131 210 28 115 37 114 154 211 178 126 150 197 173 178 239 212 237 213 229 204 5 105 47 214 63 215 47 214 217 216 63 215 4 35 6 109 49 50 193 42 45 143 44 74 141 171 116 184 114 88 67 120 10 99 68 101 119 193 219 161 127 173 201 209 126 217 118 59 245 218 50 219 43 220 273 221 283 137 115 158 9 8 4 35 49 50 3 26 33 28 2 111 170 222 177 39 165 41 266 223 218 85 252 81 254 224 121 225 207 207 168 96 186 226 185 192 61 52 8 84 142 53 109 200 276 227 274 164 267 228 124 202 250 229 170 222 28 115 154 211 0 75 8 84 23 76 186 226 15 134 45 143 217 216 198 37 218 85 279 230 108 231 147 125 258 232 124 202 211 149 149 55 157 139 111 138 25 54 61 52 141 171 228 233 212 32 211 149 10 99 67 120 48 234 179 235 48 234 191 40 228 233 240 236 227 237 184 2 119 193 202 0 234 238 55 239 42 176 199 240 180 38 181 18 139 147 174 127 175 9 214 72 119 193 127 173 2 111 75 113 3 26 199 240 216 241 215 4 126 217 255 155 249 242 120 154 209 243 205 22 152 244 2 111 33 28 163 103 143 201 60 119 17 91 60 119 143 201 197 245 243 65 232 67 204 152 203 246 236 172 236 172 259 128 235 129 46 46 224 247 235 129 153 90 155 89 109 200 146 179 38 70 29 180 29 180 14 142 169 199 152 244 154 211 37 114 281 248 280 249 32 27 32 27 152 244 33 28 107 23 275 165 140 64 150 197 108 231 270 250 35 13 277 29 34 14 163 103 39 195 40 168 53 251 131 210 54 177 262 252 263 124 222 79 260 253 195 254 262 252 197 245 57 6 49 50 222 79 128 80 196 255 78 106 62 256 6 109 170 222 156 257 176 258 209 243 123 153 130 259 124 202 129 260 211 149 156 257 113 261 144 24 248 82 208 208 122 262 231 263 230 203 210 264 260 253 197 245 49 50 200 181 126 217 216 241 265 265 204 152 264 174 142 53 1 186 158 185 244 266 240 236 241 66 129 260 228 233 211 149 51 7 57 6 232 67 232 67 241 66 246 150 228 233 129 260 237 213 60 119 59 62 157 139 266 223 195 254 62 256 240 236 233 175 241 66 105 267 138 188 135 190 149 55 135 190 136 268 24 61 27 31 26 30 58 51 134 189 116 184 116 184 134 189 155 89 164 159 158 185 30 187 160 104 133 191 162 102 162 102 133 191 31 194 109 200 155 89 138 188 60 119 160 104 163 103 160 104 60 119 136 268 136 268 135 190 160 104 58 51 161 163 134 189 161 163 160 104 135 190 134 189 161 163 135 190 16 169 91 269 102 92 36 12 38 70 146 179 137 57 105 267 149 55 117 3 199 240 215 4 171 270 156 257 107 23 209 243 231 263 210 264 172 63 171 270 107 23 174 127 166 167 175 9 108 231 150 197 178 126 150 197 146 179 173 178 66 123 170 222 165 41 174 127 167 97 166 167 102 92 143 201 16 169 225 271 55 239 132 272 193 42 192 160 186 226 130 259 236 172 223 16 118 59 200 181 182 60 173 178 167 97 178 126 171 270 177 39 176 258 47 214 179 235 198 37 140 64 275 165 139 147 157 139 136 268 60 119 167 97 187 196 166 167 238 15 234 238 239 212 172 63 175 9 189 11 165 41 48 234 67 120 151 273 36 12 146 179 265 265 251 183 203 246 6 109 62 256 195 254 62 256 63 215 217 216 209 243 268 20 205 22 229 204 230 203 239 212 232 67 57 6 197 245 196 255 128 80 243 65 226 33 227 237 244 266 90 146 19 45 11 47 242 17 223 16 224 247 245 218 242 17 224 247 41 274 52 151 246 150 139 147 279 230 147 125 53 251 41 274 241 66 131 210 233 175 54 177 156 257 152 244 113 261 15 134 14 142 104 140 225 271 245 218 43 220 10 99 48 234 47 214 220 44 265 265 219 161 219 161 264 174 127 173 125 5 253 206 248 82 197 245 260 253 196 255 196 255 262 252 222 79 194 275 262 252 195 254 121 225 255 155 206 21 207 207 250 229 258 232 267 228 121 225 206 21 216 241 249 242 254 224 266 223 194 275 195 254 2 111 37 114 74 112 215 4 254 224 253 206 205 22 264 174 120 154 206 21 256 156 205 22 208 208 258 232 257 148 122 262 257 148 261 136 203 246 247 87 259 128 194 275 261 136 263 124 194 275 248 82 122 262 210 264 267 228 268 20 282 276 283 137 273 221 113 261 280 249 271 277 271 277 281 248 272 170 275 165 276 227 279 230 148 56 110 157 278 278 278 278 270 250 279 230 145 198 270 250 282 276 282 276 110 157 283 137 238 15 130 259 223 16 181 18 180 38 190 19 268 20 267 228 206 21 107 23 156 257 144 24 212 32 227 237 226 33 198 37 179 235 180 38 177 39 190 19 191 40 193 42 44 74 65 43 103 48 89 144 27 31 25 54 141 171 32 27 149 55 111 138 148 56 65 43 13 107 64 58 183 1 201 209 118 59 182 60 181 18 189 11 51 7 7 77 81 36 172 63 107 23 140 64 243 65 244 266 241 66 98 130 12 73 45 143 213 71 201 209 202 0 222 79 221 34 226 33 252 81 218 85 125 5 218 85 198 37 117 3 114 88 116 184 155 89 27 31 18 145 34 14 168 96 185 192 184 2 10 99 5 105 79 100 162 102 39 195 163 103 17 91 20 49 59 62 129 260 229 204 237 213 263 124 261 136 221 34 147 125 108 231 178 126 0 75 25 54 3 26 259 128 247 87 46 46 261 136 257 148 212 32 283 137 110 157 111 138 257 148 258 232 211 149 51 7 232 67 246 150 18 145 95 94 34 14 204 152 236 172 123 153 255 155 213 71 214 72 66 123 86 122 28 115 142 53 158 185 164 159 192 160 193 42 220 44 164 159 30 187 159 162 106 25 269 166 275 165 274 164 269 166 109 200 166 167 187 196 188 10 272 170 281 248 141 171 235 129 224 247 223 16 256 156 214 72 127 173 233 175 234 238 42 176 21 86 11 47 247 87 200 181 199 240 181 18 56 279 224 247 46 46 247 87 203 246 251 183 251 183 220 44 64 58 138 188 155 89 134 189 185 192 186 226 192 160 269 166 106 25 271 277 106 25 144 24 271 277 271 277 272 170 269 166 272 170 153 90 269 166 153 90 109 200 269 166 183 1 182 60 188 10 150 197 270 250 145 198 173 178 29 180 169 199 124 202 210 264 230 203 180 38 179 235 191 40 38 70 88 69 14 142 276 227 137 57 148 56 148 56 278 278 276 227 278 278 279 230 276 227 172 63 189 11 190 19 45 143 12 73 44 74 253 206 254 224 207 207 226 33 244 266 243 65 5 105 10 99 47 214 47 214 198 37 217 216 4 35 84 108 6 109 193 42 186 226 45 143 141 171 61 52 116 184 119 193 192 160 219 161 201 209 213 71 126 217 56 279 19 45 22 280 264 174 204 152 120 154 170 222 176 258 177 39 254 224 249 242 121 225 168 96 169 199 186 226 61 52 23 76 8 84 109 200 137 57 276 227 170 222 66 123 28 115 115 158 157 139 59 62 90 146 11 47 21 86 186 226 169 199 15 134 279 230 270 250 108 231 258 232 250 229 124 202 149 55 136 268 157 139 25 54 23 76 61 52 228 233 227 237 212 32 179 235 47 214 48 234 228 233 237 213 240 236 184 2 185 192 119 193 165 41 67 120 66 123 199 240 117 3 180 38 139 147 147 125 174 127 214 72 202 0 119 193 146 179 112 205 151 273 78 106 63 215 62 256 184 2 183 1 187 196 241 66 41 274 246 150 199 240 200 181 216 241 126 217 213 71 255 155 120 154 123 153 209 243 152 244 37 114 2 111 197 245 196 255 243 65 236 172 203 246 259 128 32 27 141 171 281 248 280 249 152 244 32 27 107 23 106 25 275 165 35 13 151 273 277 29 53 251 241 66 131 210 170 222 154 211 156 257 124 202 229 204 129 260 248 82 253 206 208 208 49 50 6 109 260 253 6 109 195 254 260 253 200 181 118 59 126 217 265 265 203 246 204 152 80 83 1 186 142 53 244 266 227 237 240 236 62 256 217 216 266 223 217 216 218 85 266 223 240 236 237 213 233 175 149 55 105 267 135 190 24 61 20 49 27 31 16 169 40 168 91 269 209 243 130 259 231 263 103 48 20 49 17 91 156 257 171 270 176 258 174 127 178 126 167 97 102 92 17 91 143 201 225 271 43 220 55 239 130 259 123 153 236 172 173 178 168 96 167 97 171 270 172 63 177 39 167 97 184 2 187 196 165 41 191 40 48 234 151 273 35 13 36 12 239 212 230 203 231 263 209 243 210 264 268 20 22 280 92 281 50 219 139 147 275 165 279 230 137 57 138 188 105 267 156 257 154 211 152 244 15 134 169 199 14 142 220 44 251 183 265 265 219 161 265 265 264 174 125 5 215 4 253 206 5 105 63 215 78 106 196 255 260 253 262 252 194 275 263 124 262 252 121 225 249 242 255 155 207 207 121 225 250 229 267 228 250 229 121 225 216 241 126 217 249 242 266 223 252 81 194 275 215 4 216 241 254 224 205 22 256 156 264 174 206 21 255 155 256 156 208 208 207 207 258 232 122 262 208 208 257 148 194 275 122 262 261 136 194 275 252 81 248 82 210 264 124 202 267 228 275 165 274 164 276 227 112 205 145 198 282 276 144 24 113 261 271 277 159 162 30 187 31 194 113 261 152 244 280 249 271 277 280 249 281 248 278 278 110 157 270 250 282 276 270 250 110 157 277 29 151 273 282 276 151 273 112 205 282 276 282 276 273 221 277 29 69 182 28 115 86 122 133 191 159 162 31 194 67 120 82 121 86 122 98 130 97 131 13 107 21 86 64 58 96 132 64 58 13 107 96 132 87 133 45 143 15 134 89 144 95 94 18 145 93 68 38 70 36 12 36 12 34 14 94 93 26 30 277 29 115 158 277 29 273 221 115 158 115 158 59 62 24 61 238 15 242 17 225 271 242 17 245 218 225 271 225 271 132 272 238 15 132 272 55 239 234 238 234 238 233 175 239 212 233 175 237 213 239 212 239 212 231 263 238 15 231 263 130 259 238 15 132 272 234 238 238 15 46 46 19 45 56 279 56 279 245 218 224 247 90 146 99 282 19 45 99 282 22 280 19 45 22 280 50 219 56 279 50 219 245 218 56 279 80 83 72 283 1 186 22 280 99 282 92 281</p>
        </triangles>
      </mesh>
    </geometry>
  </library_geometries>
  <library_controllers/>
  <library_visual_scenes>
    <visual_scene id="Scene" name="Scene">
      <node id="Curved4" name="Curved4" type="NODE">
        <matrix sid="transform">1 0 0 0 0 1 0 0 0 0 1 0 0 0 0 1</matrix>
        <instance_geometry url="#Plane_023-mesh" name="Curved4"/>
      </node>
      <node id="Curved4Collision-colonly" name="Curved4Collision-colonly" type="NODE">
        <matrix sid="transform">1 0 0 0 0 1 0 0 0 0 1 0 0 0 0 1</matrix>
        <instance_geometry url="#Plane_024-mesh" name="Curved4Collision-colonly"/>
      </node>
    </visual_scene>
  </library_visual_scenes>
  <scene>
    <instance_visual_scene url="#Scene"/>
  </scene>
</COLLADA>