<?xml version="1.0" encoding="utf-8"?>
<COLLADA xmlns="http://www.collada.org/2005/11/COLLADASchema" version="1.4.1">
  <asset>
    <contributor>
      <author>Blender User</author>
      <authoring_tool>Blender 2.79.0</authoring_tool>
    </contributor>
    <created>2019-07-11T20:37:38</created>
    <modified>2019-07-11T20:37:38</modified>
    <unit name="meter" meter="1"/>
    <up_axis>Z_UP</up_axis>
  </asset>
  <library_images/>
  <library_geometries>
    <geometry id="Plane_019-mesh" name="Plane.019">
      <mesh>
        <source id="Plane_019-mesh-positions">
          <float_array id="Plane_019-mesh-positions-array" count="981">-5.56185 -8 -2.028837 5.63283 -8 -1.99536 9 -8 16 -9 -8 16 24 -8 16 -23.82216 -8.196468 16.37834 7.94781 -8 1.52198 8.758152 -8 6.06178 8.66379 -8.282769 10.8574 -8.80938 -8 11.1162 -8.723697 -8.171442 6.07794 -8.22565 -8 1.730607 16.50952 -8 16 -16.66851 -8 16 -2.576408 -7.887671 -4.064087 -5.310642 -6.136629 -2.208924 4.204292 -8 -3.12587 8.777586 -7.80502 13.6432 -10.92243 -6.445894 15.17825 -6.912746 -7.68388 -0.421187 19.92554 -8 16 -22.34517 -5.416372 16.04025 -13.11812 -8 16 7.155961 -7.84656 -0.3210144 8.50707 -8.09635 3.783371 8.710987 -8.13989 8.667725 -8.751996 -8 13.71754 -8.490112 -8 8.547372 -8.550642 -7.845388 3.90232 -8.587653 -6.071842 5.862634 -9.416714 -6.109771 10.47826 12.76396 -8 16 -20.61925 -8 16 -16.16469 -5.504071 15.3112 -4.019613 -8 -3.109608 5.609002 -6.050496 -1.554799 10.60107 -6.170179 15.82424 8.861658 -6.079238 1.708453 9.418759 -6.03219 10.90369 21.82369 -4.738023 16.53741 -14.30117 -6.031849 15.52241 13.91651 -6.213381 16.17653 6.889256 -6.017657 -0.3269103 -7.15438 -6.236811 -0.3088361 -18.94653 -5.328944 16.02947 -19.40538 31.47595 -2.02884 -11.48954 39.39178 -1.995365 -9.108598 41.77273 16 -21.83652 29.0448 16 1.509044 52.36829 16 -32.36116 18.3675 15.81419 -9.146388 41.33504 10.85744 -9.279611 41.60171 6.06178 -9.852605 41.02872 1.521982 -21.28897 29.59235 1.73061 -21.51992 29.11895 6.07794 -21.70173 29.17959 11.11624 -3.83505 47.04627 16 -27.00837 23.87295 16 -13.60247 37.46234 -4.156779 -17.37379 33.6664 -4.064104 -10.24428 37.79004 -2.176143 -18.31485 32.56647 -3.10961 -7.763432 39.28494 15.05842 -10.52103 40.5773 -0.3210139 -21.66116 29.22017 13.7175 2.726812 48.32671 16.14316 -6.35411 44.52721 16 -29.67506 21.20626 16 -9.403738 41.75333 13.6432 -9.214042 41.46945 8.66772 -9.38902 41.35604 3.78337 -20.58414 30.74424 -0.4211869 -21.6281 29.47187 3.902322 -21.47597 29.40535 8.54737 -8.182516 40.26362 1.459615 -8.236569 40.10902 5.91146 -0.9858484 49.89547 16 -24.47201 26.40931 16 -2.246684 44.5873 15.82435 -12.49967 38.38165 -3.12587 -15.41205 35.46927 -4.30027 -14.58345 31.588 -3.981906 -12.48743 35.80775 -3.714024 -20.63184 27.48969 15.07785 -19.82148 28.12312 2.329661 -20.15289 27.83996 6.096823 -27.09317 17.81357 16.05285 -24.44476 21.74774 16.28156 -20.12447 27.90801 12.00049 -5.517784 41.83627 16.35167 -19.12098 29.59009 -0.3739256 -22.33077 24.88309 15.6864 -8.081207 39.36733 12.97193 -9.915287 39.19182 -0.2403325 0.1888642 47.38581 16.78427 -20.22498 27.90789 8.605112 -11.26638 -3.9324 14.80498 -20.11663 22.54977 13.67424 -9.425172 -1.895984 13.13788 -18.40827 22.92165 12.32578 -20.48707 24.63088 12.99557 -6.378232 -4.934725 -2.508772 -17.37534 28.63999 -1.428286 -24.73726 -2.649049 15.99387 -18.12479 24.328 10.97538 -28.32167 3.151226 15.37156 -19.46089 25.72722 9.995436 -10.04301 -4.635093 7.358482 -17.95952 26.59757 5.351366 -17.39251 24.80684 5.880064 -18.20207 26.29385 1.793854 -8.802851 -4.327688 2.361728 -17.53528 27.56022 0.7973062 -30.60254 10.33357 14.97786 -31.51692 14.53782 16.48109 24.133 10.86788 17.4762 37.50903 31.69361 16.7566 23.27489 39.30684 17.0438 -5.892483 36.2059 1.146423 -8.241697 35.95495 -1.061424 -4.036143 35.03964 13.27965 -5.734636 35.45526 15.21573 7.570104 -3.151556 1.029652 4.887193 -4.023618 -2.20365 11.41907 -3.522408 14.3451 9.075816 40.95594 16.64773 4.738603 45.95324 15.40243 19.60993 -0.4231305 17.75623 20.18663 5.183847 17.3412 33.29551 18.89249 18.1895 39.44183 26.46466 17.43868 36.64875 35.4118 18.26593 32.79398 38.28356 17.38473 -1.843558 38.77701 15.69558 2.299753 42.77309 15.31097 13.49033 -1.369735 16.63792 -19.41508 -1.42426 15.66101 -11.6242 -0.7947357 15.13851 9.765118 -2.693567 11.55533 9.60571 -3.051923 8.106303 10.01704 -2.62542 4.300546 -6.665644 36.18808 12.39825 -5.829811 37.67189 7.504649 -4.822299 37.75201 3.43228 -4.102364 -2.337827 -4.061115 3.233961 -4.845556 -3.033298 -0.2712702 -7.9036 -4.166147 2.015272 -7.929605 -3.854202 0.03917557 -3.28175 -4.75737 11.11083 13.37322 14.64135 9.203639 13.61331 3.494682 9.134843 13.1858 11.06927 9.331637 13.41716 5.914751 8.20472 13.0401 1.586655 4.120981 12.40036 -2.066679 31.26327 24.13993 -0.2152764 32.07842 24.74786 2.058281 27.05919 24.7045 -1.873965 32.86751 24.80527 5.428739 32.56819 24.25538 8.821949 35.14232 23.03912 14.80419 24.74208 22.80579 0.4713472 18.4945 20.88673 0.2939493 12.04425 17.27794 0.2845038 14.61881 17.75443 2.902689 19.82589 21.50353 2.737203 26.04684 24.16789 2.737785 22.66698 23.9385 -2.990971 15.62083 20.62742 -1.964626 8.542016 17.6282 -2.194774 15.3183 17.73789 6.70338 22.0601 22.17135 6.358705 28.07369 24.65201 5.68239 14.62954 16.83378 10.94765 20.35258 20.20322 10.01117 26.65147 24.02759 9.330708 17.8222 16.73181 14.99345 24.67437 20.09092 14.70891 29.4638 23.33252 14.18519 27.98098 28.35921 -1.111082 22.1525 31.22474 -0.4199063 24.46713 32.38435 2.188332 30.15103 29.97461 1.491559 25.62008 28.35651 -3.715176 19.94646 29.97747 -2.915863 25.94005 32.00582 4.689345 31.20608 29.52148 4.8236 25.56043 32.90254 9.159398 30.73169 29.71018 8.86238 28.3852 32.34386 14.52092 34.27387 29.52423 14.1363 6.22282 29.08633 -0.08544677 9.436724 29.20202 -0.05522793 13.94267 30.17222 -0.5874997 17.54884 30.40781 0.2351465 19.87197 31.73311 1.999703 15.45248 30.91504 1.787131 11.77487 29.89452 1.608073 8.515109 28.68476 2.694233 3.67173 27.24079 -3.016073 7.072202 28.8618 -2.063192 9.961308 29.35405 -3.129359 15.20956 29.95431 -3.047078 21.57766 32.66019 4.629941 16.60917 31.0921 5.222595 12.51385 29.97243 5.330521 9.501049 28.36258 4.625422 20.73388 31.69635 9.372212 16.0199 30.48933 9.679814 11.68281 29.36248 9.328952 8.842089 28.45707 9.732663 23.75315 32.48426 14.59977 18.38627 30.44812 13.32621 13.87148 29.8913 12.74217 10.09757 29.32411 13.22245 38.43121 21.21746 17.14107 29.31199 40.24573 17.39086 16.5055 39.17233 16.42566 29.53722 15.02089 18.26988 27.5313 36.32544 15.92013 29.99593 20.32922 16.8259 2.103785 28.84813 12.80794 7.457988 27.46427 12.90789 5.495122 29.03651 3.263787 0.5178775 29.96763 1.870434 5.885412 28.7116 10.42447 1.079511 29.69151 9.520391 6.690112 28.76209 4.714769 1.423902 30.08723 5.166983 -1.548745 29.36917 -0.3891447 2.94651 28.27283 -0.05042999 -0.5084616 25.91031 -3.259714 -5.25806 28.69997 -2.795886 -2.313397 32.93408 9.280694 -0.9130793 31.24741 12.64285 -2.468835 34.15007 0.7127665 -1.549089 33.71758 4.197437 -5.400434 32.7452 -0.3447851 -9.035714 31.48702 -2.630553 -26.28059 14.77873 15.63319 -24.40813 12.53646 15.73931 -23.76573 9.381901 15.85377 -23.18434 6.417749 15.2045 -22.00913 4.585196 16.10004 -20.72925 1.708433 15.83389 -20.94333 19.45549 15.27646 -17.24215 16.30747 15.19422 -16.49213 13.6805 15.99836 -16.09368 9.918268 16.00176 -14.35612 6.491602 15.36868 -11.29879 3.556417 15.07393 -16.84291 20.80484 13.90196 -13.12687 16.68197 13.93833 -11.5028 13.35358 13.6667 -10.44791 9.613656 13.69197 -9.713548 6.625345 12.71187 -7.9619 2.33728 12.97183 -15.33474 20.76612 9.721493 -11.00582 17.21537 10.23513 -9.227392 13.09187 9.359306 -9.376766 9.174208 8.992301 -9.593721 4.610939 9.025956 -9.51532 0.6785824 9.096516 -14.45999 21.29908 5.645022 -11.16151 15.86691 4.86339 -11.0035 12.97407 4.272152 -10.55912 8.466428 3.200862 -11.2049 4.328708 3.657941 -9.291363 -0.06119292 3.767774 -15.89303 22.85624 0.1139168 -13.63209 18.07462 -0.1707745 -12.20372 12.85427 -0.06546217 -11.63867 8.311812 -0.1794287 -10.49554 3.995684 -0.9422577 -8.181462 -1.037798 -1.844942 22.44243 33.63538 15.28656 21.63066 37.12923 15.39943 17.61014 34.75513 15.51218 12.77073 36.19873 15.76551 6.513047 37.00593 16.0359 1.818142 37.25094 15.33733 2.306096 32.75079 14.91476 11.70831 31.32103 14.27669 12.38282 9.767438 14.87041 12.45343 5.527798 14.92001 12.29419 2.129119 15.14177 9.073989 9.768961 11.85789 9.569169 5.115576 11.45389 8.754051 0.9737727 10.62119 8.497439 9.459227 3.506803 8.562734 5.904552 4.120167 9.402238 1.133296 4.354069 9.436282 1.145228 7.768628 9.382765 5.186443 8.463644 9.216501 9.306266 6.965673 7.626003 9.216225 1.920527 7.099496 5.276705 1.135985 8.39978 1.484318 1.683902 2.965733 8.300603 -1.574445 3.851603 4.130683 -0.8153762 3.353119 0.05304235 -2.036296 15.80375 10.52256 14.81669 15.11046 3.967523 16.37153 19.06395 12.68343 16.42322 19.36609 9.360991 16.97129 23.53361 17.10931 16.22483 24.00744 14.19876 17.3417 1.618112 19.98636 -1.994471 12.50424 24.84469 -3.001234 6.98703 22.7558 -2.437219 17.73675 26.79551 -2.893768 -14.05559 22.05221 -1.970679 -11.49093 15.61015 -2.451231 -9.786101 9.440361 -3.953662 -6.352856 3.371117 -3.606162 -2.969039 3.686735 -3.825144 -7.398939 11.14038 -4.171905 -10.03213 18.30095 -3.336439 -12.10911 25.78278 -3.447042 -2.617932 3.734233 -3.588942 -3.807839 9.63079 -3.536265 -5.877475 16.12927 -3.102858 -6.637304 23.7703 -3.211826 -1.36997 18.23445 -3.180268 0.04504293 10.55539 -3.454401 0.05934244 2.56245 -2.676233</float_array>
          <technique_common>
            <accessor source="#Plane_019-mesh-positions-array" count="327" stride="3">
              <param name="X" type="float"/>
              <param name="Y" type="float"/>
              <param name="Z" type="float"/>
            </accessor>
          </technique_common>
        </source>
        <source id="Plane_019-mesh-normals">
          <float_array id="Plane_019-mesh-normals-array" count="978">0.06973552 0.1706613 0.982859 0.06140404 0.3206622 0.9452013 0.02877902 0.1878114 0.9817834 0.08737689 0.1418845 0.9860194 -0.8201404 0.5559669 0.1351692 -0.5973284 0.5762394 0.5578056 -0.4600749 0.437857 0.7724069 -0.1597372 -0.03769111 0.9864398 -0.0488612 -0.02359133 0.9985269 -0.01922678 -0.1827156 0.9829778 0.5586839 -0.01373362 0.829267 0.5784598 0.2288935 0.7829381 0.6636344 0.003326535 0.7480497 0.4491505 0.421256 0.7879133 0.4568754 0.7856913 0.4170781 -0.6544453 -0.1618412 0.7385857 -0.7179999 -0.1180796 0.6859545 -0.6911649 -0.08234035 0.7179912 -0.7714229 -0.002899229 0.6363163 -0.8943331 0.1054131 0.4348062 -0.1811002 -0.0764808 0.9804864 -0.04110866 0.1294907 0.9907281 -0.3035716 -0.008606314 0.9527699 0.7230052 0.6727397 0.157114 0.8311218 0.1550056 0.5340506 0.8048523 0.08881086 0.5867926 0.9968637 0.05450642 0.05737519 0.9481648 0.2845287 0.1415166 0.9976544 -0.06634747 -0.01684623 0.9427995 0.3215809 0.08783429 0.9664708 0.2497051 0.05984741 0.947995 0.3163645 0.03491419 0.0383321 0.0114752 0.9991993 0.05371302 0.05963367 0.9967742 0.09830307 0.06848555 0.9927971 0.1058106 0.0794419 0.9912079 -0.8661332 0.3806347 0.3239302 0 -0.1625428 0.9867016 0.02716195 -0.2054545 0.9782897 -0.4820164 -0.1291867 0.8665858 -0.9757333 0.2162294 0.03448683 -0.9480087 0.3181595 -0.007355034 -0.9547363 0.2583767 0.1473778 -0.8856616 -0.4564117 0.08539217 -0.501038 -0.4026737 0.7660384 -0.8651055 -0.4974982 0.06393831 0.01696866 -0.09668487 0.9951705 -0.007080435 0.08200526 0.9966068 -0.02273678 -0.05224889 0.9983752 0.7498541 0.65143 0.1155758 0.813408 0.09857827 0.5732799 0.8929567 0.4360561 0.1117302 -0.4787206 -0.2664611 0.8365555 -0.5977123 -0.3427881 0.7247319 -0.5864571 -0.4570556 0.6687064 -0.6892214 -0.4388701 0.5765129 -0.8409291 -0.5359801 -0.07458919 -0.7598598 -0.6489541 -0.03836226 -0.6776769 -0.7336794 0.04968506 -0.724495 -0.6892758 -0.002411007 -0.8168849 -0.5751705 0.04333764 0.606532 0.4494209 0.6558505 0.06290042 0.1889148 0.979977 0.3295459 0.4433518 0.8335698 0.5835933 0.7225484 0.3705978 0.5537139 0.6503689 0.5200204 0.4940997 0.6500204 0.5773551 0.6553381 0.6794482 0.3299732 0.665686 0.7370399 0.1167666 0.6073666 0.7942064 0.01849472 0.1543359 0.00601226 0.9880002 0.687412 0.1064811 0.7184194 0.1674572 -0.01321464 0.9857909 -0.05981725 0.05981725 0.9964156 -0.7601367 -0.6497189 0.007599174 -0.6514028 -0.4493043 0.611392 -0.4705738 -0.753852 0.4585493 -0.8033555 -0.322038 0.5009107 -0.06430345 0.1741412 0.982619 0.1659619 0.04397773 0.9851511 -0.02700954 0.02725374 0.9992637 -0.08936095 -0.03564667 0.9953613 0.02352988 0.01705992 0.9995777 0.7010224 0.7126806 0.02557492 0.7781174 0.6221948 0.0860641 0.6636359 0.7479904 0.009888112 0.766977 0.6414211 0.01803678 -0.05142432 -0.003845334 0.9986696 -0.0359205 0.08710044 0.9955518 0.06106829 -0.06952202 0.9957095 -0.5562845 -0.6942034 0.4567594 -0.6940972 -0.7012692 0.1626366 0.4564204 0.5178259 0.7235584 0.4678925 -0.04880046 0.8824371 -0.3681222 -0.04843389 0.9285151 -0.4228173 -0.04269677 0.9052087 -0.1268382 0.07315474 0.9892222 -0.4721002 -7.32459e-4 0.8815447 -0.1248239 -0.04660296 0.9910839 0.8244197 0.2012447 0.5289922 -0.7295323 -0.1082212 0.6753301 -0.9784384 0.02084445 0.2054843 0.1762182 -0.1101135 0.9781729 -0.02020329 -0.07412976 0.997044 0.9182979 -0.1266554 0.3750833 0.7937455 0.471767 0.3839325 0.1919339 0.294722 0.9361092 0.5962757 0.5542514 0.5807416 0.4855919 0.3557935 0.7985059 -0.6634251 0.09079444 0.7427138 -0.7671755 0.1337682 0.6273339 0.6803908 0.6113874 0.4040717 0.8223133 0.5060718 0.2601774 0.7891699 0.6122186 0.04898357 0.9309971 0.09638053 0.3520728 0.9546429 0.1437457 0.2607567 -0.6129726 -0.1571114 0.774326 -0.490719 -0.4984403 0.7146692 -0.5748056 -0.3280549 0.7496523 0.06460881 -0.04931879 0.9966913 -0.001892149 -0.05883997 0.9982657 -0.4331876 -0.05108886 0.8998547 0.04480248 -0.1800646 0.982634 -0.2891097 -0.7442751 0.602055 -0.3071408 -0.8220838 0.4794192 0.0215463 0.05520862 0.9982424 0.07898211 0.01470994 0.9967675 -0.3836621 -0.5624765 0.7324097 -0.5639016 -0.5281026 0.6349195 -0.3515853 -0.3767029 0.8570197 -0.7379082 -0.6462572 -0.1945333 0.3486555 -0.03692865 0.9365232 0.4152979 0.0753811 0.9065569 0.9719336 0.2114345 0.1031537 -0.9446533 -0.08063107 0.3180075 -0.9986443 0.03567671 -0.03790462 -0.9766186 0.2143678 0.01620572 -0.9442269 0.3017107 0.1319335 0.329696 0.09781318 0.9390065 0.5683662 0.3685545 0.7356136 0.8316717 0.5317316 0.1599497 0.7482376 0.4309301 0.5044202 0.3212743 0.06326603 0.9448705 0.2110402 0.153481 0.9653526 0.009064137 -0.05899327 0.9982172 0.4885206 0.5575551 0.6711781 0.6945652 0.6651443 0.2741576 -0.01931858 -0.03149569 0.9993173 -0.1821091 -0.3262521 0.9275753 -0.2981122 -0.1685274 0.9395359 -0.7921212 -0.1304993 0.5962501 -0.9675846 -0.1543362 0.1999015 -0.7820498 0.09943091 0.6152329 -0.4282773 0.1627289 0.8888746 -0.5156757 0.1202745 0.8482999 3.96743e-4 -0.9090292 0.4167325 0.07184112 -0.492176 0.8675262 0.143777 -0.9846176 0.09927964 -0.9957988 -0.01422172 -0.09045779 -0.5841379 -0.4205243 0.6942207 -0.7049557 0.6456881 0.2934696 -0.441674 0.4679816 0.7654523 0.05081415 -0.9889687 -0.1391361 -0.1671528 -0.9849416 -0.04416108 -0.1386491 -0.9891906 0.04773211 -0.9848687 0.02606296 0.1713319 0.09857779 -0.9466217 0.3069036 0.0444051 -0.6101354 0.7910519 -0.04229891 -0.8961213 0.441789 -0.1662064 0.9848782 0.04889136 -0.8342089 0.4944093 0.2442443 -0.280991 0.9476238 -0.1518334 -0.8601299 0.5027775 0.08597332 -0.1903779 0.8483385 0.4940426 -0.2969813 0.9308326 0.2129622 0.0177319 -0.2472699 0.9687844 -0.03549396 -0.3007985 0.9530271 -0.08560687 -0.498168 0.8628442 -0.2012131 0.5003014 0.8421471 -0.3233512 0.2742763 0.9056581 -0.1500026 0.5263979 0.8369018 -0.7007889 -0.6906259 0.1786917 -0.2082607 0.3346394 0.9190452 -0.7414995 0.4099366 0.5311597 -0.4579385 0.7422236 0.4892816 -0.7738148 -0.6308933 0.05642998 -0.4774745 -0.8732183 -0.09750914 -0.6271929 -0.6511501 0.4273554 -0.7148218 -0.6888804 -0.1203069 -0.4984412 -0.8668703 -0.009613573 -0.7836829 -0.6208607 -0.01931887 0.1603165 -0.9867414 -0.02530026 0.1751785 -0.9809998 -0.08337765 -0.5235008 -0.7561812 0.3926026 -0.3567966 0.4860747 0.7977643 -0.5443133 -0.4518396 0.7067986 -0.3615584 -0.3331453 0.8707984 -0.7330391 0.4884588 0.4733518 -0.2991807 0.9516224 0.07004177 -0.819315 0.5347858 0.2067056 -0.5473628 0.8101031 0.210064 -0.4219564 0.8719597 0.2482724 -0.4547966 0.8896948 0.04004114 -0.1425842 0.5176916 0.8436026 -0.2568815 0.5468765 0.7968301 -0.5408897 0.363879 0.7583077 -0.5013079 0.8386057 0.2131459 -0.8707122 0.4580624 0.178995 -0.3680652 0.5727291 0.7324681 -0.4682945 0.8353551 0.2878925 -0.3788707 0.6862034 0.6209525 -0.8661678 0.4944734 0.07245278 -0.558889 0.8211362 0.1156659 -0.4609017 0.8755056 0.145119 -0.2476025 -0.7269681 0.6404767 -0.3262472 -0.9422717 0.07541221 -0.1595517 -0.9856016 0.05597126 -0.6333054 -0.6394397 0.4359372 -0.1727669 -0.9418406 0.28825 0.2010304 -0.9444187 0.2601157 0.1741411 -0.9750194 0.1378846 0.1366357 -0.9815982 0.1334006 0.2951801 -0.9553983 -0.009094655 0.1755775 -0.9840029 -0.03018355 0.1397457 -0.988963 0.04922688 0.2534644 -0.9659112 -0.0526461 0.3588407 -0.931405 -0.06097662 0.2689019 -0.9574689 -0.1046187 0.2266675 -0.9693572 -0.0947017 0.2886191 -0.9573532 0.01318424 0.1178959 -0.813094 0.5700692 0.1673035 -0.8894066 0.4254003 0.1332167 -0.9250094 0.3558244 0.3706203 -0.8185448 0.4388908 0.1702342 -0.7272337 0.6649447 0.2651867 -0.5966623 0.7574102 0.02002036 -0.6621691 0.749087 -0.5544761 -0.006805777 0.8321719 -0.3955935 0.3662338 0.8422462 -0.4265071 -0.2963118 0.8545707 -0.233317 -0.3096143 0.9217929 -0.4893743 -0.4228426 0.7627037 -0.07074272 -0.3332965 0.9401643 -0.09424269 -0.3118432 0.9454482 -0.002410948 -0.3119021 0.9501113 -0.3301579 0.1463096 0.9325177 -0.2613353 0.112524 0.958667 -0.5647895 0.09631878 0.8195948 -0.1127372 -0.2789743 0.9536581 -0.1755773 -0.9663009 -0.1882428 -0.3590575 -0.841046 0.4046226 0.0799598 -0.923414 0.3753839 0.7797073 0.2151611 0.5880156 0.9730693 0.2028601 0.1094718 0.8439176 0.2983559 0.4458553 0.9853646 0.1066942 0.1329404 0.9870704 0.1301628 -0.09354019 0.9806475 0.1772258 0.08319568 0.9641712 -0.007172048 -0.2651837 0.9097143 0.3400747 -0.2382628 0.9533064 0.1155162 -0.2790396 0.9152934 0.3696148 0.1600718 0.7999311 0.5992998 0.03082406 0.9860667 -0.03552401 -0.1625133 0.9764637 0.03375428 -0.2130244 0.9990232 0.005157768 -0.04388689 0.9836543 0.1742628 0.04535102 0.8091586 0.5446478 0.220502 0.9535087 0.02697885 0.3001555 0.8694854 0.1766437 0.4612942 0.734359 0.0634194 0.6757922 0.6732835 0.2118641 0.7083806 0.5683971 0.4206212 0.7071086 0.3715654 0.1398062 0.91782 0.256698 0.01138365 0.9664247 0.1883037 -0.001922667 0.9821091 0.1729239 0.1561686 0.9724755 0.1432243 0.2406095 0.9599968 0.03897237 -0.02694797 0.9988769 -0.0843237 0.07748746 0.9934211 -0.03622609 -0.06433409 0.9972707 -0.06064176 0.05227947 0.9967896 -0.05237114 0.0383628 0.9978906 -0.06970447 0.02725309 0.9971954 -0.08963388 -0.08307236 0.9925042 0.02600187 -0.2831827 0.9587135 -0.1880594 -0.3260979 0.9264415 0.06582927 -0.4408152 0.8951808 -0.01059019 -0.2379594 0.9712174 -0.07071375 -0.1467989 0.9866355 -0.03085452 -0.05002039 0.9982715 -0.9958164 0.01791483 0.08960485 -0.9954752 -0.05264556 0.07910573 -0.9229316 -0.05856633 0.380483 -0.9275162 -0.01382529 0.3735274 -0.9381889 0.09592163 0.332567 -0.946909 -0.04849445 0.3178235 -0.4989638 -0.2174821 0.8388903 -0.4883634 -0.05282819 0.8710399 -0.7158153 -0.06039643 0.695673 -0.3371728 -0.03854537 0.9406534 -0.1857368 0.06686645 0.9803218 -0.1178658 0.0698893 0.9905672 -0.2800112 0.1140493 0.953198 -0.1257694 0.163247 0.978536 -0.2494016 0.3965951 0.8834655 -0.3597007 0.170542 0.9173499 0.863417 0.4257115 0.2707048 0.620055 0.2345997 0.7486621 0.007965564 0.08511883 0.996339 -4.5779e-4 0.06055033 0.9981651 -0.1778658 0.03360158 0.9834809 0.03116029 0.04495501 0.998503 0.1586692 0.06216752 0.9853727 -0.229716 -0.113683 0.9665955 -0.4120078 -0.1397164 0.9004049 0.1843355 0.02881002 0.9824411 -0.007812917 -0.08081501 0.9966986 -0.06262534 -0.06662338 0.9958109 -0.1130136 -0.06741756 0.9913036 0.3034826 0.1141722 0.945972 0.5220949 0.08847564 0.8482859 0.6613809 0.1334908 0.7380756 -0.1457882 -0.02533054 0.9889915 -0.2237641 0.02011191 0.9744358 -0.4005399 -0.1471352 0.9043889</float_array>
          <technique_common>
            <accessor source="#Plane_019-mesh-normals-array" count="326" stride="3">
              <param name="X" type="float"/>
              <param name="Y" type="float"/>
              <param name="Z" type="float"/>
            </accessor>
          </technique_common>
        </source>
        <vertices id="Plane_019-mesh-vertices">
          <input semantic="POSITION" source="#Plane_019-mesh-positions"/>
        </vertices>
        <triangles material="Material_002-material" count="569">
          <input semantic="VERTEX" source="#Plane_019-mesh-vertices" offset="0"/>
          <input semantic="NORMAL" source="#Plane_019-mesh-normals" offset="1"/>
          <p>13 0 22 1 40 2 13 0 40 2 33 3 17 4 2 5 36 6 41 7 31 8 12 9 41 7 36 6 31 8 36 6 2 5 31 8 34 10 15 11 0 12 40 2 22 1 18 13 22 1 3 14 18 13 1 15 42 16 35 17 23 18 37 19 42 16 149 20 147 21 148 22 26 23 18 13 3 14 0 12 43 24 19 25 28 26 29 27 10 28 27 29 30 30 9 31 27 29 10 28 29 27 32 32 21 33 5 34 13 0 44 35 32 32 1 15 23 18 42 16 23 18 6 36 37 19 20 37 4 37 39 38 0 12 15 11 43 24 16 39 1 15 35 17 25 40 8 41 38 42 32 32 44 35 21 33 13 0 33 3 44 35 93 43 47 44 69 45 79 46 67 47 90 48 65 49 84 50 89 51 80 52 61 53 46 54 90 48 47 44 63 55 93 43 51 56 142 57 71 58 76 59 52 60 103 61 82 62 62 63 54 64 91 65 72 66 85 67 73 68 86 69 78 70 84 50 48 71 88 72 78 70 58 73 76 59 70 74 52 60 94 75 53 76 64 77 46 54 94 75 64 77 77 78 66 79 49 80 57 81 95 82 77 78 55 83 96 84 86 69 56 85 96 84 74 86 93 43 63 55 47 44 79 46 57 81 67 47 56 85 65 49 89 51 65 49 48 71 84 50 90 48 67 47 47 44 68 87 50 88 87 89 76 59 75 90 144 91 45 92 72 66 91 65 54 64 85 67 91 65 78 70 92 93 84 50 88 72 92 93 78 70 93 43 69 45 51 56 94 75 75 90 53 76 46 54 61 53 94 75 83 94 59 95 81 96 77 78 95 82 66 79 57 81 79 46 95 82 55 83 74 86 96 84 56 85 89 51 96 84 136 97 41 7 128 98 101 99 89 51 84 50 123 100 37 19 141 101 87 89 115 102 114 103 30 30 99 104 18 13 111 105 85 67 86 69 81 96 60 106 82 62 100 107 101 99 98 108 286 109 125 110 136 97 105 111 101 99 100 107 101 99 107 112 89 51 107 112 96 84 89 51 109 113 96 84 107 112 28 26 11 114 112 115 124 116 35 17 42 16 42 16 37 19 123 100 11 114 43 24 112 115 119 117 94 75 120 118 16 39 35 17 124 116 127 119 95 82 135 120 135 120 95 82 79 46 146 121 149 20 148 22 127 119 66 79 95 82 134 122 90 48 122 123 90 48 63 55 122 123 122 123 121 124 134 122 90 48 134 122 79 46 134 122 135 120 79 46 125 110 36 6 41 7 125 110 41 7 136 97 21 33 104 125 5 34 21 33 44 35 137 126 87 89 50 88 115 102 105 111 107 112 101 99 230 127 236 128 238 129 83 94 81 96 82 62 51 56 70 74 143 130 70 74 76 59 143 130 84 50 92 93 101 99 98 108 101 99 92 93 138 131 40 2 97 132 40 2 18 13 97 132 73 68 55 83 86 69 85 67 54 64 73 68 33 3 40 2 138 131 82 62 60 106 62 63 80 52 59 95 83 94 29 27 108 133 27 29 30 30 27 29 108 133 17 4 36 6 38 42 36 6 125 110 38 42 139 134 140 135 38 42 140 135 141 101 7 136 7 136 141 101 37 19 125 110 139 134 38 42 38 42 8 41 17 4 7 136 25 40 140 135 25 40 38 42 140 135 6 36 24 137 37 19 24 137 7 136 37 19 62 63 45 92 103 61 76 59 71 58 75 90 71 58 53 76 75 90 68 87 87 89 88 72 63 55 93 43 122 123 142 57 122 123 93 43 144 91 143 130 76 59 88 72 58 73 68 87 143 130 142 57 51 56 75 90 119 117 144 91 26 23 9 31 30 30 99 104 97 132 18 13 18 13 26 23 30 30 29 27 28 26 112 115 11 114 19 25 43 24 149 20 14 138 147 21 146 121 148 22 16 39 14 138 15 11 34 10 41 7 12 9 128 98 43 24 15 11 102 139 109 113 111 105 86 69 110 140 109 113 107 112 109 113 86 69 96 84 113 141 91 65 85 67 119 117 75 90 94 75 120 118 94 75 61 53 128 98 12 9 39 38 121 124 122 123 142 57 45 92 91 65 103 61 61 53 80 52 83 94 120 118 61 53 83 94 12 9 20 37 39 38 149 20 145 142 14 138 146 121 16 39 124 116 14 138 145 142 15 11 246 143 87 89 240 144 98 108 88 72 246 143 100 107 98 108 252 145 110 140 105 111 258 146 111 105 109 113 110 140 323 147 233 148 239 149 298 150 141 101 292 151 296 152 155 153 299 154 146 121 124 116 149 20 231 155 200 156 192 157 29 27 112 115 108 133 30 30 108 133 99 104 97 132 99 104 138 131 33 3 137 126 44 35 21 33 137 126 104 125 141 101 293 158 292 151 191 159 160 160 161 161 199 162 228 163 224 164 140 135 289 165 293 158 195 166 185 167 181 168 173 169 157 170 167 171 173 169 160 160 159 172 179 173 160 160 176 174 218 175 277 176 118 177 221 178 219 179 130 180 189 181 159 172 160 160 170 182 154 183 164 184 187 185 157 170 159 172 227 186 235 187 234 188 229 189 234 188 237 190 211 191 228 163 207 192 225 193 237 190 236 128 158 194 180 195 184 196 167 171 156 197 162 198 151 199 164 184 154 183 165 200 163 201 164 184 166 202 162 198 163 201 158 194 162 198 156 197 168 203 163 201 162 198 169 204 164 184 163 201 150 205 174 206 152 207 177 208 175 209 174 206 178 210 176 174 175 209 153 211 174 206 171 212 171 212 175 209 172 213 172 213 176 174 173 169 153 211 165 200 151 199 171 212 166 202 165 200 172 213 167 171 166 202 190 214 189 181 191 159 186 215 189 181 188 216 186 215 183 217 187 185 181 168 184 196 180 195 182 218 180 195 183 217 180 195 157 170 183 217 181 168 196 219 195 166 195 166 197 220 194 221 194 221 198 222 193 223 193 223 199 162 192 157 182 218 204 224 196 219 196 219 205 225 197 220 197 220 206 226 198 222 198 222 207 192 199 162 188 216 204 224 186 215 208 227 205 225 204 224 209 228 206 226 205 225 210 229 207 192 206 226 188 216 212 230 208 227 208 227 213 231 209 228 209 228 214 232 210 229 210 229 215 233 211 191 239 149 120 118 83 94 192 157 201 234 193 223 193 223 202 235 194 221 194 221 203 236 195 166 131 237 161 161 216 238 216 238 161 161 130 180 131 237 191 159 161 161 117 239 191 159 131 237 133 240 117 239 132 241 190 214 191 159 117 239 220 242 190 214 133 240 133 240 190 214 117 239 118 177 220 242 217 243 161 161 179 173 221 178 130 180 161 161 221 178 217 243 220 242 133 240 220 242 212 230 190 214 277 176 276 244 220 242 192 157 224 164 231 155 179 173 178 210 221 178 303 245 302 246 285 247 225 193 231 155 224 164 230 127 232 248 231 155 229 189 224 164 228 163 227 186 228 163 226 249 222 250 226 249 223 251 211 191 223 251 226 249 233 148 238 129 239 149 236 128 144 91 119 117 237 190 143 130 144 91 234 188 121 124 142 57 238 129 119 117 120 118 275 252 269 253 112 115 274 254 269 253 275 252 273 255 268 256 274 254 272 257 267 258 273 255 272 257 265 259 266 260 271 261 264 262 265 259 269 253 108 133 112 115 268 256 263 263 269 253 267 258 262 264 268 256 266 260 261 265 267 258 265 259 260 266 266 260 264 262 259 267 265 259 263 263 99 104 108 133 262 264 257 268 263 263 261 265 256 269 262 264 260 266 255 270 261 265 259 267 254 271 260 266 258 146 253 272 259 267 257 268 138 131 99 104 256 269 251 273 257 268 255 270 250 274 256 269 254 271 249 275 255 270 253 272 248 276 254 271 252 145 247 277 253 272 251 273 137 126 138 131 250 274 245 278 251 273 249 275 244 279 250 274 249 275 242 280 243 281 248 276 241 282 242 280 247 277 240 144 241 282 104 125 245 278 106 283 135 120 126 284 127 119 278 285 276 244 277 176 282 286 134 122 235 187 213 231 276 244 278 285 213 231 278 285 283 287 279 288 218 175 126 284 223 251 283 287 282 286 280 289 281 290 282 286 281 290 135 120 134 122 295 291 152 207 153 211 294 292 287 293 295 291 293 158 288 294 294 292 290 295 153 211 151 199 291 296 295 291 290 295 292 151 294 292 291 296 123 100 301 297 124 116 298 150 300 298 301 297 297 299 299 154 300 298 154 183 290 295 151 199 296 152 291 296 290 295 297 299 292 151 291 296 287 293 150 205 152 207 288 294 284 300 287 293 288 294 286 109 285 247 129 301 303 245 128 98 221 178 116 302 219 179 305 303 116 302 307 304 221 178 306 305 307 304 177 208 306 305 178 210 304 306 307 304 306 305 177 208 302 246 304 306 302 246 305 303 304 306 286 109 289 165 125 110 289 165 139 134 125 110 230 127 225 193 236 128 246 143 88 72 87 89 246 143 252 145 98 108 98 108 92 93 88 72 252 145 258 146 100 107 258 146 105 111 100 107 258 146 264 262 110 140 110 140 107 112 105 111 264 262 270 307 111 105 270 307 113 141 111 105 264 262 111 105 110 140 113 141 85 67 111 105 15 11 145 142 102 139 103 61 91 65 113 141 113 141 270 307 103 61 312 308 103 61 270 307 275 252 102 139 145 142 149 20 124 116 301 297 83 94 82 62 239 149 309 309 170 182 169 204 184 196 168 203 158 194 169 204 168 203 311 310 170 182 308 311 155 153 311 310 185 167 203 236 309 309 201 234 310 312 298 150 123 100 141 101 296 152 154 183 155 153 231 155 232 248 200 156 33 3 138 131 137 126 141 101 140 135 293 158 191 159 189 181 160 160 199 162 207 192 228 163 140 135 139 134 289 165 195 166 203 236 185 167 173 169 159 172 157 170 173 169 176 174 160 160 179 173 161 161 160 160 189 181 187 185 159 172 170 182 155 153 154 183 187 185 183 217 157 170 227 186 222 250 235 187 229 189 227 186 234 188 211 191 226 249 228 163 225 193 229 189 237 190 158 194 156 197 180 195 167 171 157 170 156 197 151 199 165 200 164 184 165 200 166 202 163 201 166 202 167 171 162 198 158 194 168 203 162 198 168 203 169 204 163 201 169 204 170 182 164 184 150 205 177 208 174 206 177 208 178 210 175 209 178 210 179 173 176 174 153 211 152 207 174 206 171 212 174 206 175 209 172 213 175 209 176 174 153 211 171 212 165 200 171 212 172 213 166 202 172 213 173 169 167 171 190 214 188 216 189 181 186 215 187 185 189 181 186 215 182 218 183 217 181 168 185 167 184 196 182 218 181 168 180 195 180 195 156 197 157 170 181 168 182 218 196 219 195 166 196 219 197 220 194 221 197 220 198 222 193 223 198 222 199 162 182 218 186 215 204 224 196 219 204 224 205 225 197 220 205 225 206 226 198 222 206 226 207 192 188 216 208 227 204 224 208 227 209 228 205 225 209 228 210 229 206 226 210 229 211 191 207 192 188 216 190 214 212 230 208 227 212 230 213 231 209 228 213 231 214 232 210 229 214 232 215 233 239 149 238 129 120 118 192 157 200 156 201 234 193 223 201 234 202 235 194 221 202 235 203 236 220 242 118 177 277 176 276 244 212 230 220 242 192 157 199 162 224 164 302 246 177 208 150 205 284 300 285 247 302 246 285 247 286 109 303 245 302 246 150 205 284 300 286 109 136 97 303 245 225 193 230 127 231 155 230 127 233 148 232 248 229 189 225 193 224 164 227 186 229 189 228 163 222 250 227 186 226 249 211 191 215 233 223 251 233 148 230 127 238 129 236 128 237 190 144 91 237 190 234 188 143 130 142 57 143 130 234 188 234 188 235 187 121 124 238 129 236 128 119 117 43 24 102 139 112 115 102 139 275 252 112 115 274 254 268 256 269 253 273 255 267 258 268 256 272 257 266 260 267 258 272 257 271 261 265 259 271 261 270 307 264 262 269 253 263 263 108 133 268 256 262 264 263 263 267 258 261 265 262 264 266 260 260 266 261 265 265 259 259 267 260 266 264 262 258 146 259 267 263 263 257 268 99 104 262 264 256 269 257 268 261 265 255 270 256 269 260 266 254 271 255 270 259 267 253 272 254 271 258 146 252 145 253 272 257 268 251 273 138 131 256 269 250 274 251 273 255 270 249 275 250 274 254 271 248 276 249 275 253 272 247 277 248 276 252 145 246 143 247 277 251 273 245 278 137 126 250 274 244 279 245 278 249 275 243 281 244 279 249 275 248 276 242 280 248 276 247 277 241 282 247 277 246 143 240 144 104 125 137 126 245 278 245 278 244 279 106 283 244 279 243 281 106 283 243 281 242 280 106 283 242 280 241 282 114 103 240 144 87 89 114 103 242 280 114 103 106 283 241 282 240 144 114 103 277 176 218 175 278 285 218 175 279 288 278 285 134 122 121 124 235 187 235 187 222 250 282 286 222 250 223 251 282 286 213 231 212 230 276 244 278 285 279 288 283 287 283 287 215 233 214 232 214 232 213 231 283 287 126 284 135 120 280 289 280 289 279 288 126 284 223 251 215 233 283 287 281 290 134 122 282 286 282 286 283 287 280 289 283 287 279 288 280 289 281 290 280 289 135 120 295 291 287 293 152 207 294 292 288 294 287 293 293 158 289 165 288 294 290 295 295 291 153 211 291 296 294 292 295 291 292 151 293 158 294 292 124 116 42 16 123 100 123 100 298 150 301 297 298 150 297 299 300 298 297 299 296 152 299 154 154 183 296 152 290 295 296 152 297 299 291 296 297 299 298 150 292 151 287 293 284 300 150 205 288 294 285 247 284 300 288 294 289 165 286 109 305 303 303 245 129 301 303 245 136 97 128 98 305 303 129 301 116 302 221 178 178 210 306 305 307 304 116 302 221 178 177 208 304 306 306 305 304 306 305 303 307 304 302 246 303 245 305 303 200 156 308 311 310 312 319 313 103 61 312 308 316 314 149 20 320 315 319 313 239 149 82 62 318 316 323 147 319 313 317 317 322 318 318 316 316 314 321 319 317 317 145 142 316 314 315 320 315 320 317 317 314 321 317 317 313 322 314 321 318 316 312 308 313 322 324 323 232 248 323 147 155 153 324 323 325 324 325 324 320 315 326 325 149 20 326 325 320 315 325 324 326 325 299 154 325 324 322 318 321 319 271 261 272 257 313 322 272 257 273 255 314 321 313 322 272 257 314 321 273 255 274 254 314 321 274 254 275 252 315 320 314 321 274 254 315 320 275 252 145 142 315 320 313 322 312 308 271 261 270 307 271 261 312 308 309 309 310 312 170 182 184 196 185 167 168 203 311 310 203 236 309 309 203 236 202 235 309 309 309 309 169 204 311 310 170 182 310 312 308 311 311 310 168 203 185 167 202 235 201 234 309 309 201 234 200 156 310 312 200 156 232 248 308 311 319 313 82 62 103 61 319 313 323 147 239 149 318 316 322 318 323 147 317 317 321 319 322 318 316 314 320 315 321 319 145 142 149 20 316 314 315 320 316 314 317 317 317 317 318 316 313 322 318 316 319 313 312 308 323 147 322 318 324 323 324 323 308 311 232 248 232 248 233 148 323 147 155 153 308 311 324 323 325 324 321 319 320 315 149 20 301 297 326 325 326 325 301 297 300 298 300 298 299 154 326 325 299 154 155 153 325 324 325 324 324 323 322 318</p>
        </triangles>
      </mesh>
    </geometry>
    <geometry id="Plane_022-mesh" name="Plane.022">
      <mesh>
        <source id="Plane_022-mesh-positions">
          <float_array id="Plane_022-mesh-positions-array" count="786">-5.56185 -8 -2.028837 5.63283 -8 -1.99536 9 -8 16 -9 -8 16 24 -8 16 -23.82216 -8.196468 16.37834 7.94781 -8 1.52198 8.758152 -8 6.06178 8.66379 -8.282769 10.8574 -8.388146 -7.922694 2.816463 16.50952 -8 16 -14.89331 -8 16 -2.576408 -7.887671 -4.064087 -5.310642 -6.136629 -2.208924 4.204292 -8 -3.12587 8.777586 -7.80502 13.6432 -10.92243 -6.445894 15.17825 19.92554 -8 16 -22.34517 -5.416372 16.04025 7.155961 -7.84656 -0.3210144 8.50707 -8.09635 3.783371 8.710987 -8.13989 8.667725 -8.751996 -8 13.71754 -8.490112 -8 8.547372 -8.587653 -6.071842 5.862634 -9.416714 -6.109771 10.47826 12.76396 -8 16 -20.61925 -8 16 -15.23293 -5.76796 15.41681 -4.019613 -8 -3.109608 6.249129 -6.034077 -0.9408547 10.60107 -6.170179 15.82424 8.861658 -6.079238 1.708453 9.418759 -6.03219 10.90369 21.82369 -4.738023 16.53741 13.91651 -6.213381 16.17653 -18.94653 -5.328944 16.02947 -19.40538 31.47595 -2.02884 -9.108598 41.77273 16 -21.83652 29.0448 16 1.509044 52.36829 16 -32.36116 18.3675 15.81419 -21.28897 29.59235 1.73061 -21.51992 29.11895 6.07794 -21.70173 29.17959 11.11624 -3.83505 47.04627 16 -27.00837 23.87295 16 -17.37379 33.6664 -4.064104 -11.36585 36.7989 -2.945084 -6.640608 40.5606 15.70504 -10.52103 40.5773 -0.3210139 2.726812 48.32671 16.14316 -6.35411 44.52721 16 -29.67506 21.20626 16 -9.403738 41.75333 13.6432 -9.214042 41.46945 8.66772 -9.38902 41.35604 3.78337 -9.048901 39.72772 0.6096413 -8.236569 40.10902 5.91146 -0.9858484 49.89547 16 -24.47201 26.40931 16 -1.02891 45.98655 16.30431 -12.49967 38.38165 -3.12587 -15.41205 35.46927 -4.30027 -14.58345 31.588 -3.981906 -20.55945 26.06029 14.03671 -18.35266 27.25113 1.340721 -20.18894 27.87392 7.350967 -26.68688 16.29615 15.84302 -24.44476 21.74774 16.28156 -20.12447 27.90801 12.00049 -21.2237 23.71643 14.68032 -8.081207 39.36733 12.97193 -11.26638 -3.9324 14.80498 -9.425172 -1.895984 13.13788 -17.62559 21.86325 13.11387 -6.378232 -4.934725 -2.508772 -17.37534 28.63999 -1.428286 -24.73726 -2.649049 15.99387 -18.79284 25.02761 10.48541 -28.32167 3.151226 15.37156 -10.04301 -4.635093 7.358482 -17.67602 25.7022 5.615715 -8.802851 -4.327688 2.361728 -30.60254 10.33357 14.97786 -31.51692 14.53782 16.48109 24.133 10.86788 17.4762 37.50903 31.69361 16.7566 23.27489 39.30684 17.0438 -5.646458 34.47555 0.4008192 -8.241697 35.95495 -1.061424 -4.88539 35.24745 14.24769 7.570104 -3.151556 1.029652 4.887193 -4.023618 -2.20365 11.41907 -3.522408 14.3451 9.075816 40.95594 16.64773 4.738603 45.95324 15.40243 19.60993 -0.4231305 17.75623 20.18663 5.183847 17.3412 33.29551 18.89249 18.1895 39.44183 26.46466 17.43868 36.64875 35.4118 18.26593 32.79398 38.28356 17.38473 -1.843558 38.77701 15.69558 2.299753 42.77309 15.31097 13.49033 -1.369735 16.63792 -11.6242 -0.7947357 15.13851 9.685414 -2.872745 9.830817 10.01704 -2.62542 4.300546 -6.665644 36.18808 12.39825 -5.829811 37.67189 7.504649 -4.822299 37.75201 3.43228 -4.102364 -2.337827 -4.061115 1.636568 -4.063653 -3.895334 -0.2712702 -7.9036 -4.166147 2.015272 -7.929605 -3.854202 11.11083 13.37322 14.64135 9.134843 13.1858 11.06927 9.331637 13.41716 5.914751 8.704179 13.3267 2.540668 4.120981 12.40036 -2.066679 31.67085 24.44389 0.9215022 27.05919 24.7045 -1.873965 32.86751 24.80527 5.428739 32.56819 24.25538 8.821949 35.14232 23.03912 14.80419 13.33153 17.51618 1.593596 19.16019 21.19513 1.515576 25.39446 23.48684 1.604566 22.66698 23.9385 -2.990971 15.62083 20.62742 -1.964626 8.542016 17.6282 -2.194774 15.3183 17.73789 6.70338 22.0601 22.17135 6.358705 28.07369 24.65201 5.68239 14.62954 16.83378 10.94765 20.35258 20.20322 10.01117 26.65147 24.02759 9.330708 17.8222 16.73181 14.99345 24.67437 20.09092 14.70891 29.4638 23.33252 14.18519 27.98098 28.35921 -1.111082 22.1525 31.22474 -0.4199063 30.67856 29.74804 3.157579 25.62008 28.35651 -3.715176 19.94646 29.97747 -2.915863 25.20359 32.19508 3.438838 25.56043 32.90254 9.159398 30.73169 29.71018 8.86238 28.3852 32.34386 14.52092 34.27387 29.52423 14.1363 17.54884 30.40781 0.2351465 3.67173 27.24079 -3.016073 9.699016 29.27803 -1.592294 14.57611 30.06327 -1.817289 20.72481 32.19665 3.314822 16.03082 31.00357 3.504863 10.63796 29.12855 3.116747 20.73388 31.69635 9.372212 16.0199 30.48933 9.679814 11.68281 29.36248 9.328952 8.842089 28.45707 9.732663 23.75315 32.48426 14.59977 18.38627 30.44812 13.32621 11.98453 29.60771 12.98231 38.43121 21.21746 17.14107 29.31199 40.24573 17.39086 16.5055 39.17233 16.42566 29.53722 15.02089 18.26988 27.5313 36.32544 15.92013 29.99593 20.32922 16.8259 2.103785 28.84813 12.80794 7.457988 27.46427 12.90789 6.071317 29.00529 1.094734 -0.5154339 29.6684 0.7406448 5.885412 28.7116 10.42447 1.079511 29.69151 9.520391 7.60261 28.72342 3.704501 1.423902 30.08723 5.166983 2.94651 28.27283 -0.05042999 -0.5084616 25.91031 -3.259714 -5.25806 28.69997 -2.795886 -2.313397 32.93408 9.280694 -0.9130793 31.24741 12.64285 -2.468835 34.15007 0.7127665 -1.549089 33.71758 4.197437 -9.035714 31.48702 -2.630553 -24.08693 10.95918 15.79654 -22.59673 5.501472 15.65227 -20.07217 0.142086 15.74745 -20.94333 19.45549 15.27646 -17.24215 16.30747 15.19422 -16.49213 13.6805 15.99836 -16.09368 9.918268 16.00176 -14.35612 6.491602 15.36868 -11.29879 3.556417 15.07393 -13.12687 16.68197 13.93833 -11.5028 13.35358 13.6667 -10.44791 9.613656 13.69197 -9.713548 6.625345 12.71187 -7.9619 2.33728 12.97183 -15.33474 20.76612 9.721493 -11.00582 17.21537 10.23513 -9.227392 13.09187 9.359306 -9.376766 9.174208 8.992301 -9.593721 4.610939 9.025956 -9.51532 0.6785824 9.096516 -14.45999 21.29908 5.645022 -11.16151 15.86691 4.86339 -11.0035 12.97407 4.272152 -11.2049 4.328708 3.657941 -9.291363 -0.06119292 3.767774 -15.89303 22.85624 0.1139168 -13.63209 18.07462 -0.1707745 -12.20372 12.85427 -0.06546217 -11.09889 8.389121 1.510717 -10.49554 3.995684 -0.9422577 -8.181462 -1.037798 -1.844942 22.03655 35.3823 15.343 17.61014 34.75513 15.51218 12.77073 36.19873 15.76551 6.513047 37.00593 16.0359 1.818142 37.25094 15.33733 2.306096 32.75079 14.91476 11.70831 31.32103 14.27669 12.38282 9.767438 14.87041 12.45343 5.527798 14.92001 12.29419 2.129119 15.14177 9.073989 9.768961 11.85789 9.402238 1.133296 4.354069 9.095166 1.0595 9.194911 9.475967 5.15101 9.958769 9.216501 9.306266 6.965673 8.061721 9.337726 2.713665 7.831115 5.590629 2.628076 8.39978 1.484318 1.683902 2.965733 8.300603 -1.574445 3.851603 4.130683 -0.8153762 3.353119 0.05304235 -2.036296 15.80375 10.52256 14.81669 15.11046 3.967523 16.37153 19.06395 12.68343 16.42322 19.36609 9.360991 16.97129 23.77052 15.65403 16.78327 1.618112 19.98636 -1.994471 12.50424 24.84469 -3.001234 6.98703 22.7558 -2.437219 17.73675 26.79551 -2.893768 -14.05559 22.05221 -1.970679 -11.49093 15.61015 -2.451231 -9.786101 9.440361 -3.953662 -6.352856 3.371117 -3.606162 -2.793486 3.710484 -3.707043 -7.398939 11.14038 -4.171905 -10.03213 18.30095 -3.336439 -12.10911 25.78278 -3.447042 -3.807839 9.63079 -3.536265 -5.877475 16.12927 -3.102858 -6.637304 23.7703 -3.211826 -1.36997 18.23445 -3.180268 0.04504293 10.55539 -3.454401 0.05934244 2.56245 -2.676233</float_array>
          <technique_common>
            <accessor source="#Plane_022-mesh-positions-array" count="262" stride="3">
              <param name="X" type="float"/>
              <param name="Y" type="float"/>
              <param name="Z" type="float"/>
            </accessor>
          </technique_common>
        </source>
        <source id="Plane_022-mesh-normals">
          <float_array id="Plane_022-mesh-normals-array" count="783">-0.8201404 0.5559669 0.1351692 -0.5973284 0.5762394 0.5578056 -0.4600749 0.437857 0.7724069 -0.1597372 -0.03769111 0.9864398 -0.0488612 -0.02359133 0.9985269 -0.01922678 -0.1827156 0.9829778 0.5586839 -0.01373362 0.829267 0.6685556 0.2314277 0.7067353 0.7490441 -0.03705084 0.6614833 0.1337365 0.1536353 0.9790357 0.09158867 0.2468408 0.9647182 0.433032 0.4270504 0.7937955 0.4568754 0.7856913 0.4170781 -0.7662402 -0.0190438 0.6422721 -0.893155 0.1048957 0.4373453 -0.7156095 -0.1114859 0.6895463 -0.2595657 -0.111395 0.9592793 -0.02026462 -0.06030571 0.9979743 -0.2335013 -0.0125128 0.9722761 0.7114322 0.6826832 0.1667567 0.9230158 0.3729723 0.09451723 0.9606006 0.2722948 0.05569803 0.0383321 0.0114752 0.9991993 0.04843336 0.05011188 0.9975687 0.09830307 0.06848555 0.9927971 0.06732517 0.05404931 0.9962661 -0.6458459 -0.1936439 0.738502 -0.8661332 0.3806347 0.3239302 0 -0.1625428 0.9867016 0.02716195 -0.2054545 0.9782897 0.5910716 0.4438759 0.6735048 0.9393442 0.1886684 0.2864208 -0.5110116 -0.09433448 0.8543817 -0.9766503 0.2129641 0.0282914 -0.9480087 0.3181595 -0.007355034 -0.942431 0.2843163 0.1760343 -0.8195986 -0.5430928 0.182506 -0.3659541 -0.5254467 0.7681037 -0.8653597 -0.4972423 0.06247186 0.03015255 -0.02795517 0.9991543 -0.01754814 -0.0487076 0.998659 -0.2349948 -0.3584739 0.9034788 0.7325028 0.2327125 0.6397535 0.6912043 0.7115607 0.1261673 0.7998041 -0.05117988 0.5980753 -0.4506736 -0.2064914 0.8684784 -0.6459401 -0.4813192 0.5925313 -0.4737482 -0.2426574 0.8465697 0.4508559 0.5111002 0.7317825 0.05136346 0.1692278 0.9842377 0.1986819 0.303608 0.9318519 0.6123457 0.7141286 0.339195 0.7143909 0.6931496 0.09586042 0.7541048 0.5851492 0.2982054 0.3126696 -0.06518906 0.9476224 0.152013 0.008270502 0.988344 -0.05981725 0.05981725 0.9964156 -0.6429339 -0.5919045 0.4860917 -0.8063244 -0.5688219 0.1621194 -0.7107227 -0.7019027 0.04696846 -0.7799566 -0.6254668 -0.02142465 -0.03164839 0.0588715 0.9977638 0.06558537 -0.05780303 0.9961714 -0.02700954 0.02725374 0.9992637 -0.07822108 0.07822108 0.9938626 -0.0393384 -0.02771079 0.9988417 0.01763987 0.06222796 0.9979062 0.04040747 -0.04306268 0.9982549 -0.6664506 -0.7170211 0.2042658 0.4310869 0.1180492 0.894555 0.6711791 0.6303138 0.3901579 -0.4721002 -7.32459e-4 0.8815447 -0.1248239 -0.04660296 0.9910839 -0.72804 -0.104651 0.6774999 -0.9776111 0.009979665 0.2101835 0.155554 -0.06979632 0.9853586 -0.03152596 -0.08942025 0.9954949 0.9182979 -0.1266554 0.3750833 -0.2006019 0.02093607 0.9794492 0.6260538 0.4614907 0.6285564 -0.7174403 0.09534126 0.6900648 -0.7979355 0.1690176 0.5785604 0.8292739 0.5077212 0.2335041 0.760268 0.6265322 0.1716104 -0.4175583 -0.4263783 0.8024005 -0.5768746 -0.3200858 0.7515057 -0.6181346 -0.1682214 0.7678614 0.01318407 -0.04748702 0.9987848 0.02319467 -0.0415368 0.9988678 -0.01809763 -0.1786574 0.9837449 -0.4515331 -0.6112102 0.6500307 0.01913559 0.07452815 0.9970353 0.03576773 0.03576773 0.9987199 -0.4251046 -0.6863505 0.5900924 -0.5500793 -0.4455813 0.7063074 -0.7412002 -0.6456432 -0.1837587 0.3519753 -0.04190254 0.9350709 0.3795986 0.07754945 0.9218954 0.6354938 0.7673047 0.08597153 0.9308233 0.332075 0.1526245 0.9719336 0.2114345 0.1031537 -0.9848408 0.03628677 0.1696233 -0.9745908 0.2230322 0.02072232 -0.9442269 0.3017107 0.1319335 -0.8073922 -0.584997 0.07678693 0.9552109 0.1144458 0.2728999 0.2744281 0.01928806 0.9614141 0.5849341 0.4072504 0.7014266 0.2356666 0.05746698 0.9701334 0.2547428 0.1163998 0.9599778 0.6946817 0.6619955 0.2813885 -0.01931858 -0.03149569 0.9993173 -0.19538 -0.3244432 0.9255071 -0.2883173 -0.1806752 0.9403349 -0.7768656 -0.1372142 0.6145341 -0.9728474 -0.1629398 0.1643742 -0.8565246 0.1079162 0.5046979 -0.4508855 0.1699289 0.8762572 -0.5477876 0.1284244 0.8267018 -8.2402e-4 -0.8173058 0.5762037 -0.1527494 -0.5459915 0.8237482 -0.07825088 -0.9279021 0.3645198 -0.9862405 -0.01705992 0.1644344 -0.5841379 -0.4205243 0.6942207 -0.7049557 0.6456881 0.2934696 -0.441674 0.4679816 0.7654523 0.1067258 -0.9683142 0.2257813 0.09085422 -0.6006391 0.7943414 -0.06750869 -0.9145116 0.3988875 -0.1791489 0.9837931 0.007538259 -0.7343569 0.5106194 0.4472002 -0.2707635 0.9572858 0.1014447 -0.8732075 0.4801847 0.08325558 -0.1903779 0.8483385 0.4940426 -0.2969813 0.9308326 0.2129622 -0.009643971 -0.2327676 0.9724846 -0.02957296 -0.3342146 0.942033 -0.0400722 -0.3751773 0.9260866 -0.2071936 0.4973989 0.8424164 -0.3233512 0.2742763 0.9056581 -0.1500026 0.5263979 0.8369018 -0.7004406 -0.6858525 0.1974576 -0.2360371 0.3659583 0.9002006 -0.7734498 0.4754596 0.4191821 -0.5047882 0.7901737 0.3475836 -0.6921551 -0.6677394 0.2739443 -0.4754254 -0.8741261 -0.09936994 -0.5998028 -0.6787572 0.4237044 -0.7076231 -0.6922107 -0.1418237 -0.4709991 -0.8818149 0.02371323 -0.8038966 -0.5945679 0.015473 0.1497277 -0.9849798 -0.08600336 -0.03824067 -0.9978598 -0.05304253 0.214702 -0.9762759 -0.02807754 -0.4177528 0.5933018 0.6880958 -0.5859727 -0.4881885 0.6467674 -0.3615584 -0.3331453 0.8707984 -0.1662056 0.5767452 0.799838 -0.4395986 0.8743446 0.2056078 -0.2810785 0.579919 0.7646495 -0.5408897 0.363879 0.7583077 -0.5013079 0.8386057 0.2131459 -0.8707122 0.4580624 0.178995 -0.3664425 0.5745215 0.7318778 -0.4682945 0.8353551 0.2878925 -0.3781639 0.6637631 0.6452989 -0.8596726 0.4979863 0.1138986 -0.5482509 0.8244517 0.1403588 -0.4544975 0.8830533 0.1168289 -0.2476025 -0.7269681 0.6404767 -0.2441212 -0.9362914 0.252514 -0.1523191 -0.9864277 0.06131219 0.1560731 -0.9786463 0.1337639 0.2494311 -0.9668089 0.05536127 0.1541841 -0.7721413 0.6164618 0.4034666 -0.639046 0.654855 0.2635309 -0.9615901 -0.07678556 0.2885264 -0.9574719 4.88304e-4 0.04983735 -0.7691072 0.6371738 0.1896177 -0.8763679 0.4427466 0.2207783 -0.9717115 -0.08386766 0.2409815 -0.8596715 0.4504364 -0.5544761 -0.006805777 0.8321719 -0.3955935 0.3662338 0.8422462 -0.4265071 -0.2963118 0.8545707 -0.233317 -0.3096143 0.9217929 -0.4893743 -0.4228426 0.7627037 -0.06332725 -0.3390985 0.9386171 -0.09424269 -0.3118432 0.9454482 -0.3301579 0.1463096 0.9325177 -0.2613353 0.112524 0.958667 -0.6260483 0.09720486 0.773702 -0.112432 -0.2952714 0.9487749 -0.1766762 -0.9652034 -0.1927904 -0.3590575 -0.841046 0.4046226 0.03164815 -0.9238701 0.3813955 0.7797073 0.2151611 0.5880156 0.9730693 0.2028601 0.1094718 0.8706776 0.2407341 0.4289146 0.9963538 0.08530056 -0.001709043 0.9907247 0.1170423 -0.06903511 0.9719833 0.2161997 0.09222972 0.9097143 0.3400747 -0.2382628 0.9538419 0.1065419 -0.2807751 0.9152934 0.3696148 0.1600718 0.8156913 0.5777012 0.03015309 0.9860667 -0.03552401 -0.1625133 0.9757232 0.03698903 -0.2158609 0.9986348 0.001464843 -0.05221754 0.9836543 0.1742628 0.04535102 0.8091586 0.5446478 0.220502 0.9535087 0.02697885 0.3001555 0.8694854 0.1766437 0.4612942 0.734359 0.0634194 0.6757922 0.6732835 0.2118641 0.7083806 0.5543855 0.4326739 0.7109501 0.3719964 0.1406011 0.9175239 0.2350245 0.01327562 0.9718989 0.1824745 -0.01748752 0.9830551 0.1586089 0.1599518 0.974299 0.1518604 0.2724699 0.9501045 -0.01724308 -0.02319425 0.9995823 -0.04574805 -0.002441525 0.9989501 -0.05731534 0.01785379 0.9981965 -0.08963388 -0.08307236 0.9925042 -0.1880594 -0.3260979 0.9264415 0.04764056 -0.3143485 0.9481115 0.05478131 -0.4228385 0.9045478 -0.01059019 -0.2379594 0.9712174 -0.07071375 -0.1467989 0.9866355 -0.03085452 -0.05002039 0.9982715 -0.9911885 0.04147499 0.1257984 -0.9488453 -0.04605358 0.3123651 -0.9072378 -0.1282407 0.4005922 -0.8413175 -0.09634846 0.5318853 -0.4809824 -0.2063707 0.8520958 -0.5327392 -0.08981734 0.8414997 -0.3582617 -0.06381505 0.9314377 -0.1857368 0.06686645 0.9803218 -0.1579359 0.1357486 0.9780739 -0.2740042 0.1223222 0.9539178 -0.1828077 0.2690234 0.9456256 -0.3420605 0.1624543 0.9255287 0.8704342 0.4236046 0.2508056 0.620055 0.2345997 0.7486621 0.08069139 -0.05935883 0.9949702 0.06857633 -0.02499508 0.9973327 -0.1778658 0.03360158 0.9834809 0.007385671 -0.09436577 0.9955102 0.1586692 0.06216752 0.9853727 0.1843355 0.02881002 0.9824411 -0.008850514 -0.07922774 0.9968173 -0.06262534 -0.06662338 0.9958109 -0.1343463 -0.02060055 0.9907203 -0.1049857 -0.06665372 0.9922375 0.2879213 0.1104502 0.9512634 0.5702825 0.1073361 0.8144059 0.6613809 0.1334908 0.7380756 -0.1457882 -0.02533054 0.9889915 -0.2255356 0.01760947 0.9740758 -0.397486 -0.123665 0.909237</float_array>
          <technique_common>
            <accessor source="#Plane_022-mesh-normals-array" count="261" stride="3">
              <param name="X" type="float"/>
              <param name="Y" type="float"/>
              <param name="Z" type="float"/>
            </accessor>
          </technique_common>
        </source>
        <vertices id="Plane_022-mesh-vertices">
          <input semantic="POSITION" source="#Plane_022-mesh-positions"/>
        </vertices>
        <triangles count="454">
          <input semantic="VERTEX" source="#Plane_022-mesh-vertices" offset="0"/>
          <input semantic="NORMAL" source="#Plane_022-mesh-normals" offset="1"/>
          <p>15 0 2 1 31 2 35 3 26 4 10 5 35 3 31 2 26 4 31 2 2 1 26 4 29 6 13 7 0 8 28 9 11 10 16 11 11 10 3 12 16 11 19 13 32 14 30 15 113 16 114 17 115 18 22 19 16 11 3 12 22 19 23 20 25 21 27 22 18 23 5 24 11 10 36 25 27 22 1 26 19 13 30 15 19 13 6 27 32 14 17 28 4 28 34 29 13 7 76 30 83 31 14 32 1 26 30 15 21 33 8 34 33 35 27 22 36 25 18 23 11 10 28 9 36 25 72 36 38 37 54 38 61 39 52 40 49 41 65 42 44 43 39 44 48 45 50 46 62 47 37 48 64 49 47 50 42 51 67 52 66 53 60 54 65 42 39 44 69 55 60 54 46 56 57 57 56 58 50 46 58 59 55 60 56 58 59 61 51 62 40 63 45 64 61 39 59 61 72 36 49 41 38 37 61 39 45 64 52 40 37 48 42 51 66 53 49 41 52 40 38 37 53 65 41 66 68 67 58 59 57 57 111 68 60 54 71 69 65 42 69 55 71 69 60 54 59 61 61 39 51 62 44 43 70 70 67 52 105 71 35 3 97 72 92 73 32 14 108 74 68 67 85 75 84 76 25 21 74 77 16 11 63 78 47 50 64 49 75 79 65 42 71 69 227 80 94 81 105 71 79 82 65 42 75 79 65 42 79 82 70 70 79 82 67 52 70 70 82 83 67 52 79 82 30 15 32 14 92 73 89 84 57 57 90 85 14 32 30 15 93 86 96 87 61 39 104 88 96 87 51 62 61 39 103 89 49 41 91 90 49 41 103 89 61 39 103 89 104 88 61 39 94 81 31 2 35 3 94 81 35 3 105 71 18 23 78 91 5 24 18 23 36 25 189 92 68 67 41 66 85 75 174 93 184 94 89 84 48 45 63 78 64 49 72 36 54 38 55 60 55 60 58 59 110 95 106 96 28 9 73 97 28 9 16 11 73 97 43 98 44 43 67 52 24 99 81 100 23 20 25 21 23 20 81 100 15 0 31 2 33 35 31 2 94 81 33 35 107 101 108 74 7 102 7 102 108 74 32 14 94 81 107 101 33 35 33 35 8 34 15 0 7 102 21 33 107 101 21 33 33 35 107 101 6 27 20 103 32 14 20 103 7 102 32 14 58 59 56 58 57 57 62 47 63 78 48 45 53 65 68 67 69 55 49 41 72 36 91 90 109 104 91 90 72 36 111 68 110 95 58 59 69 55 46 56 53 65 57 57 89 84 111 68 74 77 73 97 16 11 16 11 22 19 25 21 24 99 9 105 83 31 113 16 12 106 114 17 113 16 115 18 14 32 12 106 13 7 29 6 35 3 10 5 97 72 82 83 66 53 67 52 90 85 57 57 48 45 97 72 10 5 34 29 37 48 66 53 77 107 10 5 17 28 34 29 113 16 112 108 12 106 113 16 14 32 93 86 12 106 112 108 13 7 71 69 69 55 190 109 82 83 79 82 201 110 258 111 181 112 186 113 235 114 108 74 229 115 233 116 120 117 236 118 179 119 152 120 173 121 24 99 83 31 81 100 25 21 81 100 74 77 73 97 74 77 106 96 28 9 189 92 36 25 18 23 189 92 78 91 108 74 230 122 229 115 150 123 124 124 125 125 151 126 145 127 142 128 134 129 121 130 128 131 134 129 124 124 123 132 140 133 124 124 137 134 167 135 218 136 88 137 170 138 168 139 99 140 148 141 123 132 124 124 131 142 119 143 126 144 143 145 121 130 123 132 176 146 183 147 182 148 178 149 182 148 185 150 161 151 177 152 157 153 174 93 185 150 184 94 122 154 141 155 144 156 122 154 128 131 121 130 129 157 127 158 128 131 130 159 126 144 127 158 116 160 135 161 117 162 138 163 136 164 135 161 139 165 137 134 136 164 118 166 135 161 132 167 132 167 136 164 133 168 133 168 137 134 134 129 118 166 126 144 119 143 132 167 127 158 126 144 133 168 128 131 127 158 149 169 148 141 150 123 146 170 148 141 147 171 142 128 144 156 141 155 146 170 141 155 143 145 141 155 121 130 143 145 142 128 155 172 151 126 151 126 156 173 154 174 154 174 157 153 153 175 153 175 177 152 173 121 147 171 155 172 146 170 158 176 156 173 155 172 156 173 160 177 157 153 147 171 162 178 158 176 158 176 163 179 159 180 159 180 164 181 160 177 160 177 164 181 161 151 186 113 90 85 48 45 100 182 125 125 165 183 165 183 125 125 99 140 100 182 150 123 125 125 87 184 150 123 100 182 102 185 87 184 101 186 149 169 150 123 87 184 169 187 149 169 102 185 102 185 149 169 87 184 88 137 169 187 166 188 125 125 140 133 170 138 99 140 125 125 170 138 166 188 169 187 102 185 169 187 162 178 149 169 140 133 139 165 170 138 240 189 239 190 226 191 174 93 179 119 173 121 174 93 180 192 179 119 178 149 173 121 177 152 176 146 177 152 175 193 171 194 175 193 172 195 161 151 172 195 175 193 181 112 89 84 186 113 184 94 111 68 89 84 185 150 110 95 111 68 182 148 91 90 109 104 217 196 211 197 83 31 216 198 211 197 217 196 215 199 210 200 216 198 214 201 208 202 209 203 213 204 207 205 208 202 211 197 81 100 83 31 210 200 206 206 211 197 215 199 205 207 210 200 209 203 204 208 215 199 208 202 203 209 209 203 207 205 202 210 208 202 206 206 74 77 81 100 205 207 200 211 206 206 204 208 199 212 205 207 203 209 198 213 204 208 202 210 197 214 203 209 201 110 196 215 202 210 200 211 106 96 74 77 199 212 195 216 200 211 198 213 194 217 199 212 197 214 193 218 198 213 196 215 192 219 197 214 75 79 191 220 196 215 195 216 189 92 106 96 194 217 189 92 195 216 193 218 188 221 194 217 193 218 187 222 188 221 191 220 68 67 187 222 78 91 189 92 80 223 104 88 95 224 96 87 223 225 103 89 183 147 163 179 218 136 219 226 163 179 219 226 224 227 220 228 167 135 95 224 172 195 224 227 223 225 221 229 222 230 223 225 222 230 104 88 103 89 232 231 117 162 118 166 231 232 228 233 232 231 233 116 118 166 119 143 234 234 232 231 233 116 229 115 231 232 234 234 92 73 238 235 93 86 235 114 237 236 238 235 234 234 236 118 237 236 228 233 116 160 117 162 231 232 225 237 228 233 231 232 227 80 226 191 98 238 240 189 97 72 170 138 86 239 168 139 242 240 86 239 243 241 138 163 243 241 139 165 138 163 239 190 241 242 239 190 242 240 241 242 227 80 230 122 94 81 230 122 107 101 94 81 190 109 69 55 68 67 190 109 75 79 71 69 201 110 79 82 75 79 201 110 207 205 82 83 207 205 212 243 66 53 207 205 66 53 82 83 13 7 112 108 76 30 66 53 212 243 77 107 248 244 77 107 212 243 217 196 76 30 112 108 113 16 93 86 238 235 48 45 64 49 186 113 245 245 131 142 130 159 144 156 129 157 122 154 130 159 129 157 247 246 131 142 244 247 120 117 247 246 145 127 154 174 245 245 173 121 246 248 235 114 92 73 108 74 233 116 119 143 120 117 179 119 180 192 152 120 28 9 106 96 189 92 108 74 107 101 230 122 150 123 148 141 124 124 151 126 154 174 145 127 134 129 123 132 121 130 134 129 137 134 124 124 140 133 125 125 124 124 148 141 143 145 123 132 131 142 120 117 119 143 176 146 171 194 183 147 178 149 176 146 182 148 161 151 175 193 177 152 174 93 178 149 185 150 122 154 121 130 141 155 122 154 129 157 128 131 129 157 130 159 127 158 130 159 131 142 126 144 116 160 138 163 135 161 138 163 139 165 136 164 139 165 140 133 137 134 118 166 117 162 135 161 132 167 135 161 136 164 133 168 136 164 137 134 118 166 132 167 126 144 132 167 133 168 127 158 133 168 134 129 128 131 149 169 147 171 148 141 146 170 143 145 148 141 142 128 145 127 144 156 146 170 142 128 141 155 142 128 146 170 155 172 151 126 155 172 156 173 154 174 156 173 157 153 153 175 157 153 177 152 147 171 158 176 155 172 158 176 159 180 156 173 160 177 161 151 157 153 147 171 149 169 162 178 158 176 162 178 163 179 159 180 163 179 164 181 186 113 89 84 90 85 169 187 88 137 218 136 218 136 162 178 169 187 239 190 138 163 116 160 225 237 226 191 239 190 226 191 227 80 240 189 239 190 116 160 225 237 227 80 105 71 240 189 174 93 181 112 180 192 178 149 174 93 173 121 176 146 178 149 177 152 171 194 176 146 175 193 161 151 164 181 172 195 181 112 174 93 89 84 184 94 185 150 111 68 185 150 182 148 110 95 109 104 110 95 182 148 182 148 183 147 91 90 76 30 217 196 83 31 216 198 210 200 211 197 214 201 209 203 215 199 214 201 213 204 208 202 213 204 212 243 207 205 211 197 206 206 81 100 210 200 205 207 206 206 215 199 204 208 205 207 209 203 203 209 204 208 208 202 202 210 203 209 207 205 201 110 202 210 206 206 200 211 74 77 205 207 199 212 200 211 204 208 198 213 199 212 203 209 197 214 198 213 202 210 196 215 197 214 201 110 75 79 196 215 200 211 195 216 106 96 199 212 194 217 195 216 198 213 193 218 194 217 197 214 192 219 193 218 196 215 191 220 192 219 75 79 190 109 191 220 194 217 188 221 189 92 193 218 192 219 187 222 192 219 191 220 187 222 191 220 190 109 68 67 189 92 188 221 80 223 188 221 187 222 80 223 187 222 84 76 80 223 187 222 68 67 84 76 218 136 167 135 219 226 167 135 220 228 219 226 103 89 91 90 183 147 183 147 171 194 223 225 171 194 172 195 223 225 163 179 162 178 218 136 219 226 220 228 224 227 164 181 163 179 224 227 95 224 104 88 221 229 221 229 220 228 95 224 172 195 164 181 224 227 222 230 103 89 223 225 223 225 224 227 221 229 224 227 220 228 221 229 222 230 221 229 104 88 232 231 228 233 117 162 233 116 232 231 118 166 234 234 231 232 232 231 229 115 230 122 231 232 93 86 30 15 92 73 92 73 235 114 238 235 235 114 234 234 237 236 234 234 233 116 236 118 234 234 235 114 229 115 228 233 225 237 116 160 231 232 226 191 225 237 231 232 230 122 227 80 242 240 240 189 98 238 240 189 105 71 97 72 242 240 98 238 86 239 170 138 139 165 243 241 243 241 86 239 170 138 138 163 241 242 243 241 241 242 242 240 243 241 239 190 240 189 242 240 152 120 244 247 246 248 255 249 77 107 248 244 255 249 186 113 64 49 254 250 258 111 255 249 253 251 257 252 254 250 252 253 256 254 253 251 112 108 252 253 251 255 251 255 253 251 250 256 253 251 249 257 250 256 254 250 248 244 249 257 259 258 180 192 258 111 120 117 259 258 260 259 260 259 252 253 261 260 113 16 261 260 252 253 260 259 261 260 236 118 260 259 257 252 256 254 213 204 214 201 249 257 214 201 215 199 250 256 249 257 214 201 250 256 215 199 216 198 250 256 216 198 217 196 251 255 250 256 216 198 251 255 217 196 112 108 251 255 249 257 248 244 213 204 212 243 213 204 248 244 245 245 246 248 131 142 144 156 145 127 129 157 247 246 154 174 245 245 154 174 153 175 245 245 245 245 130 159 247 246 131 142 246 248 244 247 247 246 129 157 145 127 153 175 173 121 245 245 173 121 152 120 246 248 152 120 180 192 244 247 255 249 64 49 77 107 255 249 258 111 186 113 254 250 257 252 258 111 253 251 256 254 257 252 112 108 113 16 252 253 251 255 252 253 253 251 253 251 254 250 249 257 254 250 255 249 248 244 258 111 257 252 259 258 259 258 244 247 180 192 180 192 181 112 258 111 120 117 244 247 259 258 260 259 256 254 252 253 113 16 238 235 261 260 261 260 238 235 237 236 237 236 236 118 261 260 236 118 120 117 260 259 260 259 259 258 257 252 23 20 9 105 24 99 83 31 9 105 13 7 9 105 0 8 13 7 65 42 70 70 44 43 48 45 57 57 50 46 37 48 77 107 64 49 42 51 43 98 67 52 55 60 110 95 72 36 110 95 109 104 72 36 156 173 159 180 160 177</p>
        </triangles>
      </mesh>
    </geometry>
  </library_geometries>
  <library_controllers/>
  <library_visual_scenes>
    <visual_scene id="Scene" name="Scene">
      <node id="Curved3" name="Curved3" type="NODE">
        <matrix sid="transform">1 0 0 0 0 1 0 0 0 0 1 0 0 0 0 1</matrix>
        <instance_geometry url="#Plane_019-mesh" name="Curved3"/>
      </node>
      <node id="Curved3Collision-colonly" name="Curved3Collision-colonly" type="NODE">
        <matrix sid="transform">1 0 0 0 0 1 0 0 0 0 1 0 0 0 0 1</matrix>
        <instance_geometry url="#Plane_022-mesh" name="Curved3Collision-colonly"/>
      </node>
    </visual_scene>
  </library_visual_scenes>
  <scene>
    <instance_visual_scene url="#Scene"/>
  </scene>
</COLLADA>