<?xml version="1.0" encoding="utf-8"?>
<COLLADA xmlns="http://www.collada.org/2005/11/COLLADASchema" version="1.4.1">
  <asset>
    <contributor>
      <author>Blender User</author>
      <authoring_tool>Blender 2.79.0</authoring_tool>
    </contributor>
    <created>2019-07-07T22:40:21</created>
    <modified>2019-07-07T22:40:21</modified>
    <unit name="meter" meter="1"/>
    <up_axis>Z_UP</up_axis>
  </asset>
  <library_images/>
  <library_geometries>
    <geometry id="Plane_003-mesh" name="Plane.003">
      <mesh>
        <source id="Plane_003-mesh-positions">
          <float_array id="Plane_003-mesh-positions-array" count="771">-5.56185 -8 -6.028837 5.63283 -8 -5.99536 -5.561847 8 1.97116 5.632829 8 2.004635 9 -8 12 9 8 20 -9 -8 12 -9 8 20 24 -8 12.01561 24 7.984389 20 -24 -8 12 -24 8 20 8.663788 7.71723 14.85744 8.758149 8 10.06178 7.947813 8 5.564315 7.94781 -8 -2.47802 8.758151 -8 2.06178 8.66379 -8.282768 6.857403 -8.80938 -8 7.1162 -8.723697 -8.171441 2.07794 -8.22565 -8 -2.269393 -8.22565 8 5.73061 -8.7237 7.828562 10.08625 -8.80938 8 15.11624 16.45792 8 20 16.50952 -8 12 -16.66851 -8 12 -16.31411 8 20 -2.57641 -7.887671 -8.045714 2.77445 -7.870261 -8.124636 2.774445 8.12974 -0.1567792 -2.576413 8.112331 -0.06410408 -5.191145 4.455838 -0.04297828 -5.087008 0.09246456 -2.025341 -5.252782 -4.305513 -3.799773 5.620326 -4.459889 -3.886542 7.95945 0.05920732 -3.253897 5.70348 4.164107 -0.2396638 12.19291 -4.626035 12.36899 12.00901 -0.2174493 14.44017 7.90536 4.240373 17.37454 -9.680158 3.819551 15.42253 -12.00274 -0.008662104 14.42095 -12.23071 -4.397849 13.00297 -7.983029 3.787157 3.335822 -7.863563 -0.00325036 1.656942 -7.908451 -4.04987 -0.1474475 -8.590843 4.048302 8.136391 -9.210853 0.1586668 6.271865 -8.612617 -4.029747 4.243312 -8.866559 4.062623 12.90628 -9.353267 -0.1222004 10.74805 -9.433568 -4.104266 8.854861 8.141368 -3.778927 -0.03589725 8.484523 -0.05700081 1.485832 7.973663 3.888153 3.445683 8.687342 -3.932394 4.155789 8.643486 -0.009632349 6.09942 8.315549 3.873629 7.946635 9.472227 -4.061796 9.013928 9.275507 0.1829754 11.14123 8.773661 3.82843 12.9017 -2.491659 -2.911348 -4.229572 -2.694025 2.456844 -2.563304 2.620668 -2.498105 -4.48189 2.669562 2.643647 -3.104827 21.24413 -2.616988 15.07834 21.13332 2.491492 17.00425 -19.93577 2.449965 17.00517 -20.11691 -2.405771 15.39989 -14.76258 2.633798 16.96146 -15.12771 -2.588232 15.04547 15.41897 -2.467034 14.40066 14.7168 2.445217 16.87304 -5.310642 -6.136629 -4.906355 4.204292 -8 -7.12587 5.380764 5.986863 0.8011563 -4.01961 8 0.8903904 8.241188 6.001882 18.42481 7.15596 8.153443 3.678986 8.777586 -7.80502 9.872544 -10.93479 -6.448593 11.65827 -6.912746 -7.68388 -4.245017 -8.752 8 17.7175 22.16105 5.29098 17.95831 12.89543 8 20 19.92554 -8 12 -22.87344 -5.19963 13.63227 -13.11812 -8 12 -20.08538 8 20 8.77759 8.194981 17.6432 8.71099 7.860112 12.66772 8.50707 7.903648 7.826678 7.155961 -7.84656 -4.294026 8.50707 -8.09635 -0.2166266 8.710986 -8.13989 4.667725 -8.751996 -8 9.717542 -8.490111 -8 4.547372 -8.550641 -7.845388 0.07715034 -6.91275 8.316119 3.578814 -8.550641 8.15461 7.902321 -8.490111 8 12.54737 -8.100099 -5.872977 -0.9066944 -8.633956 -5.998298 3.44119 -9.416714 -6.109771 7.474985 8.161462 5.918951 4.631617 8.440201 6.206965 8.95854 8.493007 5.882166 14.11252 20.4873 8 20 12.76396 -8 12 -20.61925 -8 12 -12.72715 8 20 -15.49797 -5.480806 13.53725 15.84231 5.1381 17.95917 -4.019613 -8 -7.109609 0.08557009 -8 -8.300271 4.20429 8 0.8741303 0.08556997 8 -0.3002701 -2.591086 5.493554 -1.297894 2.459676 5.30387 -1.742233 -5.351942 6.113834 0.9078891 -5.042304 2.256018 -1.217298 -5.280086 -2.414824 -2.856099 5.470559 -6.048086 -5.082405 7.118535 -2.422158 -3.733242 6.557982 2.117022 -1.926589 10.66272 -6.585685 11.49621 12.40766 -2.468395 13.37358 9.907073 2.160599 16.17536 -9.247792 6.048532 17.44807 -10.96894 1.922082 14.60865 -12.22423 -2.090983 13.46522 -8.146357 5.868579 4.390532 -8.181099 1.829671 2.49283 -8.137922 -1.826115 0.795079 -8.661458 5.957539 9.284649 -8.943637 2.053001 7.020712 -8.966567 -2.132488 5.180938 -8.533058 5.903714 13.76814 -9.111268 2.070753 12.00912 -9.655655 -1.97334 9.780371 8.028621 -6.069727 -1.170835 8.373827 -1.967801 0.6921675 8.518887 2.052384 2.356404 8.626121 -6.041409 3.325403 8.578359 -2.013439 5.018435 8.356944 1.791318 6.915465 9.418758 -6.03219 8.227937 9.501682 -2.184843 9.668805 8.984085 2.063929 11.87241 8.445571 3.85183 10.50309 8.969532 0.1650599 8.862328 8.572591 -4.080255 6.275968 8.237269 3.830947 5.758232 8.245153 0.1987231 3.910211 8.470181 -3.899484 2.017176 7.128926 4.015467 1.194344 8.624789 -0.2266116 -1.209606 7.023924 -4.0681 -2.097744 -9.218558 -3.885451 6.631536 -9.373455 0.01021152 8.300654 -8.69635 4.094655 10.50563 -8.492473 -3.657187 1.917563 -8.83675 0.3237085 3.915183 -8.561604 3.82855 5.526515 -6.920762 -3.995843 -1.970392 -7.008616 -0.1060203 -0.6074851 -6.937148 4.002543 1.039225 -10.21284 -4.285344 10.8144 -10.63513 0.1192319 12.45687 -9.048556 3.845995 13.99285 7.986494 3.914097 14.61553 10.43608 -0.1509898 12.86705 10.67633 -4.098778 11.10217 -2.958849 -5.252218 -5.933265 -2.488888 0.1015542 -3.225981 2.919842 -5.182095 -6.278241 2.606703 0.1954567 -3.923502 -0.2144707 -2.873633 -5.015538 0.06362533 2.796928 -3.197779 22.77429 -5.184971 13.84242 20.64142 0.05525624 16.18081 -21.89246 4.091159 17.554 -20.97257 -0.02320206 16.31479 -15.58965 5.509739 18.05574 -15.21608 0.2859861 16.26996 16.10529 -4.960528 13.50884 15.06135 0.1763156 15.6334 -17.85379 -2.668174 15.35777 -17.08695 2.36331 17.04455 17.30118 2.49198 17.001 18.15801 -2.658605 14.84834 -14.28003 -6.427334 12.50967 -13.32316 1.123834 15.92502 -12.03533 3.013724 16.32371 -13.73495 -3.461341 14.02105 13.73187 -3.627467 13.51923 14.16671 -6.361732 12.4324 11.10692 2.854854 16.92304 13.30808 1.242215 15.86858 4.174813 -3.4414 -4.372066 5.547539 1.435222 -3.648788 4.298222 3.587601 -1.911593 -4.02619 -3.380354 -3.8611 -3.846051 -1.341794 -3.186856 -3.81773 1.372796 -2.318655 -3.84058 3.435485 -1.514018 10.09158 -6.370048 10.04672 -10.47521 -5.881052 9.834124 -8.653413 6.06742 15.34318 7.919285 2.177339 0.1337118 -3.978188 5.672717 -0.272428 13.96684 -1.108548 14.52652 4.052398 5.367666 -0.8453341 -4.203064 -5.680652 -5.518591 11.88197 5.608344 18.58816 7.239315 -6.016705 -3.066643 4.930176 -0.8969548 -3.892487 17.57752 0.1095198 16.29886 -18.73085 5.052585 17.89836 8.959931 -2.109792 7.439074 0.09259891 0.2406309 -3.973461 -10.61861 -2.122673 11.67272 19.16986 -4.979337 13.95867 -0.03863173 -5.298812 -6.464987 8.890337 1.762218 13.70365 8.230486 -1.864064 3.130012 8.574027 6.145148 6.710167 -6.895577 2.347833 0.5670924 -7.063519 6.010823 2.377572 -6.833766 -2.324827 -1.43856 -8.812399 2.280673 4.851906 -8.483975 5.89176 6.668836 -6.907408 -6.182815 -3.360222 -8.477244 -1.925717 2.461382 -12.29226 5.406695 18.02837 4.014795 -5.429179 -5.635697 7.896399 -2.206679 -1.552768 10.77989 -2.093016 11.85279 8.569913 1.74171 4.550313 8.492918 2.004905 9.6333 -8.717956 -6.121118 1.201491 -9.397544 -1.863663 7.335665 -8.970356 1.998322 9.389548 8.045048 6.192263 15.40669 8.493586 5.764167 11.59148 -13.85481 -0.8701083 14.96847 -8.706751 -5.95927 5.582537 -17.42322 0.2292584 16.30052 6.795136 6.182352 2.298886 0.07506203 5.567934 -1.999343 8.826677 -6.179551 1.116651 8.728936 -6.05608 5.548459 19.17161 5.353935 17.9084 -18.7685 -5.533606 13.69254 -8.66439 6.056553 11.51841 -9.894969 1.908038 13.3524</float_array>
          <technique_common>
            <accessor source="#Plane_003-mesh-positions-array" count="257" stride="3">
              <param name="X" type="float"/>
              <param name="Y" type="float"/>
              <param name="Z" type="float"/>
            </accessor>
          </technique_common>
        </source>
        <source id="Plane_003-mesh-normals">
          <float_array id="Plane_003-mesh-normals-array" count="771">0.5898757 -0.5321943 0.6073021 0.7455494 -0.3827391 0.5455887 0.7131134 -0.5107707 0.4801903 -0.9347745 0.352467 0.04431396 -0.864372 0.344351 0.3664471 -0.9514403 0.01336741 0.3075433 0.9993355 -0.03576791 -0.007019281 0.984264 -0.1607123 0.0734589 0.9950072 -0.08746707 0.04806721 -0.005829095 -0.5259926 0.8504692 -0.03647077 -0.43356 0.9003864 -0.03604286 -0.5118033 0.8583462 0.004303157 -0.4695667 0.8828866 5.18815e-4 -0.3076269 0.951507 -0.01818925 -0.5038067 0.8636249 -0.9840996 -0.09399986 0.150705 -0.9067027 -0.1357811 0.3993166 -0.9916785 0.005127131 0.1286368 -0.9858517 -0.09158718 0.1403869 -0.9983966 -0.04040706 0.03964406 -0.9862846 -0.1245177 0.1083427 0.02761995 -0.4679532 0.8833215 0.3575955 -0.4398451 0.8238093 0.3770081 -0.3914134 0.8394407 -0.7725075 -0.3102604 0.5540495 -0.9311868 -0.2716864 0.2430589 -0.9371635 -0.1409697 0.3191428 0.02807784 -0.3281449 0.9442101 -0.004852473 -0.3088809 0.9510884 0.01413023 -0.3083022 0.9511836 0.9800581 0.04055976 0.1945284 0.9512622 0.05050975 0.3042184 0.9761363 0.01055973 0.2169022 0.3991563 -0.4205195 0.8147622 0.1961792 -0.3730702 0.9068254 0.4554088 -0.3817657 0.8042747 0.5449195 -0.3735544 0.7506796 0.5781623 -0.3060805 0.7563354 0.4985681 -0.3541188 0.7912205 -0.9990376 0.01480168 0.04129213 -0.9644919 0.2456474 -0.09701985 -0.9932841 0.1156685 -0.002746701 -0.9757541 0.1847926 -0.1172845 -0.5032353 -0.3722458 0.7798637 -0.9622799 0.259019 0.08322668 0.9852483 -0.1683434 0.0307632 0.9010389 -0.3064399 0.3069587 0.9924333 -0.1196669 0.02749806 0.9924863 -0.005554497 0.1222296 0.9451591 -0.1438385 0.2932316 0.9950932 -0.03268551 0.09338724 0.9924411 0.05798572 0.1081587 0.9996998 -0.0227974 0.008972465 -0.9701119 -0.1977945 0.1405711 -0.9859145 -0.1573556 0.05667364 -0.9723225 -0.1909608 0.1346217 -0.9967431 0.08060008 -0.002624571 -0.9922386 -0.1162779 0.04406964 -0.9978529 0.0370807 -0.05398827 -0.756188 -0.308158 0.5772507 -0.3852165 -0.5905208 0.7091499 -0.669691 -0.5717232 0.473969 -0.9340959 0.246197 0.2585572 -0.9998633 0.01037645 0.01287901 -0.9916039 0.004059016 0.1292494 -0.5134508 -0.4521382 0.7293418 -0.6002173 -0.1694415 0.7816833 -0.341628 -0.285687 0.895362 0.1911705 -0.5549256 0.8096366 0.6636458 -0.5299705 0.5279257 0.6574707 -0.5552321 0.509362 0.9675847 -0.05887174 0.245589 0.9826528 0.03796571 0.1815274 0.9716704 -0.08530116 0.2204096 0.7596254 -0.3458448 0.5507819 0.9008761 -0.1846432 0.3928476 0.9014061 -0.2473556 0.355362 0.993909 -0.04815882 0.09912538 0.9951696 -0.09137439 0.03589051 0.9809345 -0.145483 0.1288502 0.986898 -0.1575093 0.03497493 0.9749176 -0.1538138 0.1608636 0.7545112 -0.1991033 0.6253566 0.7704583 -0.2907568 0.5673222 0.7721689 -0.2991197 0.5606092 0.9156937 -0.1845792 0.3569813 0.7656788 -0.2520624 0.5917775 0.7841739 -0.2100673 0.5839034 0.8942081 -0.1624529 0.4171344 -0.99839 -0.03537118 0.0443437 -0.9968884 0.07703113 0.01672464 -0.9965769 -0.002105772 0.08264619 0.9205381 0.3631125 0.1440792 0.9058222 0.09305113 0.4133132 0.7344706 0.6731885 0.08585 -0.9975844 -0.0546295 0.04291009 -0.9795427 -0.136268 0.1480789 -0.4236956 -0.688143 0.5890172 -0.8738635 -0.4582801 0.1623024 0.0513941 -0.5640537 0.8241373 0.3045784 -0.4308656 0.8494626 0.2898467 -0.5792661 0.761866 -0.05600261 -0.4617546 0.8852381 -0.04028493 -0.4033381 0.9141638 -0.1040717 -0.4214143 0.9008768 0.8274986 -0.1471637 0.5418385 0.6050459 -0.4009326 0.6878754 0.6112166 -0.2755922 0.7419322 0.1018432 -0.2903921 0.9514728 0.3577754 -0.3084565 0.8813917 0.3194105 -0.275799 0.9065936 -0.916861 -0.1745399 0.3590291 -0.9846932 -0.01983726 0.1731644 0.02087509 -0.4559569 0.889757 0.0160833 -0.3188591 0.9476657 -0.1091064 -0.3815217 0.9178982 -0.03976696 -0.3370581 0.9406436 -0.1341627 -0.1234505 0.9832398 -0.1503675 -0.3497487 0.9246976 -0.8078121 -0.2991794 0.5078696 -0.9662076 0.01483231 0.257338 -0.8648638 0.02191305 0.5015282 0.05710095 -0.515038 0.8552634 0.1261673 -0.1191173 0.9848315 0.1908689 -0.4106397 0.8915964 0.04107826 -0.465259 0.884221 0.02386599 -0.5360392 0.8438558 -0.01138347 -0.5098773 0.8601719 0.184491 -0.5148659 0.8371835 0.4958148 -0.4924882 0.7152783 0.5503257 -0.4372819 0.711285 0.5915516 -0.4464333 0.6713896 -0.5076915 -0.2474214 0.8252466 -0.5277987 0.4221413 0.7370383 -0.1777718 -0.3115662 0.9334473 -0.7959422 -0.3706564 0.4786335 -0.09131395 -0.5679963 0.81795 -0.3088584 -0.3639463 0.8787205 -0.5218224 -0.4562665 0.720779 -0.575604 -0.5598557 0.5960217 -0.6285986 -0.4075194 0.6624135 -0.283433 -0.4406991 0.8517335 -0.223094 -0.4003179 0.8888053 -0.2123509 -0.4581505 0.863137 -0.7078426 -0.2171474 0.6721651 -0.5337461 -0.674408 0.5101855 -0.2560871 -0.44375 0.8587813 0.5260536 -0.3783423 0.7616593 0.3861266 -0.3041525 0.8708602 0.382071 -0.4536388 0.8051295 0.5378718 -0.3138603 0.7824229 -0.8469558 -0.4467026 0.2883104 -0.9657722 -0.2115573 0.1500921 -0.7075535 0.7040743 0.06039714 0.9743506 -0.1633989 0.1547315 0.9032093 -0.3432469 0.2576718 0.9990422 -0.04080396 0.01580888 0.9982392 0.0570091 0.01638859 0.97442 -0.191478 0.1176518 0.828533 -0.2257499 0.512416 0.5249637 -0.2881639 0.8008587 0.9671446 -0.07364213 0.2433273 -0.4730214 0.7311857 0.4915468 -0.7675625 -0.4726842 0.4329174 0.5359194 -0.3031179 0.7879785 0.4516556 -0.2820902 0.8464232 0.5330205 -0.3702608 0.7607865 0.566951 -0.3720263 0.7349579 -0.3886035 -0.5880782 0.7093318 -0.09515821 -0.4392904 0.893291 -0.1478055 -0.5738259 0.8055292 -0.0400412 -0.4725599 0.8803884 -0.5125051 -0.3566753 0.7811027 -0.5827596 -0.3994322 0.7077043 -0.6424657 -0.3398345 0.686841 -0.3165421 -0.4670003 0.8256585 -0.2451902 -0.47036 0.8477283 -0.1688629 -0.4146344 0.8941832 -0.07422214 -0.4458214 0.8920395 -0.1406638 -0.02493429 0.9897435 0.5143904 -0.4650419 0.7205128 0.5631324 -0.4698365 0.6798056 0.2525469 -0.5536499 0.7935314 0.3984013 -0.3604046 0.8434364 0.2667404 -0.3876281 0.8823798 -0.7729668 -0.1923337 0.6045909 0.4049346 -0.5097696 0.759054 0.1479886 -0.3648901 0.9192142 0.5771796 0.3050091 0.7575177 0.5182723 0.7405722 0.4277227 -0.5953637 -0.422779 0.6832277 -0.6215345 -0.379513 0.6853209 -0.7616096 -0.3374826 0.5532237 -0.9280757 -0.1687688 0.3319526 -0.6237001 0.1754881 0.7617101 -0.03082394 -0.2381381 0.970742 0.00576812 -0.3782569 0.9256827 0.01675528 -0.4855981 0.8740217 0.01254343 -0.602299 0.7981721 0.01831126 -0.5559306 0.831027 0.02392727 -0.4631635 0.8859499 -0.9822843 -0.09299135 0.1626967 0.1062969 -0.4219526 0.900365 -0.002044737 -0.5446085 0.838688 -8.54526e-4 -0.50768 0.8615453 0.01312339 -0.5615285 0.8273534 -0.2538001 -0.5358612 0.8052568 -0.2837069 -0.5285934 0.8000621 -0.9693863 -0.212903 -0.1223216 -0.9877752 -0.1027572 -0.1172231 -0.9121166 -0.3271925 0.2469584 -0.9938428 0.008026421 0.1105083 -0.9956948 -0.02539211 0.08914709 -0.9871079 0.1575087 0.02844375 -0.9315316 -0.1974274 0.3054037 0.9101444 -0.1662382 0.3794761 0.7592793 -0.2730219 0.5907235 0.6109827 -0.3611573 0.7044612 0.9553659 -0.1349549 0.2627989 0.7782073 -0.3294845 0.5346341 0.9273206 -0.1558911 0.3402566 0.9340127 -0.1504296 0.3240234 0.9999948 -0.002563595 0.002014219 0.994355 -0.02667397 0.102698 0.7592566 -0.3423033 0.5534961 0.8764007 -0.2794984 0.3921768 0.9830752 -0.0692169 0.1696241 0.05868923 -0.6497325 0.757894 0.3618397 -0.7571594 0.5438582 -0.5365052 -0.4387507 0.7208745 -0.7795911 -0.1596477 0.6055992 -0.9991372 -0.005493402 0.04117035 -0.9920042 -0.06888234 0.1057499 0.9951784 0.005859732 0.09790641 0.9985002 -0.04104846 0.03622639 0.9880112 -0.09625583 0.1207013 0.9338914 -0.2677155 0.2370131 -0.9740115 0.0988813 -0.2037748 0.9896085 0.1432561 0.01236015 0.04333704 -0.4151816 0.9087057 -0.8636065 -0.1733805 0.4734164 0.08890312 -0.3525911 0.9315449 -0.0131843 -0.5478513 0.8364719 -0.9221835 -0.1757267 0.3445256 -0.9997772 0.01757901 0.01168882 -0.9794427 0.02395731 0.2002955 -0.9994335 -0.01739573 -0.02880984 -0.9977505 0.05285847 0.04123085 -0.007843375 -0.6119358 0.7908685 -0.002655148 -0.6029092 0.7978054 0.01364219 -0.5938474 0.8044621 -0.02072209 -0.5361499 0.8438685 0 -0.5035617 0.8639593 0.9991599 0.00564599 0.04059016 0.9918872 -0.1162151 0.05151546 0 -0.5304598 0.8477101 -0.003204464 -0.5453448 0.8382056</float_array>
          <technique_common>
            <accessor source="#Plane_003-mesh-normals-array" count="257" stride="3">
              <param name="X" type="float"/>
              <param name="Y" type="float"/>
              <param name="Z" type="float"/>
            </accessor>
          </technique_common>
        </source>
        <vertices id="Plane_003-mesh-vertices">
          <input semantic="POSITION" source="#Plane_003-mesh-positions"/>
        </vertices>
        <triangles material="Material_002-material" count="440">
          <input semantic="VERTEX" source="#Plane_003-mesh-vertices" offset="0"/>
          <input semantic="NORMAL" source="#Plane_003-mesh-normals" offset="1"/>
          <p>130 0 169 1 256 2 17 3 207 4 147 5 255 6 50 7 161 8 254 9 69 10 87 11 253 12 67 13 84 14 252 15 59 16 152 17 251 18 56 19 155 20 250 21 31 22 118 23 249 24 55 25 105 26 248 27 68 28 183 29 159 30 104 31 247 32 193 33 185 34 246 35 32 36 121 37 206 38 245 39 12 40 91 41 244 42 5 43 90 44 243 45 51 46 160 47 242 48 51 46 140 49 241 50 49 51 103 52 151 53 149 54 240 55 154 56 146 57 239 58 238 59 39 60 172 61 237 62 54 63 157 64 236 65 35 66 200 67 235 68 41 69 129 70 163 71 137 72 234 73 233 74 46 75 102 76 232 77 47 78 164 79 136 80 163 71 231 81 230 82 46 75 165 83 229 84 44 85 167 86 228 87 44 85 133 88 153 89 106 90 227 91 18 92 208 93 96 94 226 95 57 96 154 56 172 61 128 97 225 98 224 99 62 100 174 101 223 102 66 103 191 104 222 105 42 106 131 107 221 108 63 109 175 110 148 111 151 53 220 112 219 113 68 28 189 114 218 115 67 13 190 116 217 117 64 118 200 67 216 119 53 120 158 121 26 122 88 123 192 124 42 106 130 0 193 33 113 125 85 126 215 127 26 122 192 124 112 128 214 129 34 130 74 131 38 132 126 133 197 134 40 135 128 97 198 136 38 132 197 134 196 137 213 138 37 139 76 140 212 141 72 142 187 143 36 144 125 145 201 146 211 147 32 36 206 38 62 100 175 110 204 148 34 130 203 149 122 150 210 151 54 63 143 152 17 3 80 153 207 4 18 92 104 31 208 93 209 154 41 69 170 155 138 156 170 155 50 7 23 157 209 154 138 156 83 158 129 70 209 154 208 93 168 159 43 160 208 93 104 31 168 159 104 31 52 161 168 159 207 4 126 133 38 132 207 4 80 153 126 133 80 153 4 162 126 133 156 163 143 152 55 25 125 145 156 163 37 139 36 144 210 151 125 145 122 150 204 148 33 164 122 150 203 149 204 148 203 149 62 100 204 148 204 148 205 165 33 164 204 148 175 110 205 165 175 110 63 109 205 165 118 23 206 38 63 109 31 22 211 147 118 23 77 166 120 167 211 147 201 146 202 168 65 169 201 146 125 145 202 168 125 145 37 139 202 168 199 170 187 143 73 171 39 60 212 141 199 170 127 172 196 137 212 141 116 173 76 140 3 174 30 175 213 138 116 173 119 176 202 168 213 138 196 137 186 177 72 142 196 137 197 134 186 177 197 134 25 178 186 177 198 136 199 170 73 171 198 136 128 97 199 170 128 97 39 60 199 170 197 134 109 179 25 178 197 134 126 133 109 179 126 133 4 162 109 179 114 180 74 131 0 181 28 182 214 129 114 180 174 101 203 149 214 129 112 128 195 183 71 184 112 128 192 124 195 183 192 124 43 160 195 183 215 127 5 43 78 185 40 135 215 127 78 185 73 171 215 127 198 136 193 33 194 186 70 187 193 33 130 0 194 186 130 0 41 69 194 186 192 124 81 188 43 160 192 124 88 123 81 188 88 123 6 189 81 188 216 119 35 66 123 190 1 191 216 119 123 190 93 192 141 193 216 119 124 194 200 67 35 66 36 144 217 117 124 194 201 146 177 195 217 117 187 143 190 116 73 171 72 142 218 115 187 143 191 104 181 196 218 115 184 197 189 114 70 187 27 198 219 113 184 197 89 199 182 200 219 113 220 112 57 96 145 201 56 19 220 112 145 201 152 17 148 111 220 112 178 202 175 110 62 100 64 118 221 108 178 202 65 169 221 108 177 195 168 159 131 107 43 160 52 161 222 105 168 159 140 49 169 1 222 105 186 177 191 104 72 142 25 178 223 102 186 177 86 203 180 204 223 102 224 99 28 182 115 205 29 206 224 99 115 205 64 118 224 99 176 207 171 208 128 97 40 135 61 209 225 98 171 208 60 210 225 98 149 54 226 95 54 63 142 211 155 20 142 211 53 120 56 19 226 95 155 20 96 94 81 188 6 189 96 94 208 93 81 188 208 93 43 160 81 188 92 212 106 90 13 213 14 214 227 91 92 212 105 26 153 89 227 91 228 87 45 215 166 216 33 164 228 87 166 216 121 37 167 86 228 87 120 167 167 86 32 36 2 217 229 84 120 167 21 218 229 84 99 219 122 150 165 83 34 130 166 216 122 150 33 164 166 216 134 220 230 82 133 88 163 71 45 215 44 85 231 81 133 88 164 79 136 80 231 81 132 221 164 79 44 85 21 218 232 77 132 221 22 222 232 77 100 223 82 224 102 76 20 225 0 181 233 74 82 224 74 131 165 83 233 74 162 226 137 72 49 51 134 220 162 226 46 75 45 215 234 73 134 220 111 227 129 70 7 228 184 197 111 227 27 198 70 187 235 68 184 197 176 207 200 67 64 118 29 206 236 65 176 207 75 229 123 190 236 65 124 194 157 64 36 144 158 121 124 194 35 66 53 120 237 62 158 121 238 59 60 210 148 111 59 16 238 59 148 111 173 230 127 172 238 59 153 89 146 57 58 231 143 152 153 89 55 25 54 63 239 58 143 152 150 232 149 54 61 209 58 231 240 55 150 232 146 57 151 53 240 55 98 233 103 52 19 234 20 225 241 50 98 233 102 76 162 226 241 50 159 30 140 49 52 161 137 72 159 30 49 51 48 235 242 48 137 72 243 45 48 235 136 80 47 78 243 45 136 80 161 8 139 236 243 45 244 42 12 40 107 237 171 208 107 237 61 209 171 208 78 185 244 42 106 90 91 41 13 213 58 231 245 39 106 90 61 209 245 39 150 232 206 38 205 165 63 109 206 38 121 37 205 165 121 37 33 164 205 165 246 35 71 184 195 183 131 107 195 183 43 160 42 106 246 35 131 107 97 238 104 31 18 92 19 234 247 32 97 238 49 51 247 32 103 52 188 239 183 29 69 10 71 184 248 27 188 239 185 34 189 114 248 27 249 24 14 214 79 240 3 174 249 24 79 240 76 140 156 163 249 24 179 241 118 23 63 109 119 176 179 241 65 169 119 176 117 242 250 21 141 193 155 20 53 120 15 243 251 18 141 193 16 244 251 18 94 245 144 246 152 17 56 19 16 244 252 15 144 246 95 247 147 5 252 15 108 248 84 14 9 249 24 250 253 12 108 248 113 125 190 116 253 12 110 251 87 11 10 252 26 122 254 9 110 251 112 128 188 239 254 9 135 253 161 8 47 78 22 222 255 6 135 253 23 157 255 6 101 254 147 5 173 230 59 16 147 5 207 4 173 230 207 4 38 132 173 230 256 2 51 46 139 236 170 155 139 236 50 7 41 69 256 2 170 155 130 0 42 106 169 1 255 6 138 156 50 7 254 9 188 239 69 10 253 12 190 116 67 13 252 15 147 5 59 16 251 18 144 246 56 19 250 21 117 242 31 22 249 24 156 163 55 25 248 27 189 114 68 28 159 30 52 161 104 31 193 33 70 187 185 34 245 39 107 237 12 40 244 42 78 185 5 43 243 45 139 236 51 46 242 48 160 47 51 46 241 50 162 226 49 51 151 53 60 210 149 54 154 56 57 96 146 57 238 59 127 172 39 60 237 62 142 211 54 63 236 65 123 190 35 66 235 68 194 186 41 69 163 71 48 235 137 72 233 74 165 83 46 75 232 77 135 253 47 78 136 80 48 235 163 71 230 82 134 220 46 75 229 84 132 221 44 85 228 87 167 86 44 85 153 89 58 231 106 90 226 95 145 201 57 96 172 61 39 60 128 97 224 99 178 202 62 100 223 102 180 204 66 103 222 105 169 1 42 106 221 108 179 241 63 109 148 111 60 210 151 53 219 113 182 200 68 28 218 115 181 196 67 13 217 117 177 195 64 118 216 119 141 193 53 120 113 125 24 250 85 126 214 129 203 149 34 130 213 138 202 168 37 139 212 141 196 137 72 142 211 147 120 167 32 36 210 151 157 64 54 63 209 154 129 70 41 69 138 156 209 154 170 155 23 157 83 158 209 154 83 158 7 228 129 70 156 163 210 151 143 152 125 145 210 151 156 163 36 144 157 64 210 151 118 23 211 147 206 38 31 22 77 166 211 147 77 166 2 217 120 167 199 170 212 141 187 143 39 60 127 172 212 141 127 172 38 132 196 137 116 173 213 138 76 140 30 175 119 176 213 138 119 176 65 169 202 168 114 180 214 129 74 131 28 182 174 101 214 129 174 101 62 100 203 149 215 127 85 126 5 43 40 135 198 136 215 127 73 171 113 125 215 127 216 119 158 121 35 66 1 191 93 192 216 119 93 192 15 243 141 193 124 194 217 117 200 67 36 144 201 146 217 117 201 146 65 169 177 195 187 143 218 115 190 116 72 142 191 104 218 115 191 104 66 103 181 196 184 197 219 113 189 114 27 198 89 199 219 113 89 199 11 255 182 200 220 112 151 53 57 96 56 19 152 17 220 112 152 17 59 16 148 111 178 202 221 108 175 110 64 118 177 195 221 108 65 169 179 241 221 108 168 159 222 105 131 107 52 161 140 49 222 105 140 49 51 46 169 1 186 177 223 102 191 104 25 178 86 203 223 102 86 203 8 256 180 204 224 99 174 101 28 182 29 206 176 207 224 99 64 118 178 202 224 99 171 208 225 98 128 97 61 209 149 54 225 98 60 210 172 61 225 98 226 95 154 56 54 63 155 20 226 95 142 211 56 19 145 201 226 95 92 212 227 91 106 90 14 214 105 26 227 91 105 26 55 25 153 89 228 87 133 88 45 215 33 164 121 37 228 87 121 37 32 36 167 86 120 167 229 84 167 86 2 217 99 219 229 84 21 218 132 221 229 84 122 150 230 82 165 83 166 216 230 82 122 150 166 216 45 215 134 220 133 88 231 81 163 71 44 85 164 79 231 81 164 79 47 78 136 80 132 221 232 77 164 79 21 218 100 223 232 77 22 222 135 253 232 77 82 224 233 74 102 76 0 181 74 131 233 74 74 131 34 130 165 83 162 226 234 73 137 72 134 220 234 73 162 226 45 215 163 71 234 73 111 227 235 68 129 70 184 197 235 68 111 227 70 187 194 186 235 68 176 207 236 65 200 67 29 206 75 229 236 65 75 229 1 191 123 190 124 194 237 62 157 64 158 121 237 62 124 194 53 120 142 211 237 62 238 59 172 61 60 210 59 16 173 230 238 59 173 230 38 132 127 172 153 89 239 58 146 57 143 152 239 58 153 89 54 63 154 56 239 58 150 232 240 55 149 54 58 231 146 57 240 55 146 57 57 96 151 53 98 233 241 50 103 52 20 225 102 76 241 50 102 76 46 75 162 226 159 30 242 48 140 49 137 72 242 48 159 30 48 235 160 47 242 48 243 45 160 47 48 235 47 78 161 8 243 45 161 8 50 7 139 236 244 42 90 44 12 40 171 208 244 42 107 237 171 208 40 135 78 185 106 90 245 39 91 41 58 231 150 232 245 39 61 209 107 237 245 39 246 35 185 34 71 184 131 107 246 35 195 183 42 106 193 33 246 35 97 238 247 32 104 31 19 234 103 52 247 32 49 51 159 30 247 32 188 239 248 27 183 29 71 184 185 34 248 27 185 34 70 187 189 114 249 24 105 26 14 214 3 174 76 140 249 24 76 140 37 139 156 163 179 241 250 21 118 23 119 176 250 21 179 241 119 176 30 175 117 242 141 193 251 18 155 20 15 243 94 245 251 18 16 244 144 246 251 18 144 246 252 15 152 17 16 244 95 247 252 15 95 247 17 3 147 5 108 248 253 12 84 14 24 250 113 125 253 12 113 125 73 171 190 116 110 251 254 9 87 11 26 122 112 128 254 9 112 128 71 184 188 239 135 253 255 6 161 8 22 222 101 254 255 6 23 157 138 156 255 6 256 2 169 1 51 46 170 155 256 2 139 236 41 69 130 0 256 2</p>
        </triangles>
      </mesh>
    </geometry>
    <geometry id="Plane_004-mesh" name="Plane.004">
      <mesh>
        <source id="Plane_004-mesh-positions">
          <float_array id="Plane_004-mesh-positions-array" count="270">-5.56185 -8 -6.028837 5.63283 -8 -5.99536 -5.561847 8 1.97116 5.632829 8 2.004635 9 -8 12 9 8 20 -9 -8 12 -9 8 20 24 -8 12.01561 24 7.984389 20 -24 -8 12 -24 8 20 8.663788 7.71723 14.85744 8.758149 8 10.06178 7.551887 8.076722 4.600483 8.758151 -8 2.06178 8.66379 -8.282768 6.857403 -8.80938 -8 7.1162 -8.723697 -8.171441 2.07794 -8.22565 -8 -2.269393 -8.22565 8 5.73061 -8.7237 7.828562 10.08625 -8.80938 8 15.11624 16.45792 8 20 16.50952 -8 12 -16.66851 -8 12 -16.31411 8 20 -2.57641 -7.887671 -8.064101 2.77445 -7.870261 -8.156781 2.774445 8.12974 -0.1567792 -5.191145 4.455838 0.055655 -5.087008 0.09246456 -1.945516 -5.252782 -4.305513 -3.98363 7.95945 0.05920732 -3.286024 5.542122 5.075485 0.370388 12.19291 -4.626035 11.81315 12.00901 -0.2174493 13.89976 7.90536 4.240373 17.37454 -9.680158 3.819551 15.11219 -12.00274 -0.008662104 13.86836 -12.23071 -4.397849 12.37593 -7.983029 3.787157 3.335822 -7.863563 -0.00325036 1.582352 -7.908451 -4.04987 -0.1877546 -8.590843 4.048302 8.136391 -9.210853 0.1586668 6.287146 -8.612617 -4.029747 4.154192 -8.866559 4.062623 12.90628 -9.353267 -0.1222004 10.74805 -9.433568 -4.104266 8.725707 8.141368 -3.778927 -0.1131339 8.484523 -0.05700081 1.38687 7.973663 3.888153 3.275916 8.687342 -3.932394 4.054198 8.643486 -0.009632349 6.027974 8.315549 3.873629 7.967893 9.472227 -4.061796 8.842123 9.275507 0.1829754 11.27148 8.773661 3.82843 12.9017 -2.491659 -2.911348 -4.444272 -2.694025 2.456844 -3.011909 2.620668 -2.498105 -4.48189 2.669562 2.643647 -3.100995 21.24413 -2.616988 14.81561 21.13332 2.491492 16.58749 -19.93577 2.449965 16.41572 -20.11691 -2.405771 14.98363 -14.98933 1.459892 16.6431 7.551886 -7.92328 -3.399517 -9.416714 -6.109771 7.474985 -20.61925 -8 12 -15.49797 -5.480806 13.53725 0.08557009 -8 -8.300271 0.08556997 8 -0.3002701 5.545442 -5.253987 -4.516438 10.66272 -6.585685 11.5227 12.40766 -2.468395 12.74285 7.128926 4.015467 1.044053 8.624789 -0.2266116 -1.217072 7.023924 -4.0681 -2.164276 -3.580957 -5.466434 -5.928124 -0.2144707 -2.873633 -5.015538 0.06362533 2.796928 -3.251621 16.10529 -4.960528 13.56877 14.88908 1.310766 16.28635 11.10692 2.854854 16.81192 4.298222 3.587601 -2.177114 -3.978188 5.672717 -0.5572074 4.930176 -0.8969548 -4.048584 4.014795 -5.429179 -5.786544</float_array>
          <technique_common>
            <accessor source="#Plane_004-mesh-positions-array" count="90" stride="3">
              <param name="X" type="float"/>
              <param name="Y" type="float"/>
              <param name="Z" type="float"/>
            </accessor>
          </technique_common>
        </source>
        <source id="Plane_004-mesh-normals">
          <float_array id="Plane_004-mesh-normals-array" count="420">0 -0.4705925 0.8823506 -0.9913806 0.1159697 -0.06095612 -0.1401962 -0.287818 0.9473679 -0.6439054 -0.4807567 0.5951965 0.2223004 -0.4817489 0.8476442 -0.3911135 0.1713796 0.9042452 -0.3461382 0.9078269 0.2367253 0.05154216 -0.4939525 0.8679599 -0.001848042 -0.4622045 0.8867716 -0.223 -0.4576538 0.8607113 -0.2636551 -0.4029062 0.8764432 -0.6045127 -0.5231568 0.6007258 -0.07904219 -0.4915892 0.8672326 0 -0.5267112 0.8500443 -0.3960173 -0.9182109 0.007688105 -0.07034724 -0.4715198 0.8790452 -0.0378049 -0.4034892 0.9142031 -0.9677247 0.247064 0.04968315 -0.001091301 -0.5273003 0.8496783 -0.7915584 -0.174659 0.5856019 0.1403378 -0.5647268 0.8132582 -0.3988927 -0.4740805 0.7849409 -0.184167 -0.4700297 0.8632234 -0.4100857 -0.3261815 0.8517251 -0.6141824 0.0619632 0.7867277 -0.7342065 -0.2962776 0.6108686 0.7651883 -0.3471652 0.5421836 0.3457978 -0.4052253 0.8462957 0.4110991 -0.5824892 0.701216 -0.5614755 -0.4116888 0.7178145 -0.8641414 0.2528219 0.4351332 -0.9202146 -0.1992106 0.3369278 -0.5675525 -0.3881497 0.7261019 0.644228 -0.2846209 0.7099024 0.7801948 -0.2373186 0.5787711 -0.5548582 -0.4081056 0.7249705 -0.576745 -0.6447975 0.5015988 -0.09957379 -0.2780569 0.9553897 -0.9831367 -0.09084826 0.1587103 -0.7544849 -0.3296592 0.5675187 0.5184152 -0.4346032 0.736455 0.6552037 -0.3050094 0.6911422 0.5311138 -0.4439451 0.7216861 -0.1925589 -0.7042555 0.6833339 -0.9046261 -0.2736132 0.3267834 -0.4996666 -0.6850773 0.5300967 -0.9779403 0.07114154 -0.1963965 0 0.3197592 0.9474989 -0.02422517 -0.4723765 0.8810639 -0.006073892 -0.4592732 0.8882743 -0.8486165 -0.3088783 0.4294698 -0.9476111 -0.3179831 -0.03033232 -0.1750677 -0.5384151 0.824294 0.2398693 -0.2418265 0.9402036 -0.7289033 -0.4064902 0.5508773 0.626785 -0.3124186 0.7138174 0.5536 -0.1951502 0.8095947 -0.56695 -0.3883662 0.7264568 -0.1048381 -0.3955489 0.9124419 -0.988805 -0.1449668 0.03534728 0.9918721 -0.01472067 0.1263843 0.9523691 0.3048924 0.005821645 -0.8288953 -0.2704207 0.4896991 -0.8761048 -0.4276222 0.2226653 0.01633292 -0.3273387 0.9447659 0.4392754 -0.5073825 0.7413502 -0.001386165 -0.2593614 0.9657794 -0.07087349 -0.2580931 0.963517 0.1192907 -0.3002355 0.9463765 -0.1017926 -0.1204103 0.9874917 0.2108154 -0.5565679 0.80361 -0.1080052 -0.446694 0.8881439 -0.5002762 -0.5394262 0.6773059 -0.004799187 -0.6953547 0.7186508 0.03969764 -0.6517162 0.7574234 0.1773481 -0.5235714 0.8333191 0.7750171 -0.2895235 0.5617159 0.7613578 -0.2551737 0.596004 0.7607577 -0.2671751 0.5914941 0.7624716 -0.2441025 0.599209 0.7853794 -0.2711057 0.5564899 0.7639704 -0.2509241 0.5944633 0.7503834 -0.3670821 0.5497049 0.9933612 -0.02320551 0.1126734 0.9666898 -0.217917 0.1342496 0.9613276 -0.002936124 0.2753919 0.990529 -0.08183568 0.1102514 0.9739704 -0.1618459 0.1587061 0.9838109 -0.08086955 0.1599267 0.9558272 -0.09805792 0.2770904 0.9995393 -0.02454113 0.01786237 0.9787916 -0.1081106 0.1740088 0.9795607 -0.1004511 0.1742718 0.9917958 0.1216347 0.03932136 0.9983204 0.005328834 0.05769032 0.9878223 -0.1445584 0.0575335 0.98572 -0.1670842 0.02094906 0.9795775 -0.1104866 0.1679902 0.9272264 -0.1934496 0.3206691 0.9137853 -0.2650298 0.3078241 0.9782661 -0.2038074 0.03818321 0.7140706 -0.3283965 0.618271 0.6231849 -0.5565946 0.5494025 0.437105 -0.6077036 0.6630502 0.7595705 -0.3395788 0.5547422 0.7396616 0.6424894 0.2002701 0.5705758 -0.2907878 0.7680402 -0.9827927 -0.09476894 0.1585479 -0.9814144 0.1917333 -0.00800538 -0.9855838 -0.1161061 0.1230612 -0.9805021 -0.1749754 0.08943825 -0.9817237 -0.1446734 0.1236453 -0.9935002 0.1131 -0.01287949 -0.9930428 -0.07408797 0.09152686 -0.6453131 -0.4017626 0.6497367 -0.9176687 -0.01100248 0.3971943 -0.6478369 0.761779 4.67525e-4 -0.6369641 0.3996706 0.6591967 -0.7410902 -0.2021188 0.6402603 -0.4612818 -0.4265828 0.7779758 -0.6567865 -0.4334608 0.6170439 -0.9760659 -0.03177034 0.2151423 -0.9887809 -0.07923668 0.126625 -0.9890952 -0.07487159 0.1268268 -0.9902375 -0.1194853 0.07178485 -0.9963623 0.0784322 0.03332602 -0.9949063 0.06981855 0.07271105 -0.9637838 -0.1636413 0.2105764 -0.09309893 -0.5516932 0.828835 0.4006457 -0.3528539 0.8455633 0.4212665 -0.3959841 0.8159235 0.9534398 0.2992789 0.03721386 0 -0.7599555 0.6499751 0 -0.103798 0.9945985 -0.03493893 -0.4678611 0.8831111 0 -0.520894 0.8536214 0.01324796 -0.4092264 0.9123367 -0.1348664 -0.4739539 0.8701602 0 -0.5425128 0.8400476 0.2979499 -0.6020461 0.7407877</float_array>
          <technique_common>
            <accessor source="#Plane_004-mesh-normals-array" count="140" stride="3">
              <param name="X" type="float"/>
              <param name="Y" type="float"/>
              <param name="Z" type="float"/>
            </accessor>
          </technique_common>
        </source>
        <vertices id="Plane_004-mesh-vertices">
          <input semantic="POSITION" source="#Plane_004-mesh-positions"/>
        </vertices>
        <triangles count="140">
          <input semantic="VERTEX" source="#Plane_004-mesh-vertices" offset="0"/>
          <input semantic="NORMAL" source="#Plane_004-mesh-normals" offset="1"/>
          <p>70 0 66 0 10 0 51 1 78 1 50 1 81 2 61 2 82 2 34 3 29 3 86 3 73 4 87 4 82 4 35 5 75 5 83 5 78 6 33 6 88 6 23 7 84 7 64 7 24 8 8 8 63 8 62 9 86 9 29 9 86 10 62 10 88 10 77 11 34 11 86 11 62 12 73 12 82 12 23 13 5 13 85 13 85 14 37 14 58 14 84 15 23 15 85 15 84 16 83 16 63 16 5 17 12 17 37 17 9 18 23 18 64 18 88 19 74 19 79 19 87 20 60 20 82 20 84 21 36 21 76 21 75 22 24 22 83 22 76 23 35 23 83 23 88 24 79 24 78 24 79 25 74 25 68 25 43 26 19 26 0 26 32 27 59 27 31 27 32 28 80 28 59 28 1 29 89 29 28 29 79 30 50 30 78 30 77 31 52 31 14 31 3 32 34 32 77 32 60 33 87 33 30 33 40 34 49 34 39 34 1 35 74 35 89 35 36 36 85 36 57 36 65 37 66 37 67 37 54 38 53 38 56 38 74 39 1 39 68 39 0 40 27 40 80 40 30 41 87 41 2 41 80 42 32 42 0 42 84 43 85 43 36 43 51 44 52 44 77 44 86 45 33 45 77 45 12 46 58 46 37 46 75 47 4 47 24 47 29 48 73 48 62 48 83 49 24 49 63 49 58 50 57 50 85 50 78 51 51 51 77 51 72 52 89 52 81 52 60 53 59 53 81 53 14 54 3 54 77 54 31 55 60 55 30 55 60 56 31 56 59 56 29 57 34 57 3 57 88 58 33 58 86 58 52 59 51 59 54 59 41 60 20 60 44 60 69 61 17 61 18 61 50 62 79 62 68 62 33 63 78 63 77 63 64 64 84 64 63 64 38 65 67 65 39 65 61 66 88 66 62 66 62 67 82 67 61 67 82 68 60 68 81 68 88 69 61 69 74 69 81 70 59 70 80 70 61 71 81 71 89 71 89 72 74 72 61 72 72 73 28 73 89 73 80 74 27 74 72 74 81 75 80 75 72 75 32 76 31 76 43 76 31 77 30 77 41 77 43 78 31 78 42 78 30 79 2 79 41 79 2 80 20 80 41 80 41 81 42 81 31 81 0 82 32 82 43 82 20 83 21 83 44 83 44 84 45 84 41 84 45 85 46 85 42 85 46 86 18 86 19 86 19 87 43 87 46 87 43 88 42 88 46 88 42 89 41 89 45 89 21 90 22 90 47 90 48 91 49 91 46 91 49 92 69 92 46 92 48 93 46 93 45 93 21 94 47 94 44 94 47 95 48 95 44 95 45 96 44 96 48 96 18 97 46 97 69 97 38 98 47 98 22 98 48 99 47 99 38 99 38 100 22 100 7 100 49 101 48 101 39 101 38 102 39 102 48 102 71 103 25 103 40 103 69 104 49 104 40 104 6 105 69 105 40 105 39 106 67 106 40 106 53 107 15 107 56 107 15 108 16 108 56 108 56 109 57 109 54 109 57 110 58 110 55 110 54 111 57 111 55 111 13 112 55 112 12 112 12 113 55 113 58 113 57 114 56 114 76 114 56 115 16 115 75 115 16 116 4 116 75 116 75 117 35 117 56 117 35 118 76 118 56 118 83 119 84 119 76 119 76 120 36 120 57 120 68 121 15 121 50 121 15 122 53 122 50 122 53 123 54 123 50 123 54 124 55 124 52 124 50 125 54 125 51 125 55 126 13 126 52 126 13 127 14 127 52 127 5 128 37 128 85 128 26 129 67 129 38 129 67 130 71 130 40 130 6 131 17 131 69 131 7 132 26 132 38 132 25 133 6 133 40 133 66 134 70 134 71 134 70 135 25 135 71 135 71 136 67 136 66 136 67 137 26 137 65 137 26 138 11 138 65 138 73 139 2 139 87 139</p>
        </triangles>
      </mesh>
    </geometry>
  </library_geometries>
  <library_controllers/>
  <library_visual_scenes>
    <visual_scene id="Scene" name="Scene">
      <node id="Diag1" name="Diag1" type="NODE">
        <matrix sid="transform">1 0 0 0 0 1 0 0 0 0 1 0 0 0 0 1</matrix>
        <instance_geometry url="#Plane_003-mesh" name="Diag1"/>
      </node>
      <node id="DiagCollision-colonly" name="DiagCollision-colonly" type="NODE">
        <matrix sid="transform">1 0 0 0 0 1 0 0 0 0 1 0 0 0 0 1</matrix>
        <instance_geometry url="#Plane_004-mesh" name="DiagCollision-colonly"/>
      </node>
    </visual_scene>
  </library_visual_scenes>
  <scene>
    <instance_visual_scene url="#Scene"/>
  </scene>
</COLLADA>