<?xml version="1.0" encoding="utf-8"?>
<COLLADA xmlns="http://www.collada.org/2005/11/COLLADASchema" version="1.4.1">
  <asset>
    <contributor>
      <author>Blender User</author>
      <authoring_tool>Blender 2.79.0</authoring_tool>
    </contributor>
    <created>2019-07-16T22:23:57</created>
    <modified>2019-07-16T22:23:57</modified>
    <unit name="meter" meter="1"/>
    <up_axis>Z_UP</up_axis>
  </asset>
  <library_images/>
  <library_geometries>
    <geometry id="Mesh-mesh" name="Mesh">
      <mesh>
        <source id="Mesh-mesh-positions">
          <float_array id="Mesh-mesh-positions-array" count="3192">7 2 -8 6.453444 1.726722 -8 7 2 -7.333333 3.223607 0.111803 -8 3.238244 0.04979789 -7.941613 3.223607 0.111803 -7.753846 3.223607 0.111803 7.261539 3.238244 0.04979813 7.319926 3.223607 0.111803 7.507692 3.223607 0.111803 7.015385 3.238244 0.04979789 7.073772 3.223607 0.111803 6.523077 3.238244 0.04979789 6.581464 3.223607 0.111803 6.769231 3.223607 0.111803 6.276923 3.238244 0.04979789 6.33531 3.223607 0.111803 6.030769 3.238244 0.04979789 6.089157 3.223607 0.111803 5.292308 3.238244 0.04979789 5.350696 3.223607 0.111803 5.538462 3.223607 0.111803 5.046154 3.238244 0.04979789 5.104541 3.223607 0.111803 4.8 3.238244 0.04979789 4.858387 3.223607 0.111803 4.553846 3.238244 0.04979789 4.612234 3.223607 0.111803 4.307693 3.238244 0.04979813 4.36608 3.223607 0.111803 4.061539 3.238244 0.04979789 3.873772 2.764637 -0.06200504 3.873771 2.75 0 4.061538 3.238244 0.04979789 4.119926 3.223607 0.111803 3.815385 3.238244 0.04979789 3.627619 2.764637 -0.06200504 3.627618 2.75 0 3.815384 3.223607 0.111803 3.569231 3.238244 0.04979789 3.381464 2.764637 -0.06200504 3.381464 2.75 0 3.56923 3.223607 0.111803 3.076923 3.238244 0.04979813 2.889158 2.764637 -0.06200504 2.889157 2.75 0 3.076923 3.238244 0.04979789 3.13531 3.223607 0.111803 3.323077 3.223607 0.111803 2.584616 3.238244 0.04979789 2.643003 3.223607 0.111803 2.83077 3.223607 0.111803 2.092308 3.238244 0.04979789 1.904541 2.764637 -0.06200504 1.904541 2.75 0 2.092307 3.238244 0.04979789 2.150696 3.223607 0.111803 2.338462 3.223607 0.111803 1.846154 3.238244 0.04979789 1.658388 2.764637 -0.0620048 1.658387 2.75 0 1.846153 3.223607 0.111803 1.353847 3.238244 0.04979813 1.412234 3.223607 0.111803 1.6 3.223607 0.111803 -0.861538 3.238244 0.04979789 -0.8031505 3.223607 0.111803 -0.615384 3.223607 0.111803 -1.107692 3.238244 0.04979789 -1.295459 2.764637 -0.06200504 -1.295459 2.75 0 -1.107693 3.238244 0.04979789 -1.049304 3.223607 0.111803 -1.6 3.238244 0.04979813 -1.787765 2.764637 -0.06200504 -1.787766 2.75 0 -1.6 3.238244 0.04979789 -1.541612 3.223607 0.111803 -1.353846 3.223607 0.111803 -1.846153 3.238244 0.04979789 -2.03392 2.764637 -0.06200504 -2.033921 2.75 0 -1.846154 3.223607 0.111803 -2.338461 3.238244 0.04979789 -2.280073 3.223607 0.111803 -2.092307 3.223607 0.111803 -2.584615 3.238244 0.04979789 -2.526227 3.223607 0.111803 -2.830769 3.238244 0.04979789 -2.772382 3.223607 0.111803 -3.076923 3.238244 0.04979789 -3.018536 3.223607 0.111803 -3.323076 3.238244 0.04979789 -3.510843 2.764637 -0.06200504 -3.510843 2.75 0 -3.323077 3.238244 0.04979813 -3.264688 3.223607 0.111803 -3.815384 3.238244 0.04979789 -4.00315 2.764637 -0.06200504 -4.003151 2.75 0 -3.815385 3.238244 0.04979789 -3.756996 3.223607 0.111803 -3.56923 3.223607 0.111803 -4.061538 3.238244 0.04979789 -4.249304 2.764637 -0.06200504 -4.249306 2.75 0 -4.061539 3.223607 0.111803 -4.553846 3.238244 0.04979789 -4.495459 3.223607 0.111803 -4.307692 3.223607 0.111803 -5.046154 3.238244 0.04979813 -5.23392 2.764637 -0.06200504 -5.233921 2.75 0 -5.046154 3.238244 0.04979789 -4.987767 3.223607 0.111803 -4.8 3.223607 0.111803 -5.538461 3.238244 0.04979789 -5.480073 3.223607 0.111803 -5.292307 3.223607 0.111803 -5.784615 3.238244 0.04979789 -5.972382 2.764637 -0.0620048 -5.972382 2.75 0 -5.784616 3.238244 0.04979789 -5.726227 3.223607 0.111803 -6.030769 3.238244 0.04979789 -6.218535 2.764637 -0.06200504 -6.218535 2.75 0 -6.030769 3.223607 0.111803 -6.276923 3.238244 0.04979789 -6.46469 2.764637 -0.06200504 -6.46469 2.75 0 -6.276923 3.223607 0.111803 -6.76923 3.238244 0.04979789 -6.956996 2.764637 -0.06200504 -6.956997 2.75 0 -6.769231 3.238244 0.04979813 -6.710843 3.223607 0.111803 -6.523077 3.223607 0.111803 -7.261538 3.238244 0.04979789 -7.449305 2.764637 -0.0620048 -7.449305 2.75 0 -7.261539 3.238244 0.04979789 -7.20315 3.223607 0.111803 -7.015384 3.238244 0.04979789 -7.695458 3.223607 0.111803 -7.507692 2.75 0 -7.753846 2.764637 -0.06200504 -7.941613 2.75 0 -8 2.75 0 -7.507692 2.764637 -0.06200504 -7.695458 2.75 0 -7.015385 2.764637 -0.06200504 -7.203152 2.75 0 -6.523077 2.764637 -0.06200504 -6.710844 2.75 0 -5.538462 2.764637 -0.06200504 -5.726229 2.75 0 -5.292308 2.764637 -0.06200504 -5.480074 2.75 0 -4.8 2.764637 -0.06200504 -4.987767 2.764637 -0.06200504 -4.741612 3.238244 0.04979789 -4.741612 2.75 0 -4.307693 2.764637 -0.0620048 -4.495459 2.75 0 -4.553846 2.75 0 -3.569231 2.764637 -0.06200504 -3.756998 2.75 0 -3.076923 2.764637 -0.06200504 -3.264689 2.75 0 -2.83077 2.764637 -0.0620048 -3.018536 2.75 0 -2.584616 2.764637 -0.06200504 -2.772382 2.75 0 -2.338462 2.764637 -0.06200504 -2.526228 2.75 0 -2.092308 2.764637 -0.06200504 -2.280075 2.75 0 -1.353847 2.764637 -0.0620048 -1.541612 2.75 0 -0.861539 2.764637 -0.06200504 -1.049306 2.75 0 -0.615385 2.764637 -0.06200504 -0.8031515 2.764637 -0.06200504 -0.5569975 3.238244 0.04979789 -0.5569965 2.75 0 -0.369231 2.764637 -0.06200504 -0.3108435 3.238244 0.04979813 -0.3108425 3.223607 0.111803 -0.36923 2.75 0 -0.123077 2.764637 -0.06200504 -0.06468951 3.238244 0.04979789 -0.06468951 3.223607 0.111803 -0.123077 2.75 0 0.123077 2.764637 -0.0620048 0.1814644 3.238244 0.04979789 0.1814644 3.223607 0.111803 0.123077 2.75 0 0.36923 2.764637 -0.06200504 0.4276175 3.238244 0.04979789 0.4276185 3.223607 0.111803 0.369231 2.75 0 0.615384 2.764637 -0.06200504 0.6737715 3.238244 0.04979789 0.6737725 3.223607 0.111803 0.615385 2.75 0 0.861538 2.764637 -0.06200504 0.9199255 3.238244 0.04979789 0.9199265 3.223607 0.111803 0.861539 2.75 0 1.107692 2.764637 -0.06200504 1.166079 3.238244 0.04979789 1.16608 3.223607 0.111803 1.107693 2.75 0 1.6 2.764637 -0.06200504 1.412233 2.75 0 1.353846 2.75 0 2.338461 2.764637 -0.06200504 2.150695 2.764637 -0.06200504 2.396848 3.238244 0.04979789 2.396849 2.75 0 2.830769 2.764637 -0.06200504 2.643002 2.75 0 2.584615 2.75 0 3.323076 2.764637 -0.0620048 3.13531 2.75 0 4.307692 2.764637 -0.06200504 4.119925 2.75 0 4.553846 2.764637 -0.06200504 4.366079 2.75 0 4.8 2.764637 -0.06200504 4.612234 2.75 0 5.046154 2.764637 -0.06200504 4.858387 2.75 0 5.292307 2.764637 -0.0620048 5.104541 2.75 0 5.538461 2.764637 -0.06200504 5.350695 2.764637 -0.06200504 5.596848 3.238244 0.04979789 5.596849 2.75 0 5.784615 2.764637 -0.06200504 5.843002 3.238244 0.04979813 5.843003 3.223607 0.111803 5.784616 2.75 0 6.276923 2.764637 -0.06200504 6.089157 2.75 0 6.030769 2.75 0 6.523077 2.764637 -0.06200504 6.33531 2.75 0 6.76923 2.764637 -0.0620048 6.581464 2.764637 -0.06200504 6.827618 3.238244 0.04979789 6.827619 2.75 0 7.261538 2.764637 -0.06200504 7.073771 2.75 0 7.015384 2.75 0 7.507692 2.764637 -0.06200504 7.319925 2.764637 -0.06200504 7.56608 3.238244 0.04979789 7.56608 2.75 0 7.753846 2.764637 -0.06200504 7.812233 3.238244 0.04979789 7.812233 3.223607 0.111803 7.753846 7.044722 1.910557 -7.333333 7.044722 1.910557 -6.666666 7 2 -6.666666 7 2 -4 7.044722 1.910557 -4 6.498166 1.637279 -4.666666 6.453444 1.726722 -4.666666 7 2 -2 7.044722 1.910557 -2 7.044722 1.910557 -1.333333 7 2 -1.333333 7 2 1.333333 7.044722 1.910557 1.333333 6.498166 1.637279 0.6666667 6.453444 1.726722 0.6666667 7 2 4.666666 7.044722 1.910557 4.666666 7.044722 1.910557 5.333333 7 2 5.333333 7 2 6.666666 7.044722 1.910557 6.666666 6.498166 1.637279 6 6.453444 1.726722 6 7 2 7.333333 7.044722 1.910557 7.333333 7.044722 1.910557 8 7 2 8 6.453444 1.726722 7.333333 6.498166 1.637279 7.333333 6.498166 1.637279 6.666666 6.453444 1.726722 6.666666 6.453444 1.726722 5.333333 6.498166 1.637279 5.333333 7.044722 1.910557 6 7 2 6 6.453444 1.726722 4.666666 6.498166 1.637279 4.666666 6.498166 1.637279 4 6.453444 1.726722 4 6.453444 1.726722 0 6.498166 1.637279 0 7.044722 1.910557 0.6666667 7 2 0.6666667 6.453444 1.726722 -2 6.498166 1.637279 -2 6.498166 1.637279 -2.666667 6.453444 1.726722 -2.666667 6.453444 1.726722 -3.333333 6.498166 1.637279 -3.333333 6.498166 1.637279 -4 6.453444 1.726722 -4 6.453444 1.726722 -5.333333 6.498166 1.637279 -5.333333 7.044722 1.910557 -4.666666 7 2 -4.666666 6.453444 1.726722 -7.333333 6.498166 1.637279 -7.333333 6.498166 1.637279 -8 7.044722 1.910557 -2.666667 7 2 -2.666667 7 2 -3.333333 7.044722 1.910557 -3.333333 7.044722 1.910557 -0.6666667 6.498166 1.637279 -1.333333 6.498166 1.637279 -0.6666667 7.044722 1.910557 0 7.044722 1.910557 2 6.498166 1.637279 1.333333 6.498166 1.637279 2 7.044722 1.910557 2.666667 7.044722 1.910557 3.333333 6.498166 1.637279 2.666667 6.498166 1.637279 3.333333 7.044722 1.910557 4 7.044722 1.910557 -6 6.498166 1.637279 -6.666666 6.498166 1.637279 -6 7.044722 1.910557 -5.333333 7 2.25 3.05 7.2 2.25 3.05 7.2 2.25 2.2 7 2.25 2.2 7.2 2.8 -3.05 7.2 2.25 -3.05 7.2 2.25 -2.2 7.2 2.8 -2.2 7 2.8 -5.95 7.115625 2.8 -6.000982 7.115625 2.2 -6.000982 7 2.2 -5.95 7 2.2 -7.8 7.115625 2.2 -7.619731 7.115625 2.8 -7.619731 7 2.8 -7.8 7 2.2 5.95 7.115625 2.2 6.130269 7.115625 2.8 6.130269 7 2.8 5.95 7 2.2 7.8 7.115625 2.2 7.749018 7 2.2 7.56875 7 2.8 -7.56875 7.115625 2.8 -7.388482 7 2.8 -7.3375 7 2.8 -7.10625 7.115625 2.8 -7.157232 7.115625 2.2 -7.157232 7 2.2 -7.10625 7 2.8 -6.875 7.115625 2.8 -6.925981 7.115625 2.2 -6.925981 7 2.2 -6.875 7 2.8 -6.64375 7.115625 2.8 -6.463481 7 2.8 -6.4125 7.115625 2.8 -6.694732 7.115625 2.2 -6.694732 7 2.2 -6.64375 7 2.8 6.64375 7.115625 2.8 6.824018 7 2.8 6.875 7.115625 2.8 6.592768 7.115625 2.2 6.592768 7 2.2 6.64375 7.115625 2.8 7.055268 7 2.8 7.10625 7.115625 2.8 7.286519 7 2.8 7.3375 7.115625 2.8 7.517768 7 2.8 7.56875 7.115625 2.8 7.749018 7 2.8 7.8 7 2.2 -6.4125 7.115625 2.2 -6.232232 7.115625 2.8 -6.232232 7.115625 2.2 -6.463481 7 2.2 -7.3375 7.115625 2.2 -7.388482 7 2.2 -7.56875 7.115625 2.2 7.517768 7 2.2 7.3375 7.115625 2.2 7.286519 7 2.2 7.10625 7.115625 2.2 7.055268 7 2.2 6.875 7.115625 2.2 6.824018 7 2.2 6.18125 7.115625 2.2 6.361518 7.115625 2.8 6.361518 7 2.8 6.18125 7.2 2.25 1.5 7.2 2.8 1.5 7.2 2.8 -1.5 7.2 2.25 -1.5 2.75 0 8 3.223607 0.111803 8 7 2 0 6.453444 1.726722 -0.6666667 7 2 2.666667 6.453444 1.726722 2 7 2 3.333333 7 2 4 6.453444 1.726722 3.333333 6.453444 1.726722 2.666667 6.453444 1.726722 1.333333 7 2 2 6.453444 1.726722 -1.333333 7 2 -0.6666667 6.453444 1.726722 -6 6.453444 1.726722 -6.666666 7 2 -5.333333 7 2 -6 7 3 -3.05 7 2.25 -3.05 7.2 2.8 2.2 7.2 2.8 3.05 7 2.25 -2.2 7 3 -2.2 7 2.8 -6.18125 7 2.8 6.4125 7 2.2 -6.18125 7 2.2 6.4125 7 2.8 -1.5 7 2.8 1.5 7 2.25 1.5 7 2.25 -1.5 7 3 2.2 7 3 3.05 6.453444 1.726722 8 7 3 -8 7 3 -5.75 7 3 8 7 3 -4.75 7 3 4.75 7 3 5.75 7 3 -0.5 7 3 0.5 8 3 -5.75 8 3 -8 8 3 8 8 3 5.75 8 3 -3.05 8 3 -4.75 8 3 4.75 8 3 3.05 8 3 2.2 8 3 0.5 8 3 -0.5 8 3 -2.2 7 4.5 0.5 5.65836 5.170821 0.5 5.65836 5.170821 -0.5 7 4.5 -0.5 5.65836 5.170821 -5.75 5.65836 5.170821 -4.75 6.15836 6.170821 -4.75 6.15836 6.170821 -5.75 5.65836 5.170821 4.75 5.65836 5.170821 5.75 6.15836 6.170821 5.75 6.15836 6.170821 4.75 8 5.25 -0.5 6.15836 6.170821 -0.5 6.15836 6.170821 0.5 8 5.25 0.5 8 4.575 -5 8.300001 3.975 -5.05 8.300001 3.975 -5.45 8 4.575 -5.5 8 4.575 5.5 8.300001 3.975 5.45 8.300001 3.975 5.05 8 4.575 5 8.300001 3.975 0.2 8.300001 1 0.2 8.300001 1 -0.2 8.300001 3.975 -0.2 8 2.8 3.05 8 2.8 2.2 8 2 8 8 2 -8 7 4.5 5.75 7 4.5 4.75 7 4.5 -4.75 7 4.5 -5.75 8 5.25 5.75 8 5.25 4.75 8 5.25 -4.75 8 5.25 -5.75 8 2 0.25 8 4.575 0.25 8 4.575 -0.25 8 2 -0.25 8.300001 1 5.45 8.300001 1 5.05 8.300001 1 -5.05 8.300001 1 -5.45 8 1 0.25 8 1 -0.25 8 2.8 -2.2 8 2.8 -3.05 8 2 -5.5 8 2 -5 8 2 5.5 8 2 5 8 1 -5 8 1 -5.5 8 1 5.5 8 1 5 -7 2 -8 -6.453444 1.726722 -8 -7 2 -7.333333 -3.223607 0.111803 -8 -3.238244 0.04979789 -7.941613 -3.223607 0.111803 -7.753846 -3.223607 0.111803 7.261539 -3.238244 0.04979813 7.319926 -3.223607 0.111803 7.507692 -3.223607 0.111803 7.015385 -3.238244 0.04979789 7.073772 -3.223607 0.111803 6.523077 -3.238244 0.04979789 6.581464 -3.223607 0.111803 6.769231 -3.223607 0.111803 6.276923 -3.238244 0.04979789 6.33531 -3.223607 0.111803 6.030769 -3.238244 0.04979789 6.089157 -3.223607 0.111803 5.292308 -3.238244 0.04979789 5.350696 -3.223607 0.111803 5.538462 -3.223607 0.111803 5.046154 -3.238244 0.04979789 5.104541 -3.223607 0.111803 4.8 -3.238244 0.04979789 4.858387 -3.223607 0.111803 4.553846 -3.238244 0.04979789 4.612234 -3.223607 0.111803 4.307693 -3.238244 0.04979813 4.36608 -3.223607 0.111803 4.061539 -3.238244 0.04979789 3.873772 -2.764637 -0.06200504 3.873771 -2.75 0 4.061538 -3.238244 0.04979789 4.119926 -3.223607 0.111803 3.815385 -3.238244 0.04979789 3.627619 -2.764637 -0.06200504 3.627618 -2.75 0 3.815384 -3.223607 0.111803 3.569231 -3.238244 0.04979789 3.381464 -2.764637 -0.06200504 3.381464 -2.75 0 3.56923 -3.223607 0.111803 3.076923 -3.238244 0.04979813 2.889158 -2.764637 -0.06200504 2.889157 -2.75 0 3.076923 -3.238244 0.04979789 3.13531 -3.223607 0.111803 3.323077 -3.223607 0.111803 2.584616 -3.238244 0.04979789 2.643003 -3.223607 0.111803 2.83077 -3.223607 0.111803 2.092308 -3.238244 0.04979789 1.904541 -2.764637 -0.06200504 1.904541 -2.75 0 2.092307 -3.238244 0.04979789 2.150696 -3.223607 0.111803 2.338462 -3.223607 0.111803 1.846154 -3.238244 0.04979789 1.658388 -2.764637 -0.0620048 1.658387 -2.75 0 1.846153 -3.223607 0.111803 1.353847 -3.238244 0.04979813 1.412234 -3.223607 0.111803 1.6 -3.223607 0.111803 -0.861538 -3.238244 0.04979789 -0.8031505 -3.223607 0.111803 -0.615384 -3.223607 0.111803 -1.107692 -3.238244 0.04979789 -1.295459 -2.764637 -0.06200504 -1.295459 -2.75 0 -1.107693 -3.238244 0.04979789 -1.049304 -3.223607 0.111803 -1.6 -3.238244 0.04979813 -1.787765 -2.764637 -0.06200504 -1.787766 -2.75 0 -1.6 -3.238244 0.04979789 -1.541612 -3.223607 0.111803 -1.353846 -3.223607 0.111803 -1.846153 -3.238244 0.04979789 -2.03392 -2.764637 -0.06200504 -2.033921 -2.75 0 -1.846154 -3.223607 0.111803 -2.338461 -3.238244 0.04979789 -2.280073 -3.223607 0.111803 -2.092307 -3.223607 0.111803 -2.584615 -3.238244 0.04979789 -2.526227 -3.223607 0.111803 -2.830769 -3.238244 0.04979789 -2.772382 -3.223607 0.111803 -3.076923 -3.238244 0.04979789 -3.018536 -3.223607 0.111803 -3.323076 -3.238244 0.04979789 -3.510843 -2.764637 -0.06200504 -3.510843 -2.75 0 -3.323077 -3.238244 0.04979813 -3.264688 -3.223607 0.111803 -3.815384 -3.238244 0.04979789 -4.00315 -2.764637 -0.06200504 -4.003151 -2.75 0 -3.815385 -3.238244 0.04979789 -3.756996 -3.223607 0.111803 -3.56923 -3.223607 0.111803 -4.061538 -3.238244 0.04979789 -4.249304 -2.764637 -0.06200504 -4.249306 -2.75 0 -4.061539 -3.223607 0.111803 -4.553846 -3.238244 0.04979789 -4.495459 -3.223607 0.111803 -4.307692 -3.223607 0.111803 -5.046154 -3.238244 0.04979813 -5.23392 -2.764637 -0.06200504 -5.233921 -2.75 0 -5.046154 -3.238244 0.04979789 -4.987767 -3.223607 0.111803 -4.8 -3.223607 0.111803 -5.538461 -3.238244 0.04979789 -5.480073 -3.223607 0.111803 -5.292307 -3.223607 0.111803 -5.784615 -3.238244 0.04979789 -5.972382 -2.764637 -0.0620048 -5.972382 -2.75 0 -5.784616 -3.238244 0.04979789 -5.726227 -3.223607 0.111803 -6.030769 -3.238244 0.04979789 -6.218535 -2.764637 -0.06200504 -6.218535 -2.75 0 -6.030769 -3.223607 0.111803 -6.276923 -3.238244 0.04979789 -6.46469 -2.764637 -0.06200504 -6.46469 -2.75 0 -6.276923 -3.223607 0.111803 -6.76923 -3.238244 0.04979789 -6.956996 -2.764637 -0.06200504 -6.956997 -2.75 0 -6.769231 -3.238244 0.04979813 -6.710843 -3.223607 0.111803 -6.523077 -3.223607 0.111803 -7.261538 -3.238244 0.04979789 -7.449305 -2.764637 -0.0620048 -7.449305 -2.75 0 -7.261539 -3.238244 0.04979789 -7.20315 -3.223607 0.111803 -7.015384 -3.238244 0.04979789 -7.695458 -3.223607 0.111803 -7.507692 -2.75 0 -7.753846 -2.764637 -0.06200504 -7.941613 -2.75 0 -8 -2.75 0 -7.507692 -2.764637 -0.06200504 -7.695458 -2.75 0 -7.015385 -2.764637 -0.06200504 -7.203152 -2.75 0 -6.523077 -2.764637 -0.06200504 -6.710844 -2.75 0 -5.538462 -2.764637 -0.06200504 -5.726229 -2.75 0 -5.292308 -2.764637 -0.06200504 -5.480074 -2.75 0 -4.8 -2.764637 -0.06200504 -4.987767 -2.764637 -0.06200504 -4.741612 -3.238244 0.04979789 -4.741612 -2.75 0 -4.307693 -2.764637 -0.0620048 -4.495459 -2.75 0 -4.553846 -2.75 0 -3.569231 -2.764637 -0.06200504 -3.756998 -2.75 0 -3.076923 -2.764637 -0.06200504 -3.264689 -2.75 0 -2.83077 -2.764637 -0.0620048 -3.018536 -2.75 0 -2.584616 -2.764637 -0.06200504 -2.772382 -2.75 0 -2.338462 -2.764637 -0.06200504 -2.526228 -2.75 0 -2.092308 -2.764637 -0.06200504 -2.280075 -2.75 0 -1.353847 -2.764637 -0.0620048 -1.541612 -2.75 0 -0.861539 -2.764637 -0.06200504 -1.049306 -2.75 0 -0.615385 -2.764637 -0.06200504 -0.8031515 -2.764637 -0.06200504 -0.5569975 -3.238244 0.04979789 -0.5569965 -2.75 0 -0.369231 -2.764637 -0.06200504 -0.3108435 -3.238244 0.04979813 -0.3108425 -3.223607 0.111803 -0.36923 -2.75 0 -0.123077 -2.764637 -0.06200504 -0.06468951 -3.238244 0.04979789 -0.06468951 -3.223607 0.111803 -0.123077 -2.75 0 0.123077 -2.764637 -0.0620048 0.1814644 -3.238244 0.04979789 0.1814644 -3.223607 0.111803 0.123077 -2.75 0 0.36923 -2.764637 -0.06200504 0.4276175 -3.238244 0.04979789 0.4276185 -3.223607 0.111803 0.369231 -2.75 0 0.615384 -2.764637 -0.06200504 0.6737715 -3.238244 0.04979789 0.6737725 -3.223607 0.111803 0.615385 -2.75 0 0.861538 -2.764637 -0.06200504 0.9199255 -3.238244 0.04979789 0.9199265 -3.223607 0.111803 0.861539 -2.75 0 1.107692 -2.764637 -0.06200504 1.166079 -3.238244 0.04979789 1.16608 -3.223607 0.111803 1.107693 -2.75 0 1.6 -2.764637 -0.06200504 1.412233 -2.75 0 1.353846 -2.75 0 2.338461 -2.764637 -0.06200504 2.150695 -2.764637 -0.06200504 2.396848 -3.238244 0.04979789 2.396849 -2.75 0 2.830769 -2.764637 -0.06200504 2.643002 -2.75 0 2.584615 -2.75 0 3.323076 -2.764637 -0.0620048 3.13531 -2.75 0 4.307692 -2.764637 -0.06200504 4.119925 -2.75 0 4.553846 -2.764637 -0.06200504 4.366079 -2.75 0 4.8 -2.764637 -0.06200504 4.612234 -2.75 0 5.046154 -2.764637 -0.06200504 4.858387 -2.75 0 5.292307 -2.764637 -0.0620048 5.104541 -2.75 0 5.538461 -2.764637 -0.06200504 5.350695 -2.764637 -0.06200504 5.596848 -3.238244 0.04979789 5.596849 -2.75 0 5.784615 -2.764637 -0.06200504 5.843002 -3.238244 0.04979813 5.843003 -3.223607 0.111803 5.784616 -2.75 0 6.276923 -2.764637 -0.06200504 6.089157 -2.75 0 6.030769 -2.75 0 6.523077 -2.764637 -0.06200504 6.33531 -2.75 0 6.76923 -2.764637 -0.0620048 6.581464 -2.764637 -0.06200504 6.827618 -3.238244 0.04979789 6.827619 -2.75 0 7.261538 -2.764637 -0.06200504 7.073771 -2.75 0 7.015384 -2.75 0 7.507692 -2.764637 -0.06200504 7.319925 -2.764637 -0.06200504 7.56608 -3.238244 0.04979789 7.56608 -2.75 0 7.753846 -2.764637 -0.06200504 7.812233 -3.238244 0.04979789 7.812233 -3.223607 0.111803 7.753846 -7.044722 1.910557 -7.333333 -7.044722 1.910557 -6.666666 -7 2 -6.666666 -7 2 -4 -7.044722 1.910557 -4 -6.498166 1.637279 -4.666666 -6.453444 1.726722 -4.666666 -7 2 -2 -7.044722 1.910557 -2 -7.044722 1.910557 -1.333333 -7 2 -1.333333 -7 2 1.333333 -7.044722 1.910557 1.333333 -6.498166 1.637279 0.6666667 -6.453444 1.726722 0.6666667 -7 2 4.666666 -7.044722 1.910557 4.666666 -7.044722 1.910557 5.333333 -7 2 5.333333 -7 2 6.666666 -7.044722 1.910557 6.666666 -6.498166 1.637279 6 -6.453444 1.726722 6 -7 2 7.333333 -7.044722 1.910557 7.333333 -7.044722 1.910557 8 -7 2 8 -6.453444 1.726722 7.333333 -6.498166 1.637279 7.333333 -6.498166 1.637279 6.666666 -6.453444 1.726722 6.666666 -6.453444 1.726722 5.333333 -6.498166 1.637279 5.333333 -7.044722 1.910557 6 -7 2 6 -6.453444 1.726722 4.666666 -6.498166 1.637279 4.666666 -6.498166 1.637279 4 -6.453444 1.726722 4 -6.453444 1.726722 0 -6.498166 1.637279 0 -7.044722 1.910557 0.6666667 -7 2 0.6666667 -6.453444 1.726722 -2 -6.498166 1.637279 -2 -6.498166 1.637279 -2.666667 -6.453444 1.726722 -2.666667 -6.453444 1.726722 -3.333333 -6.498166 1.637279 -3.333333 -6.498166 1.637279 -4 -6.453444 1.726722 -4 -6.453444 1.726722 -5.333333 -6.498166 1.637279 -5.333333 -7.044722 1.910557 -4.666666 -7 2 -4.666666 -6.453444 1.726722 -7.333333 -6.498166 1.637279 -7.333333 -6.498166 1.637279 -8 -7.044722 1.910557 -2.666667 -7 2 -2.666667 -7 2 -3.333333 -7.044722 1.910557 -3.333333 -7.044722 1.910557 -0.6666667 -6.498166 1.637279 -1.333333 -6.498166 1.637279 -0.6666667 -7.044722 1.910557 0 -7.044722 1.910557 2 -6.498166 1.637279 1.333333 -6.498166 1.637279 2 -7.044722 1.910557 2.666667 -7.044722 1.910557 3.333333 -6.498166 1.637279 2.666667 -6.498166 1.637279 3.333333 -7.044722 1.910557 4 -7.044722 1.910557 -6 -6.498166 1.637279 -6.666666 -6.498166 1.637279 -6 -7.044722 1.910557 -5.333333 -7 2.25 3.05 -7.2 2.25 3.05 -7.2 2.25 2.2 -7 2.25 2.2 -7.2 2.8 -3.05 -7.2 2.25 -3.05 -7.2 2.25 -2.2 -7.2 2.8 -2.2 -7 2.8 -5.95 -7.115625 2.8 -6.000982 -7.115625 2.2 -6.000982 -7 2.2 -5.95 -7 2.2 -7.8 -7.115625 2.2 -7.619731 -7.115625 2.8 -7.619731 -7 2.8 -7.8 -7 2.2 5.95 -7.115625 2.2 6.130269 -7.115625 2.8 6.130269 -7 2.8 5.95 -7 2.2 7.8 -7.115625 2.2 7.749018 -7 2.2 7.56875 -7 2.8 -7.56875 -7.115625 2.8 -7.388482 -7 2.8 -7.3375 -7 2.8 -7.10625 -7.115625 2.8 -7.157232 -7.115625 2.2 -7.157232 -7 2.2 -7.10625 -7 2.8 -6.875 -7.115625 2.8 -6.925981 -7.115625 2.2 -6.925981 -7 2.2 -6.875 -7 2.8 -6.64375 -7.115625 2.8 -6.463481 -7 2.8 -6.4125 -7.115625 2.8 -6.694732 -7.115625 2.2 -6.694732 -7 2.2 -6.64375 -7 2.8 6.64375 -7.115625 2.8 6.824018 -7 2.8 6.875 -7.115625 2.8 6.592768 -7.115625 2.2 6.592768 -7 2.2 6.64375 -7.115625 2.8 7.055268 -7 2.8 7.10625 -7.115625 2.8 7.286519 -7 2.8 7.3375 -7.115625 2.8 7.517768 -7 2.8 7.56875 -7.115625 2.8 7.749018 -7 2.8 7.8 -7 2.2 -6.4125 -7.115625 2.2 -6.232232 -7.115625 2.8 -6.232232 -7.115625 2.2 -6.463481 -7 2.2 -7.3375 -7.115625 2.2 -7.388482 -7 2.2 -7.56875 -7.115625 2.2 7.517768 -7 2.2 7.3375 -7.115625 2.2 7.286519 -7 2.2 7.10625 -7.115625 2.2 7.055268 -7 2.2 6.875 -7.115625 2.2 6.824018 -7 2.2 6.18125 -7.115625 2.2 6.361518 -7.115625 2.8 6.361518 -7 2.8 6.18125 -7.2 2.25 1.5 -7.2 2.8 1.5 -7.2 2.8 -1.5 -7.2 2.25 -1.5 -2.75 0 8 -3.223607 0.111803 8 -7 2 0 -6.453444 1.726722 -0.6666667 -7 2 2.666667 -6.453444 1.726722 2 -7 2 3.333333 -7 2 4 -6.453444 1.726722 3.333333 -6.453444 1.726722 2.666667 -6.453444 1.726722 1.333333 -7 2 2 -6.453444 1.726722 -1.333333 -7 2 -0.6666667 -6.453444 1.726722 -6 -6.453444 1.726722 -6.666666 -7 2 -5.333333 -7 2 -6 -7 3 -3.05 -7 2.25 -3.05 -7.2 2.8 2.2 -7.2 2.8 3.05 -7 2.25 -2.2 -7 3 -2.2 -7 2.8 -6.18125 -7 2.8 6.4125 -7 2.2 -6.18125 -7 2.2 6.4125 -7 2.8 -1.5 -7 2.8 1.5 -7 2.25 1.5 -7 2.25 -1.5 -7 3 2.2 -7 3 3.05 -6.453444 1.726722 8 -7 3 -8 -7 3 -5.75 -7 3 8 -7 3 -4.75 -7 3 4.75 -7 3 5.75 -7 3 -0.5 -7 3 0.5 -8 3 -5.75 -8 3 -8 -8 3 8 -8 3 5.75 -8 3 -3.05 -8 3 -4.75 -8 3 4.75 -8 3 3.05 -8 3 2.2 -8 3 0.5 -8 3 -0.5 -8 3 -2.2 -7 4.5 0.5 -5.65836 5.170821 0.5 -5.65836 5.170821 -0.5 -7 4.5 -0.5 -5.65836 5.170821 -5.75 -5.65836 5.170821 -4.75 -6.15836 6.170821 -4.75 -6.15836 6.170821 -5.75 -5.65836 5.170821 4.75 -5.65836 5.170821 5.75 -6.15836 6.170821 5.75 -6.15836 6.170821 4.75 -8 5.25 -0.5 -6.15836 6.170821 -0.5 -6.15836 6.170821 0.5 -8 5.25 0.5 -8 4.575 -5 -8.300001 3.975 -5.05 -8.300001 3.975 -5.45 -8 4.575 -5.5 -8 4.575 5.5 -8.300001 3.975 5.45 -8.300001 3.975 5.05 -8 4.575 5 -8.300001 3.975 0.2 -8.300001 1 0.2 -8.300001 1 -0.2 -8.300001 3.975 -0.2 -8 2.8 3.05 -8 2.8 2.2 -8 2 8 -8 2 -8 -7 4.5 5.75 -7 4.5 4.75 -7 4.5 -4.75 -7 4.5 -5.75 -8 5.25 5.75 -8 5.25 4.75 -8 5.25 -4.75 -8 5.25 -5.75 -8 2 0.25 -8 4.575 0.25 -8 4.575 -0.25 -8 2 -0.25 -8.300001 1 5.45 -8.300001 1 5.05 -8.300001 1 -5.05 -8.300001 1 -5.45 -8 1 0.25 -8 1 -0.25 -8 2.8 -2.2 -8 2.8 -3.05 -8 2 -5.5 -8 2 -5 -8 2 5.5 -8 2 5 -8 1 -5 -8 1 -5.5 -8 1 5.5 -8 1 5</float_array>
          <technique_common>
            <accessor source="#Mesh-mesh-positions-array" count="1064" stride="3">
              <param name="X" type="float"/>
              <param name="Y" type="float"/>
              <param name="Z" type="float"/>
            </accessor>
          </technique_common>
        </source>
        <source id="Mesh-mesh-normals">
          <float_array id="Mesh-mesh-normals-array" count="1782">-0.4472127 0.8944277 0 -0.9732499 -0.2297494 0 -0.9732514 -0.229743 0 -0.9732502 -0.2297477 0 -0.97325 -0.2297485 0 -0.2175695 0.9216423 -0.3213084 -0.217568 0.9216425 -0.3213089 -0.2175686 0.9216423 -0.3213088 -0.2175688 0.921642 -0.3213097 -0.9732502 -0.2297481 0 -0.2175689 0.9216421 -0.3213092 -0.9732497 -0.22975 0 -0.9732502 -0.2297483 0 -0.9732519 -0.229741 0 -0.2175691 0.921642 -0.3213093 -0.2175683 0.9216424 -0.3213089 -0.217568 0.9216424 -0.3213089 -0.9732497 -0.2297498 0 -0.2175692 0.9216423 -0.3213088 -0.2175679 0.9216422 -0.3213096 -0.217568 0.9216423 -0.3213094 -0.2175692 0.9216422 -0.3213088 -0.2175692 0.9216423 -0.3213089 -0.2175681 0.9216425 -0.3213089 0.9732499 0.2297494 0 0.9732502 0.2297477 0 0.97325 0.2297485 0 -0.1552291 0.6575726 0.7372261 0.9732497 0.2297502 0 0.9732502 0.2297481 0 0.9732514 0.229743 0 0.973251 0.2297447 0 0.9732502 0.2297482 0 -0.1552318 0.6575704 0.7372275 -0.155232 0.6575704 0.7372274 -0.1552307 0.6575708 0.7372273 -0.1552308 0.6575704 0.7372277 -0.155232 0.6575703 0.7372274 -0.1552321 0.6575707 0.7372271 -0.1552322 0.6575703 0.7372275 0.9732502 0.2297483 0 -0.1552308 0.6575708 0.7372273 -0.1552338 0.6575689 0.7372283 -0.1552338 0.657569 0.7372283 -0.1552277 0.6575727 0.7372263 -0.1552318 0.6575723 0.7372257 -0.155231 0.6575697 0.7372283 -0.8944243 -0.4472193 0 0.6593495 0.32968 -0.6756991 -0.8944302 -0.4472079 0 0.8944243 0.4472193 0 -0.6593497 -0.3296801 0.6756989 0.8944302 0.4472075 0 0.8944302 0.4472077 0 0.8944302 0.4472079 0 -0.447213 0.8944275 0 -0.4472131 0.8944274 0 -0.4472129 0.8944275 0 -0.4472137 0.8944273 0 0 1 0 -1 0 0 -0.4034473 0 -0.915003 -0.8417364 0 0.5398887 0 -1 0 -0.4034367 0 -0.9150076 -0.403442 0 -0.9150053 -0.8417343 0 0.539892 -0.2175704 0.921642 -0.3213087 -0.2175697 0.921642 -0.3213093 -0.9732517 -0.2297413 0 -0.2175688 0.9216421 -0.3213092 -0.9732518 -0.2297412 0 -0.9732518 -0.2297411 0 -0.9732502 -0.2297483 0 -0.9732518 -0.2297411 0 -0.9732497 -0.2297501 0 -0.2175686 0.9216424 -0.3213088 -0.9732502 -0.2297484 0 -0.2175685 0.9216423 -0.3213092 -0.2175683 0.9216424 -0.3213088 -0.1552268 0.6575701 0.7372288 -0.1552394 0.6575684 0.7372277 -0.1552332 0.6575722 0.7372256 -0.1552283 0.6575696 0.737229 -0.1552296 0.6575697 0.7372285 -0.1552366 0.6575686 0.737228 -0.1552346 0.657572 0.7372255 -0.1552335 0.6575705 0.737227 -0.1552335 0.6575706 0.7372269 -0.1552303 0.6575697 0.7372284 -0.1552329 0.6575701 0.7372274 -0.1552315 0.6575703 0.7372276 -0.1552314 0.6575708 0.7372272 0.9732497 0.22975 0 0.9732505 0.2297465 0 0.9732505 0.2297465 0 0.9732502 0.2297483 0 0.9732505 0.2297465 0 0.9732518 0.2297411 0 0.9732505 0.2297466 0 -0.1552336 0.6575701 0.7372273 -0.1552305 0.6575725 0.737226 0.6593518 0.3296706 -0.6757015 -0.659352 -0.3296707 0.6757013 -0.4472141 0.894427 0 -0.4472138 0.8944271 0 0 0 1 0 0 -1 -0.2175686 0.9216423 -0.3213092 -0.2175688 0.9216421 -0.3213094 -0.2175693 0.921642 -0.3213092 -0.2175691 0.921642 -0.3213093 -0.2175685 0.9216424 -0.321309 -0.2175683 0.9216423 -0.3213092 -0.2175697 0.9216419 -0.3213095 -0.155236 0.6575719 0.7372253 -0.1552324 0.6575695 0.7372282 -0.1552333 0.6575722 0.7372256 -0.1552282 0.6575699 0.7372286 -0.1552329 0.6575706 0.737227 -0.155232 0.65757 0.7372279 -0.1552325 0.6575707 0.7372271 -0.1552319 0.6575703 0.7372276 -0.1552321 0.6575707 0.7372271 -0.1552321 0.6575706 0.7372272 -0.1552352 0.6575688 0.7372281 -0.1552305 0.6575724 0.7372259 -0.1552311 0.6575692 0.7372286 -0.8944246 -0.447219 0 -0.4472129 0.8944275 0 -0.8944242 -0.4472194 0 -0.4472146 0.8944268 0 7.94729e-7 0 1 -0.8417354 0 0.5398904 -0.2175685 0.9216421 -0.3213096 -0.4472116 0.8944282 0 -0.1552321 0.6575707 0.7372271 -0.447213 0.8944275 0 -0.4472147 0.8944266 0 -1 2.86102e-6 0 -0.4472138 -0.8944271 0 -0.8944273 0.4472137 0 0.4472138 0.8944272 0 0.8944275 0.4472131 0 1 0 0 -0.4472141 -0.894427 0 -0.4472137 -0.8944273 0 0.447214 0.8944271 0 0.4472137 0.8944273 0 0.1643989 0 0.9863939 0.1643988 0 0.986394 0.1643989 0 -0.986394 0.1643989 0 -0.986394 0.1643989 0 0.986394 0.1643989 0 -0.986394 0 0 -1 5.68661e-7 0 1 -4.14272e-7 0 1 -4.14272e-7 0 -1 0 0 -1 1.13732e-6 0 -1 0.1643963 0 -0.9863944 0.1643993 0 0.9863939 0.1643992 0 0.9863939 0.8944277 0.4472128 0 0.1643975 0 0.9863942 0.1643987 0 -0.986394 0.1644002 0 -0.9863938 0.1643995 0 0.9863939 0.1643995 0 -0.9863939 0.4472127 0.8944277 0 0.9732499 -0.2297494 0 0.9732514 -0.229743 0 0.9732502 -0.2297477 0 0.97325 -0.2297485 0 0.217569 0.9216424 -0.3213085 0.2175681 0.9216425 -0.321309 0.2175684 0.9216424 -0.3213089 0.2175688 0.921642 -0.3213097 0.9732502 -0.2297481 0 0.2175685 0.9216423 -0.3213089 0.2175689 0.9216421 -0.3213093 0.9732497 -0.22975 0 0.9732502 -0.2297483 0 0.2175686 0.9216423 -0.3213089 0.9732519 -0.229741 0 0.217569 0.9216421 -0.3213093 0.9732497 -0.2297498 0 0.2175689 0.9216423 -0.3213089 0.2175683 0.9216421 -0.3213097 0.2175685 0.9216421 -0.3213093 0.2175686 0.9216423 -0.3213089 -0.9732499 0.2297494 0 -0.9732502 0.2297477 0 -0.97325 0.2297485 0 0.1552332 0.6575721 0.7372256 -0.9732497 0.2297502 0 -0.9732502 0.2297481 0 -0.9732514 0.229743 0 -0.973251 0.2297447 0 -0.9732502 0.2297482 0 0.155232 0.6575703 0.7372275 0.1552321 0.6575703 0.7372275 0.1552307 0.6575704 0.7372277 0.1552307 0.6575719 0.7372264 0.1552321 0.6575707 0.7372272 0.1552321 0.6575706 0.7372272 -0.9732502 0.2297483 0 0.1552315 0.6575707 0.7372273 0.1552338 0.6575689 0.7372283 0.1552324 0.6575691 0.7372285 0.1552291 0.6575725 0.7372261 0.1552305 0.6575724 0.737226 0.1552255 0.6575698 0.7372293 0.8944243 -0.4472193 0 -0.6593509 0.3296807 -0.6756976 0.8944302 -0.4472079 0 -0.6593531 0.3296713 -0.6756999 -0.8944243 0.4472193 0 0.6593495 -0.32968 0.6756991 -0.8944302 0.4472075 0 -0.8944302 0.4472077 0 -0.8944302 0.4472079 0 0.4472139 0.8944271 0 0.4472138 0.8944271 0 0.4034473 0 -0.915003 0.8417364 0 0.5398887 0.4034367 0 -0.9150076 0.403442 0 -0.9150053 0.8417343 0 0.539892 0.1552311 0.6575692 0.7372287 0.2175698 0.9216421 -0.3213088 0.2175691 0.921642 -0.3213093 0.2175704 0.921642 -0.3213087 0.2175692 0.9216423 -0.3213089 0.2175697 0.921642 -0.3213093 0.9732517 -0.2297413 0 0.2175688 0.9216421 -0.3213093 0.9732518 -0.2297412 0 0.9732518 -0.2297411 0 0.9732502 -0.2297483 0 0.9732518 -0.2297411 0 0.9732497 -0.2297501 0 0.9732502 -0.2297484 0 0.2175686 0.9216422 -0.3213093 0.1552314 0.6575706 0.7372274 0.1552394 0.6575683 0.7372277 0.1552346 0.657572 0.7372255 0.1552283 0.6575695 0.737229 0.1552342 0.6575703 0.737227 0.1552366 0.6575686 0.737228 0.1552329 0.6575706 0.7372271 0.1552329 0.6575706 0.737227 0.15523 0.6575707 0.7372275 0.1552335 0.6575705 0.737227 0.1552315 0.6575707 0.7372272 -0.9732497 0.22975 0 -0.9732505 0.2297465 0 -0.9732505 0.2297465 0 -0.9732502 0.2297483 0 -0.9732505 0.2297465 0 -0.9732518 0.2297411 0 -0.9732505 0.2297466 0 0.1552297 0.6575723 0.7372261 0.1552308 0.6575707 0.7372273 0.1552286 0.6575708 0.7372277 0.1552305 0.6575724 0.737226 0.6593518 -0.3296706 0.6757015 0.4472131 0.8944274 0 0.2175688 0.9216422 -0.3213093 0.2175685 0.9216422 -0.3213093 0.2175688 0.9216422 -0.3213093 0.2175693 0.921642 -0.3213092 0.2175691 0.921642 -0.3213093 0.2175685 0.9216423 -0.3213089 0.2175683 0.9216423 -0.3213093 0.2175692 0.9216423 -0.3213089 0.2175691 0.9216419 -0.3213096 0.1552374 0.6575716 0.7372251 0.1552297 0.6575694 0.7372288 0.1552311 0.6575722 0.737226 0.1552332 0.6575706 0.737227 0.155232 0.6575699 0.7372279 0.1552325 0.6575706 0.7372271 0.1552305 0.6575715 0.7372268 0.1552329 0.6575706 0.7372272 0.1552321 0.6575707 0.7372272 0.1552352 0.6575688 0.7372282 0.1552259 0.6575712 0.737228 0.1552297 0.6575694 0.7372289 0.8944246 -0.447219 0 0.4472141 0.894427 0 0.447214 0.8944271 0 0.8944242 -0.4472194 0 0.4472136 0.8944272 0 0.8417354 0 0.5398904 0.4472146 0.8944268 0 0.217568 0.9216423 -0.3213098 0.4472131 0.8944276 0 0.1552335 0.6575704 0.737227 0.447215 0.8944266 0 0.447214 0.894427 0 0.4472129 0.8944275 0 1 2.86102e-6 0 1 -5.72205e-6 0 0.4472138 -0.8944271 0 0.8944273 0.4472137 0 -0.4472138 0.8944272 0 -0.8944274 0.4472135 0 0.4472141 -0.894427 0 0.4472137 -0.8944273 0 -0.447214 0.8944271 0 -0.1643989 0 0.9863939 -0.1643988 0 0.986394 -0.1643989 0 -0.986394 -0.1643989 0 -0.986394 -0.1643989 0 0.986394 -0.1643989 0 -0.986394 -5.68661e-7 0 1 4.14272e-7 0 1 4.14272e-7 0 -1 -1.13732e-6 0 -1 -0.1643963 0 -0.9863944 -0.1643993 0 0.9863939 -0.1643992 0 0.9863939 -0.8944278 0.4472125 0 -0.1643975 0 0.9863942 -0.1643987 0 -0.986394 -0.1644002 0 -0.9863938 -0.1643995 0 0.9863939 -0.1643995 0 -0.9863939 -0.2175684 0.9216424 -0.321309 -0.2175691 0.9216419 -0.3213096 -0.2175686 0.9216422 -0.3213093 -0.2175695 0.9216419 -0.3213096 -0.2175688 0.9216422 -0.3213093 -0.2175689 0.921642 -0.3213097 -0.2175691 0.9216421 -0.3213093 -0.2175686 0.9216421 -0.3213097 -0.2175678 0.9216424 -0.3213094 -0.2175689 0.9216421 -0.3213093 -0.2175676 0.9216423 -0.3213098 -0.2175695 0.921642 -0.3213092 -0.2175682 0.9216421 -0.3213097 -0.1552332 0.6575721 0.7372256 -0.155232 0.6575699 0.7372279 -0.1552328 0.6575712 0.7372266 -0.1552307 0.6575704 0.7372277 -0.1552307 0.6575719 0.7372264 -0.1552324 0.6575702 0.7372274 -0.1552321 0.6575698 0.7372279 -0.1552321 0.6575706 0.7372272 -0.1552332 0.657569 0.7372285 -0.1552311 0.6575692 0.7372287 -0.15523 0.6575707 0.7372276 -0.1552374 0.6575713 0.7372255 -0.1552305 0.6575724 0.737226 -0.1552255 0.6575698 0.7372293 0.6593509 0.3296807 -0.6756976 0.6593531 0.3296713 -0.6756999 -0.6593506 -0.3296806 0.6756978 0.8944242 0.4472197 0 -0.6593529 -0.3296712 0.6757001 0.8944242 0.4472194 0 -0.4472139 0.8944271 0 -0.4034525 0 -0.9150007 -0.1552311 0.6575692 0.7372287 -0.21757 0.9216418 -0.3213096 -0.2175689 0.9216421 -0.3213093 -0.2175695 0.921642 -0.3213093 -0.2175692 0.921642 -0.3213093 -0.2175688 0.9216421 -0.3213093 -0.2175686 0.921642 -0.3213097 -0.1552314 0.6575706 0.7372274 -0.1552347 0.6575716 0.7372258 -0.1552292 0.6575721 0.7372264 -0.1552355 0.6575701 0.7372269 -0.1552342 0.6575703 0.737227 -0.1552305 0.657572 0.7372263 -0.1552318 0.6575717 0.7372263 -0.15523 0.6575707 0.7372275 -0.1552308 0.6575704 0.7372277 -0.1552339 0.6575714 0.7372261 -0.1552297 0.6575723 0.7372261 -0.1552308 0.6575707 0.7372273 -0.1552286 0.6575708 0.7372277 -0.1552361 0.6575714 0.7372257 -0.2175683 0.9216423 -0.3213093 -0.2175694 0.9216418 -0.3213096 -0.2175691 0.9216419 -0.3213096 -0.2175687 0.9216422 -0.3213093 -0.2175688 0.9216422 -0.3213093 -0.2175686 0.9216423 -0.3213093 -0.2175694 0.921642 -0.3213092 -0.2175689 0.9216421 -0.3213093 -0.2175683 0.9216421 -0.3213098 -0.2175688 0.921642 -0.3213097 -0.2175678 0.9216424 -0.3213093 -0.1552283 0.6575695 0.737229 -0.1552311 0.6575722 0.737226 -0.1552317 0.6575695 0.7372283 -0.1552305 0.6575715 0.7372268 -0.1552329 0.6575706 0.7372272 -0.1552332 0.6575715 0.7372261 -0.1552324 0.657569 0.7372285 -0.1552297 0.6575694 0.7372289 -0.1552286 0.6575708 0.7372277 -0.1552259 0.6575712 0.737228 -0.1552327 0.6575704 0.7372273 -0.8944299 -0.4472082 0 -0.447214 0.8944271 0 -0.8944245 -0.4472192 0 -0.4472136 0.8944272 0 -0.2175701 0.9216418 -0.3213092 -0.4472133 0.8944274 0 -0.4472125 0.8944277 0 -0.4472144 0.8944269 0 -0.4472134 0.8944273 0 -0.4472143 0.8944268 0 -0.4472125 0.8944278 0 -0.4472141 0.894427 0 -0.4472148 0.8944267 0 -0.4472131 0.8944274 0 -0.4472138 0.8944272 0 -0.447214 0.894427 0 -0.447214 0.894427 0 -0.4472137 0.8944271 0 -0.4472145 0.8944268 0 -0.4472136 0.8944272 0 -0.447215 0.8944265 0 -0.4472137 0.8944272 0 -0.447214 0.8944271 0 -0.4472135 0.8944272 0 -0.4472126 0.8944276 0 -0.4472135 0.8944272 0 -0.4472137 0.8944272 0 -0.4472141 0.8944269 0 -0.4472125 0.8944278 0 -0.4472131 0.8944275 0 -0.4472138 0.8944271 0 -0.4472142 0.894427 0 -0.4472135 0.8944272 0 -0.4472138 0.8944272 0 -0.4472134 0.8944273 0 -0.4472139 0.8944271 0 -0.4472143 0.8944269 0 -0.4472137 0.8944272 0 -0.4472135 0.8944272 0 -0.4472137 0.8944272 0 -0.4472131 0.8944276 0 -0.4472151 0.8944265 0 -0.4472131 0.8944275 0 -0.4472142 0.894427 0 -0.4472141 0.894427 0 -0.447213 0.8944275 0 -0.4472126 0.8944278 0 -0.4472134 0.8944274 0 -0.4472131 0.8944275 0 -0.1552327 0.6575708 0.7372269 -0.1552335 0.6575704 0.737227 -0.447215 0.8944266 0 -1 1.43051e-6 0 -1 -1.43051e-6 0 -1 -5.72205e-6 0 -1 -4.29153e-6 0 -0.4472138 -0.8944271 0 0.4472138 0.8944272 0 0.894427 0.4472142 0 0.8944261 0.4472158 0 1 -1.41285e-6 0 -1 2.78155e-7 0 0.217568 0.9216424 -0.321309 0.2175691 0.9216419 -0.3213096 0.2175683 0.9216423 -0.3213093 0.2175686 0.9216422 -0.3213093 0.2175691 0.9216419 -0.3213096 0.2175689 0.9216421 -0.3213093 0.2175686 0.9216421 -0.3213097 0.2175683 0.9216423 -0.3213093 0.2175695 0.921642 -0.3213093 0.217567 0.9216423 -0.3213098 0.2175695 0.921642 -0.3213092 0.2175682 0.9216421 -0.3213097 0.1552291 0.6575726 0.7372261 0.1552318 0.6575698 0.7372279 0.1552328 0.6575711 0.7372266 0.1552307 0.6575708 0.7372273 0.1552308 0.6575704 0.7372277 0.1552324 0.6575702 0.7372275 0.1552326 0.6575702 0.7372275 0.1552322 0.6575703 0.7372275 0.1552338 0.6575689 0.7372284 0.1552311 0.6575691 0.7372287 0.1552314 0.6575705 0.7372274 0.1552361 0.6575714 0.7372257 0.1552318 0.6575723 0.7372257 0.155231 0.6575697 0.7372283 -0.6593495 0.32968 -0.6756991 0.6593509 -0.3296807 0.6756976 -0.8944242 0.4472197 0 0.6593531 -0.3296713 0.6756999 -0.8944242 0.4472194 0 0.447213 0.8944275 0 0.4034525 0 -0.9150007 0.2175694 0.9216418 -0.3213096 0.2175692 0.921642 -0.3213093 0.2175688 0.9216422 -0.3213093 0.2175688 0.921642 -0.3213097 0.1552268 0.6575701 0.7372288 0.1552361 0.6575713 0.7372257 0.1552305 0.6575719 0.7372263 0.1552278 0.6575723 0.7372266 0.1552341 0.6575702 0.7372271 0.1552296 0.6575697 0.7372285 0.1552322 0.6575702 0.7372275 0.1552326 0.6575716 0.7372263 0.1552303 0.6575697 0.7372284 0.1552329 0.6575701 0.7372274 0.1552315 0.6575703 0.7372276 0.1552308 0.6575703 0.7372277 0.1552339 0.6575714 0.7372261 0.1552308 0.6575708 0.7372273 0.1552336 0.6575701 0.7372273 -0.6593518 0.3296706 -0.6757015 0.2175687 0.9216421 -0.3213095 0.2175693 0.921642 -0.3213092 0.2175688 0.9216421 -0.3213093 0.217568 0.9216423 -0.3213098 0.2175676 0.9216423 -0.3213098 0.1552324 0.6575695 0.7372282 0.1552333 0.6575722 0.7372256 0.1552282 0.6575699 0.7372286 0.1552317 0.6575695 0.7372283 0.1552319 0.6575703 0.7372276 0.1552324 0.6575691 0.7372286 0.1552297 0.6575693 0.7372289 0.1552286 0.6575708 0.7372277 0.1552305 0.6575724 0.7372259 0.8944299 -0.4472082 0 0.4472129 0.8944275 0 0.8944245 -0.4472192 0 0.2175707 0.9216418 -0.3213092 0.4472125 0.8944277 0 0.4472133 0.8944274 0 0.4472144 0.8944269 0 0.4472137 0.8944271 0 0.4472131 0.8944274 0 0.4472143 0.8944268 0 0.4472142 0.894427 0 0.447214 0.894427 0 0.4472116 0.8944282 0 0.4472148 0.8944267 0 0.447214 0.8944271 0 0.4472135 0.8944272 0 0.4472126 0.8944276 0 0.4472144 0.8944268 0 0.4472147 0.8944267 0 0.447215 0.8944265 0 0.4472138 0.8944272 0 0.4472125 0.8944278 0 0.4472137 0.8944272 0 0.4472131 0.8944275 0 0.4472141 0.8944269 0 0.4472125 0.8944278 0 0.4472135 0.8944273 0 0.4472142 0.894427 0 0.4472131 0.8944275 0 0.4472136 0.8944272 0 0.4472138 0.8944271 0 0.4472135 0.8944272 0 0.4472134 0.8944273 0 0.4472137 0.8944272 0 0.4472137 0.8944272 0 0.4472138 0.8944272 0 0.4472135 0.8944273 0 0.4472141 0.894427 0 0.4472135 0.8944272 0 0.447213 0.8944275 0 0.4472139 0.8944271 0 0.4472151 0.8944265 0 0.4472134 0.8944274 0 0.4472131 0.8944275 0 0.4472143 0.8944269 0 0.4472139 0.8944271 0 0.1552327 0.6575707 0.7372269 0.447213 0.8944275 0 0.4472147 0.8944266 0 1 1.43051e-6 0 1 -4.29153e-6 0 1 2.72478e-6 0 0.4472138 -0.8944271 0 -0.4472138 0.8944272 0 -0.8944272 0.4472136 0 -0.8944259 0.4472162 0</float_array>
          <technique_common>
            <accessor source="#Mesh-mesh-normals-array" count="594" stride="3">
              <param name="X" type="float"/>
              <param name="Y" type="float"/>
              <param name="Z" type="float"/>
            </accessor>
          </technique_common>
        </source>
        <vertices id="Mesh-mesh-vertices">
          <input semantic="POSITION" source="#Mesh-mesh-positions"/>
        </vertices>
        <triangles material="Material_000-material" count="518">
          <input semantic="VERTEX" source="#Mesh-mesh-vertices" offset="0"/>
          <input semantic="NORMAL" source="#Mesh-mesh-normals" offset="1"/>
          <p>3 1 4 1 5 1 6 2 7 2 8 2 9 3 10 3 6 3 11 4 12 4 13 4 14 1 15 1 11 1 16 4 17 4 14 4 18 3 19 3 20 3 21 1 22 1 18 1 23 1 24 1 21 1 25 4 26 4 23 4 27 2 28 2 25 2 29 3 33 3 27 3 42 9 46 9 47 9 48 9 49 9 50 9 51 9 55 9 56 9 61 11 62 11 63 11 64 12 65 12 66 12 67 13 71 13 64 13 72 12 76 12 77 12 82 4 83 4 84 4 85 9 86 9 82 9 87 4 88 4 85 4 89 4 90 4 87 4 91 17 95 17 89 17 96 4 100 4 101 4 106 3 107 3 108 3 109 1 113 1 114 1 115 4 116 4 117 4 118 4 122 4 115 4 131 2 135 2 136 2 137 4 141 4 142 4 5 3 143 3 144 3 145 24 146 24 147 24 148 25 149 25 145 25 150 25 151 25 140 25 152 26 153 26 134 26 154 25 155 25 121 25 156 26 157 26 154 26 158 24 159 24 112 24 162 28 163 28 164 28 165 29 166 29 99 29 167 29 168 29 94 29 169 28 170 28 167 28 171 26 172 26 169 26 173 26 174 26 171 26 175 29 176 29 173 29 177 30 178 30 75 30 179 31 180 31 70 31 181 32 182 32 179 32 213 40 214 40 215 40 216 29 217 29 54 29 220 29 221 29 222 29 223 28 224 28 45 28 225 25 226 25 32 25 227 25 228 25 225 25 229 26 230 26 227 26 231 24 232 24 229 24 233 28 234 28 231 28 235 25 236 25 233 25 243 26 244 26 245 26 246 24 247 24 243 24 248 28 249 28 246 28 252 25 253 25 254 25 255 25 256 25 252 25 346 60 348 60 345 60 414 60 416 60 413 60 417 24 260 24 259 24 262 1 261 1 418 1 242 2 241 2 16 2 34 4 30 4 29 4 47 9 39 9 38 9 50 2 43 2 42 2 57 9 52 9 51 9 63 69 58 69 57 69 212 12 211 12 61 12 208 71 207 71 212 71 200 72 199 72 204 72 196 73 195 73 200 73 192 74 191 74 196 74 188 75 187 75 192 75 66 77 184 77 188 77 77 4 68 4 67 4 84 12 79 12 78 12 114 3 161 3 106 3 123 3 119 3 118 3 127 3 124 3 123 3 136 1 128 1 127 1 142 4 132 4 131 4 134 26 133 26 150 26 130 24 129 24 152 24 126 25 125 25 130 25 121 28 120 28 126 28 164 25 160 25 158 25 81 40 80 40 175 40 70 40 69 40 177 40 185 93 183 93 181 93 189 94 186 94 185 94 193 95 190 95 189 95 197 96 194 96 193 96 201 97 198 97 197 97 209 40 206 40 205 40 215 98 210 98 209 98 60 99 59 99 213 99 54 29 53 29 60 29 45 26 44 26 220 26 41 29 40 29 223 29 32 26 31 26 37 26 245 25 240 25 239 25 343 60 438 60 437 60 8 4 258 4 262 4 13 3 251 3 9 3 20 3 238 3 242 3 38 4 35 4 34 4 56 4 219 4 48 4 204 71 203 71 208 71 78 11 73 11 72 11 101 4 92 4 91 4 102 9 97 9 96 9 108 4 103 4 102 4 117 2 110 2 109 2 144 3 138 3 137 3 140 28 139 28 148 28 112 24 111 24 156 24 105 25 104 25 162 25 99 26 98 26 105 26 94 26 93 26 165 26 75 98 74 98 81 98 205 40 202 40 201 40 222 26 218 26 216 26 37 26 36 26 41 26 239 25 237 25 235 25 254 25 250 25 248 25 259 26 257 26 255 26 293 135 14 135 11 135 489 143 491 143 488 143 493 143 495 143 492 143 497 144 499 144 496 144 500 59 437 59 438 59 512 149 496 149 513 149 512 150 497 150 496 150 514 151 499 151 515 151 516 144 494 144 493 144 499 152 498 152 515 152 518 144 490 144 489 144 520 153 497 153 512 153 521 154 515 154 498 154 491 161 490 161 524 161 525 162 489 162 488 162 525 163 518 163 489 163 496 164 514 164 513 164 526 165 493 165 492 165 526 163 516 163 493 163 495 166 494 166 527 166 494 167 517 167 527 167 490 167 519 167 524 167 528 168 518 168 525 168 529 169 524 169 519 169 530 168 516 168 526 168 531 169 527 169 517 169 522 59 345 59 348 59 535 171 537 171 536 171 538 172 540 172 539 172 541 173 538 173 542 173 543 174 545 174 544 174 546 171 543 171 547 171 548 174 546 174 549 174 550 173 552 173 551 173 553 171 550 171 554 171 555 171 553 171 556 171 557 174 555 174 558 174 559 172 557 172 560 172 561 173 559 173 565 173 574 179 579 179 578 179 580 179 582 179 581 179 583 179 588 179 587 179 593 182 595 182 594 182 596 183 598 183 597 183 599 185 596 185 603 185 604 183 609 183 608 183 614 174 616 174 615 174 617 179 614 179 618 179 619 174 617 174 620 174 621 174 619 174 622 174 623 187 621 187 627 187 628 174 633 174 632 174 638 173 640 173 639 173 641 171 646 171 645 171 647 174 649 174 648 174 650 174 647 174 654 174 663 172 668 172 667 172 669 174 674 174 673 174 537 173 676 173 675 173 677 192 679 192 678 192 680 193 677 193 681 193 682 193 672 193 683 193 684 194 666 194 685 194 686 193 653 193 687 193 688 194 686 194 689 194 690 192 644 192 691 192 694 196 696 196 695 196 697 197 631 197 698 197 699 197 626 197 700 197 701 196 699 196 702 196 703 194 701 194 704 194 705 194 703 194 706 194 707 197 705 197 708 197 709 198 607 198 710 198 711 199 602 199 712 199 713 200 711 200 714 200 745 207 747 207 746 207 748 197 586 197 749 197 752 197 754 197 753 197 755 196 577 196 756 196 757 193 564 193 758 193 759 193 757 193 760 193 761 194 759 194 762 194 763 192 761 192 764 192 765 196 763 196 766 196 767 193 765 193 768 193 775 194 777 194 776 194 778 192 775 192 779 192 780 196 778 196 781 196 784 193 786 193 785 193 787 193 784 193 788 193 880 144 878 144 877 144 948 144 946 144 945 144 949 192 791 192 792 192 794 171 950 171 793 171 774 172 548 172 773 172 566 174 561 174 562 174 579 179 570 179 571 179 582 172 574 172 575 172 589 179 583 179 584 179 595 236 589 236 590 236 744 183 593 183 743 183 740 238 744 238 739 238 732 239 736 239 731 239 728 240 732 240 727 240 724 241 728 241 723 241 720 242 724 242 719 242 598 243 720 243 716 243 609 174 599 174 600 174 616 183 610 183 611 183 646 173 638 173 693 173 655 173 650 173 651 173 659 173 655 173 656 173 668 171 659 171 660 171 674 174 663 174 664 174 666 194 682 194 665 194 662 192 684 192 661 192 658 193 662 193 657 193 653 196 658 196 652 196 696 193 690 193 692 193 613 207 707 207 612 207 602 207 709 207 601 207 717 256 713 256 715 256 721 257 717 257 718 257 725 258 721 258 722 258 729 259 725 259 726 259 733 260 729 260 730 260 741 207 737 207 738 207 747 261 741 261 742 261 592 262 745 262 591 262 586 197 592 197 585 197 577 194 752 194 576 194 573 197 755 197 572 197 564 194 569 194 563 194 777 193 771 193 772 193 970 144 875 144 969 144 540 174 794 174 790 174 545 173 541 173 783 173 552 173 774 173 770 173 570 174 566 174 567 174 588 174 580 174 751 174 736 238 740 238 735 238 610 182 604 182 605 182 633 174 623 174 624 174 634 179 628 179 629 179 640 174 634 174 635 174 649 172 641 172 642 172 676 173 669 173 670 173 672 196 680 196 671 196 644 192 688 192 643 192 637 193 694 193 636 193 631 194 637 194 630 194 626 194 697 194 625 194 607 261 613 261 606 261 737 207 733 207 734 207 754 194 748 194 750 194 569 194 573 194 568 194 771 193 767 193 769 193 786 193 780 193 782 193 791 194 787 194 789 194 561 298 566 298 833 298 1023 308 1021 308 1020 308 1027 308 1025 308 1024 308 1031 60 1029 60 1028 60 969 59 1032 59 970 59 1044 312 1045 312 1028 312 1044 313 1028 313 1029 313 1046 314 1047 314 1031 314 1026 60 1048 60 1025 60 1031 315 1047 315 1030 315 1022 60 1050 60 1021 60 1052 316 1044 316 1029 316 1053 317 1030 317 1047 317 1023 322 1056 322 1022 322 1057 323 1020 323 1021 323 1057 324 1021 324 1050 324 1046 325 1028 325 1045 325 1058 326 1024 326 1025 326 1058 324 1025 324 1048 324 1027 327 1059 327 1026 327 1026 328 1059 328 1049 328 1022 328 1056 328 1051 328 1060 329 1057 329 1050 329 1061 330 1051 330 1056 330 1062 329 1058 329 1048 329 1063 330 1049 330 1059 330 877 59 1054 59 880 59 346 60 347 60 348 60 414 60 415 60 416 60 343 60 342 60 438 60 3 414 5 414 1 414 5 415 144 415 318 415 1 416 5 416 318 416 137 417 142 417 318 417 142 418 131 418 432 418 269 419 109 419 114 419 109 420 269 420 314 420 131 421 136 421 432 421 269 416 114 416 106 416 144 414 137 414 318 414 432 58 318 58 142 58 314 422 431 422 118 422 431 423 432 423 127 423 313 424 269 424 108 424 306 425 309 425 82 425 309 426 310 426 89 426 123 427 431 427 127 427 432 135 136 135 127 135 429 428 306 428 72 428 431 429 123 429 118 429 420 58 429 58 67 58 302 430 420 430 188 430 314 414 118 414 115 414 310 431 313 431 101 431 269 414 106 414 108 414 313 432 102 432 96 432 314 433 115 433 117 433 422 434 427 434 63 434 427 435 277 435 212 435 101 436 313 436 96 436 277 307 302 307 200 307 314 421 117 421 109 421 102 437 313 437 108 437 309 438 87 438 85 438 306 439 82 439 84 439 306 440 78 440 72 440 101 438 91 438 310 438 91 441 89 441 310 441 429 442 77 442 67 442 78 443 306 443 84 443 77 444 429 444 72 444 89 445 87 445 309 445 420 439 67 439 64 439 85 129 82 129 309 129 420 439 64 439 66 439 188 435 420 435 66 435 302 446 192 446 196 446 277 447 200 447 204 447 192 448 302 448 188 448 302 435 196 435 200 435 277 447 204 447 208 447 212 439 277 439 208 439 427 444 212 444 61 444 422 440 63 440 57 440 422 417 57 417 51 417 426 436 56 436 48 436 63 439 427 439 61 439 422 441 51 441 56 441 56 439 426 439 422 439 426 129 48 129 50 129 50 410 42 410 426 410 425 442 42 442 47 442 42 423 425 423 426 423 425 438 47 438 38 438 425 431 38 431 301 431 34 449 29 449 301 449 29 450 27 450 301 450 38 438 34 438 301 438 27 451 25 451 298 451 25 416 23 416 298 416 298 419 23 419 21 419 294 452 298 452 21 452 298 423 301 423 27 423 293 426 285 426 14 426 285 435 294 435 242 435 21 414 18 414 294 414 290 453 293 453 9 453 418 414 451 414 262 414 451 416 290 416 262 416 6 454 8 454 290 454 8 415 262 415 290 415 294 433 18 433 20 433 20 450 242 450 294 450 285 416 16 416 14 416 11 450 13 450 293 450 13 455 9 455 293 455 9 456 6 456 290 456 285 457 242 457 16 457 489 467 490 467 491 467 493 467 494 467 495 467 497 144 498 144 499 144 500 59 501 59 437 59 516 144 517 144 494 144 518 144 519 144 490 144 496 468 499 468 514 468 522 59 523 59 345 59 880 144 879 144 878 144 948 144 947 144 946 144 970 144 874 144 875 144 676 542 537 542 850 542 537 543 535 543 533 543 676 543 850 543 669 543 533 544 850 544 537 544 964 545 963 545 659 545 963 546 846 546 650 546 674 148 850 148 964 148 674 543 669 543 850 543 964 547 663 547 674 547 846 548 801 548 641 548 801 549 845 549 640 549 964 550 659 550 668 550 668 551 663 551 964 551 845 301 842 301 633 301 841 552 838 552 614 552 838 553 961 553 604 553 846 554 649 554 647 554 659 555 963 555 655 555 649 556 846 556 641 556 961 148 952 148 599 148 655 557 963 557 650 557 842 558 841 558 621 558 801 559 646 559 641 559 650 543 846 543 647 543 952 560 834 560 720 560 834 142 809 142 732 142 619 561 841 561 617 561 801 543 640 543 638 543 646 544 801 544 638 544 841 562 619 562 621 562 809 545 959 545 744 545 640 563 845 563 634 563 634 564 845 564 628 564 628 565 845 565 633 565 633 566 842 566 623 566 617 539 841 539 614 539 959 567 954 567 595 567 954 568 958 568 588 568 614 568 838 568 616 568 623 569 842 569 621 569 610 565 838 565 604 565 616 570 838 570 610 570 834 571 724 571 720 571 724 572 834 572 728 572 604 552 961 552 609 552 609 573 961 573 599 573 958 545 957 545 574 545 728 572 834 572 732 572 957 552 833 552 570 552 599 572 952 572 596 572 830 548 826 548 553 548 826 545 817 545 774 545 952 568 598 568 596 568 833 545 830 545 559 545 732 574 809 574 736 574 598 294 952 294 720 294 825 575 822 575 541 575 822 544 983 544 794 544 794 543 983 543 950 543 817 558 825 558 546 558 740 573 809 573 744 573 736 576 809 576 740 576 794 542 540 542 822 542 540 577 538 577 822 577 822 543 538 543 541 543 959 578 593 578 744 578 541 554 545 554 825 554 545 579 543 579 825 579 593 568 959 568 595 568 589 580 954 580 583 580 595 565 954 565 589 565 546 555 548 555 817 555 548 581 774 581 817 581 825 550 543 550 546 550 583 569 954 569 588 569 774 579 552 579 826 579 552 554 550 554 826 554 588 582 958 582 580 582 582 292 958 292 574 292 550 543 553 543 826 543 553 559 555 559 830 559 580 298 958 298 582 298 555 544 557 544 830 544 557 581 559 581 830 581 574 583 957 583 579 583 559 579 561 579 833 579 579 298 957 298 570 298 570 566 833 566 566 566 1023 592 1022 592 1021 592 1027 592 1026 592 1025 592 1031 60 1030 60 1029 60 969 59 1033 59 1032 59 1026 60 1049 60 1048 60 1022 60 1051 60 1050 60 1046 593 1031 593 1028 593 877 59 1055 59 1054 59</p>
        </triangles>
        <triangles material="Material_003-material" count="616">
          <input semantic="VERTEX" source="#Mesh-mesh-vertices" offset="0"/>
          <input semantic="NORMAL" source="#Mesh-mesh-normals" offset="1"/>
          <p>342 59 344 59 341 59 361 59 362 59 363 59 364 63 365 63 366 63 375 63 376 63 377 63 381 63 382 63 383 63 383 63 387 63 388 63 388 63 389 63 390 63 390 63 391 63 392 63 392 63 393 63 394 63 395 59 398 59 380 59 399 59 400 59 401 59 363 59 402 59 403 59 403 59 404 59 405 59 405 59 406 59 407 59 407 59 408 59 386 59 436 106 345 106 435 106 348 107 439 107 440 107 356 63 355 63 364 63 360 63 359 63 412 63 367 63 372 63 371 63 377 63 397 63 441 63 412 63 411 63 442 63 443 59 396 59 395 59 374 59 373 59 370 59 401 59 354 59 353 59 444 59 410 59 409 59 409 59 358 59 357 59 415 63 446 63 445 63 413 59 448 59 447 59 344 132 437 132 449 132 438 107 341 107 450 107 347 59 436 59 439 59 352 59 351 59 443 59 366 63 368 63 367 63 371 63 378 63 375 63 441 63 350 63 349 63 442 63 384 63 381 63 380 59 379 59 374 59 370 59 369 59 399 59 386 59 385 59 444 59 414 107 447 107 446 107 416 106 445 106 448 106 353 60 452 60 0 60 289 60 361 60 286 60 375 60 377 60 453 60 394 60 289 60 454 60 435 60 455 60 266 60 453 60 352 60 433 60 424 60 278 60 456 60 388 60 390 60 454 60 445 60 459 60 458 60 459 60 446 60 449 60 2 60 353 60 0 60 265 60 353 60 2 60 434 60 433 60 352 60 434 60 352 60 265 60 323 60 322 60 436 60 322 139 270 139 439 139 428 60 344 60 447 60 428 139 421 139 344 139 421 60 423 60 341 60 281 60 357 60 457 60 282 60 357 60 297 60 409 60 357 60 282 60 440 60 445 60 458 60 344 60 421 60 341 60 344 60 449 60 446 60 344 60 446 60 447 60 436 60 322 60 439 60 439 60 445 60 440 60 352 60 453 60 349 60 360 60 457 60 357 60 357 60 281 60 297 60 401 60 353 60 265 60 448 60 445 60 439 60 453 59 461 59 452 59 463 59 454 59 462 59 435 59 465 59 455 59 467 59 456 59 466 59 449 59 469 59 459 59 471 59 458 59 470 59 473 140 475 140 472 140 477 141 479 141 476 141 481 141 483 141 480 141 485 142 487 142 484 142 502 106 454 106 289 106 461 107 0 107 452 107 481 145 505 145 504 145 477 146 507 146 506 146 473 141 485 141 474 141 508 147 483 147 482 147 510 148 479 148 478 148 471 107 348 107 440 107 345 106 464 106 435 106 453 107 507 107 460 107 456 107 505 107 466 107 463 106 504 106 457 106 465 106 506 106 455 106 458 155 475 155 470 155 469 106 472 106 459 106 475 107 485 107 484 107 472 106 469 106 487 106 472 106 486 106 473 106 472 106 487 106 486 106 504 106 463 106 508 106 504 156 482 156 481 156 504 157 508 157 482 157 505 107 483 107 509 107 506 106 465 106 510 106 506 106 478 106 477 106 506 106 510 106 478 106 507 158 479 158 511 158 511 107 460 107 507 107 509 107 466 107 505 107 484 159 470 159 475 159 480 107 483 107 505 107 476 160 479 160 507 160 485 107 475 107 474 107 467 107 438 107 450 107 437 106 468 106 449 106 526 144 492 144 463 144 460 144 491 144 524 144 470 144 484 144 514 144 469 144 513 144 487 144 511 144 491 144 460 144 510 144 465 144 488 144 488 144 511 144 510 144 509 144 495 144 466 144 508 144 463 144 492 144 492 144 509 144 508 144 513 144 484 144 487 144 522 144 470 144 515 144 500 144 466 144 527 144 506 60 453 60 455 60 504 60 456 60 457 60 472 60 458 60 459 60 876 59 874 59 873 59 893 59 895 59 894 59 896 63 898 63 897 63 907 63 909 63 908 63 913 63 915 63 914 63 915 63 920 63 919 63 920 63 922 63 921 63 922 63 924 63 923 63 924 63 926 63 925 63 927 59 912 59 930 59 931 59 933 59 932 59 895 59 935 59 934 59 935 59 937 59 936 59 937 59 939 59 938 59 939 59 918 59 940 59 877 106 968 106 967 106 880 107 971 107 879 107 888 63 896 63 887 63 892 63 944 63 891 63 899 63 903 63 904 63 909 63 973 63 929 63 944 63 974 63 943 63 975 59 927 59 928 59 906 59 902 59 905 59 933 59 885 59 886 59 976 59 941 59 942 59 941 59 889 59 890 59 978 63 947 63 977 63 980 59 945 59 979 59 969 106 876 106 981 106 873 107 970 107 982 107 968 59 879 59 971 59 884 59 975 59 883 59 898 63 899 63 900 63 903 63 907 63 910 63 973 63 881 63 882 63 974 63 913 63 916 63 912 59 906 59 911 59 902 59 931 59 901 59 918 59 976 59 917 59 979 107 946 107 978 107 977 106 948 106 980 106 984 144 885 144 532 144 821 144 818 144 893 144 907 144 903 144 985 144 821 144 926 144 986 144 798 144 849 144 987 144 985 144 965 144 884 144 982 144 988 144 956 144 920 144 915 144 986 144 991 144 977 144 990 144 991 144 981 144 978 144 534 144 532 144 885 144 797 144 534 144 885 144 966 144 884 144 965 144 966 144 797 144 884 144 855 144 968 144 854 144 854 303 971 303 802 303 806 304 837 304 979 304 960 303 876 303 953 303 953 144 873 144 955 144 813 144 989 144 889 144 814 144 829 144 889 144 918 144 939 144 814 144 972 144 990 144 977 144 876 144 873 144 953 144 876 144 978 144 981 144 876 144 979 144 978 144 968 144 971 144 854 144 971 144 972 144 977 144 884 144 881 144 985 144 892 144 889 144 989 144 889 144 829 144 813 144 902 144 906 144 797 144 980 144 971 144 977 144 993 59 985 59 984 59 986 59 995 59 994 59 997 59 967 59 987 59 988 59 999 59 998 59 1001 59 981 59 991 59 990 59 1003 59 1002 59 1007 305 1005 305 1004 305 1011 306 1009 306 1008 306 1015 306 1013 306 1012 306 1019 307 1017 307 1016 307 986 106 1034 106 821 106 532 107 993 107 984 107 1037 309 1013 309 1036 309 1039 310 1009 310 1038 310 1017 306 1005 306 1006 306 1015 311 1040 311 1014 311 1011 58 1042 58 1010 58 1003 107 880 107 1054 107 877 106 996 106 1055 106 985 107 992 107 1039 107 988 107 998 107 1037 107 995 106 989 106 1036 106 997 106 987 106 1038 106 990 155 1002 155 1007 155 1001 106 991 106 1004 106 1007 107 1016 107 1017 107 1004 106 1019 106 1001 106 1004 106 1005 106 1018 106 1004 106 1018 106 1019 106 1036 106 1040 106 995 106 1036 318 1013 318 1014 318 1036 319 1014 319 1040 319 1037 107 1041 107 1015 107 1038 106 1042 106 997 106 1038 106 1009 106 1010 106 1038 106 1010 106 1042 106 1039 320 1043 320 1011 320 1043 107 1039 107 992 107 1041 107 1037 107 998 107 1016 159 1007 159 1002 159 1012 107 1037 107 1015 107 1008 321 1039 321 1011 321 1017 107 1006 107 1007 107 999 107 970 107 1032 107 969 106 1000 106 1033 106 995 60 1024 60 1058 60 1056 60 1023 60 992 60 1002 60 1046 60 1016 60 1001 60 1019 60 1045 60 1043 60 992 60 1023 60 1042 60 1020 60 997 60 1043 60 1020 60 1042 60 1041 60 998 60 1027 60 1040 60 1024 60 995 60 1041 60 1024 60 1040 60 1016 60 1045 60 1019 60 1055 60 997 60 1057 60 1033 60 1001 60 1044 60 985 144 1038 144 987 144 988 144 1036 144 989 144 990 144 1004 144 991 144 227 59 761 59 229 59 342 59 343 59 344 59 436 106 346 106 345 106 348 107 347 107 439 107 415 63 414 63 446 63 413 59 416 59 448 59 344 106 343 106 437 106 438 107 342 107 341 107 347 59 346 59 436 59 414 107 413 107 447 107 416 106 415 106 445 106 353 60 356 60 452 60 453 60 452 60 371 60 452 60 356 60 364 60 452 60 364 60 366 60 441 60 349 60 453 60 377 60 441 60 453 60 452 60 366 60 367 60 367 60 371 60 452 60 371 60 375 60 453 60 394 60 361 60 289 60 455 60 453 60 433 60 317 60 266 60 455 60 266 461 323 461 435 461 435 60 323 60 436 60 455 60 433 60 317 60 456 60 450 60 424 60 450 60 341 60 423 60 424 461 450 461 423 461 278 60 281 60 456 60 281 60 457 60 456 60 454 60 457 60 383 60 457 60 360 60 412 60 457 60 412 60 442 60 392 60 394 60 454 60 390 60 392 60 454 60 457 60 442 60 381 60 381 60 383 60 457 60 383 60 388 60 454 60 445 60 446 60 459 60 270 462 273 462 448 462 273 463 430 463 448 463 270 60 448 60 439 60 419 60 305 60 447 60 305 464 274 464 447 464 419 60 448 60 430 60 448 60 419 60 447 60 274 60 428 60 447 60 282 60 286 60 405 60 286 60 361 60 363 60 363 60 403 60 286 60 286 60 403 60 405 60 405 60 407 60 282 60 407 60 386 60 282 60 386 60 444 60 282 60 444 60 409 60 282 60 352 60 443 60 265 60 443 60 395 60 265 60 395 60 380 60 265 60 380 60 374 60 265 60 374 60 370 60 265 60 370 60 399 60 265 60 399 60 401 60 265 60 453 59 460 59 461 59 463 59 457 59 454 59 435 59 464 59 465 59 467 59 450 59 456 59 449 59 468 59 469 59 471 59 440 59 458 59 473 465 474 465 475 465 477 141 478 141 479 141 481 141 482 141 483 141 485 466 486 466 487 466 502 106 462 106 454 106 461 107 503 107 0 107 481 146 480 146 505 146 477 145 476 145 507 145 473 141 486 141 485 141 508 148 509 148 483 148 510 147 511 147 479 147 471 107 522 107 348 107 345 106 523 106 464 106 467 107 500 107 438 107 437 106 501 106 468 106 462 144 502 144 463 144 502 144 526 144 463 144 524 144 503 144 460 144 503 144 461 144 460 144 488 144 491 144 511 144 492 144 495 144 509 144 513 469 514 469 484 469 525 144 488 144 465 144 465 144 464 144 523 144 522 144 471 144 470 144 525 144 465 144 523 144 525 144 523 144 522 144 470 144 514 144 515 144 525 144 522 144 515 144 512 144 513 144 469 144 469 144 468 144 501 144 500 144 467 144 466 144 512 144 469 144 501 144 512 144 501 144 500 144 466 144 495 144 527 144 512 144 500 144 527 144 506 60 507 60 453 60 504 60 505 60 456 60 472 470 475 470 458 470 876 59 875 59 874 59 877 106 878 106 968 106 880 107 972 107 971 107 978 63 946 63 947 63 980 59 948 59 945 59 969 106 875 106 876 106 873 107 874 107 970 107 968 59 878 59 879 59 979 107 945 107 946 107 977 106 947 106 948 106 984 144 888 144 885 144 888 144 984 144 896 144 984 144 985 144 903 144 896 144 984 144 898 144 985 144 881 144 973 144 973 144 909 144 985 144 909 144 907 144 985 144 903 144 899 144 984 144 899 144 898 144 984 144 821 144 893 144 926 144 965 144 985 144 987 144 987 144 967 144 798 144 967 144 968 144 855 144 798 587 967 587 855 587 849 144 965 144 987 144 988 144 989 144 813 144 810 144 956 144 988 144 956 587 955 587 982 587 982 144 955 144 873 144 988 144 813 144 810 144 892 144 989 144 944 144 989 144 986 144 915 144 944 144 989 144 974 144 986 144 926 144 924 144 924 144 922 144 986 144 922 144 920 144 986 144 915 144 913 144 989 144 913 144 974 144 989 144 991 144 978 144 977 144 962 588 805 588 980 588 805 144 802 144 980 144 962 144 980 144 951 144 802 144 971 144 980 144 979 589 876 589 960 589 980 144 979 144 951 144 837 144 951 144 979 144 979 144 960 144 806 144 893 144 818 144 895 144 818 144 814 144 937 144 895 144 818 144 935 144 814 144 889 144 941 144 941 144 976 144 814 144 976 144 918 144 814 144 939 144 937 144 814 144 937 144 935 144 818 144 927 144 975 144 797 144 975 144 884 144 797 144 797 144 885 144 933 144 933 144 931 144 797 144 931 144 902 144 797 144 906 144 912 144 797 144 912 144 927 144 797 144 993 59 992 59 985 59 986 59 989 59 995 59 997 59 996 59 967 59 988 59 982 59 999 59 1001 59 1000 59 981 59 990 59 972 59 1003 59 1007 590 1006 590 1005 590 1011 306 1010 306 1009 306 1015 306 1014 306 1013 306 1019 591 1018 591 1017 591 986 106 994 106 1034 106 532 107 1035 107 993 107 1037 310 1012 310 1013 310 1039 309 1008 309 1009 309 1017 306 1018 306 1005 306 1015 58 1041 58 1040 58 1011 311 1043 311 1042 311 1003 107 972 107 880 107 877 106 967 106 996 106 999 107 982 107 970 107 969 106 981 106 1000 106 1058 60 1034 60 995 60 1034 60 994 60 995 60 993 60 1035 60 992 60 1035 60 1056 60 992 60 1043 60 1023 60 1020 60 1041 60 1027 60 1024 60 1016 60 1046 60 1045 60 1047 60 1046 60 1002 60 1002 60 1003 60 1054 60 1055 60 996 60 997 60 1047 60 1002 60 1054 60 1047 60 1054 60 1055 60 997 60 1020 60 1057 60 1047 60 1055 60 1057 60 1059 60 1027 60 998 60 998 60 999 60 1032 60 1033 60 1000 60 1001 60 1059 60 998 60 1032 60 1059 60 1032 60 1033 60 1001 60 1045 60 1044 60 1059 60 1033 60 1044 60 985 144 1039 144 1038 144 988 144 1037 144 1036 144 990 144 1007 144 1004 144 602 59 711 59 70 59 711 59 713 59 179 59 99 59 631 59 697 59 713 59 717 59 181 59 717 59 721 59 185 59 697 59 165 59 99 59 721 59 725 59 189 59 725 59 729 59 193 59 94 59 626 59 699 59 631 59 99 59 105 59 165 59 697 59 626 59 613 59 607 59 81 59 607 59 709 59 75 59 162 59 637 59 105 59 626 59 94 59 165 59 637 59 162 59 694 59 709 59 602 59 177 59 703 59 705 59 171 59 705 59 707 59 173 59 696 59 164 59 158 59 105 59 637 59 631 59 701 59 703 59 169 59 164 59 696 59 694 59 707 59 613 59 175 59 699 59 701 59 167 59 696 59 158 59 690 59 156 59 644 59 112 59 690 59 158 59 112 59 690 59 112 59 644 59 694 59 162 59 164 59 729 59 733 59 197 59 94 59 699 59 167 59 737 59 741 59 205 59 741 59 747 59 209 59 733 59 737 59 201 59 644 59 156 59 688 59 701 59 169 59 167 59 688 59 154 59 686 59 121 59 653 59 686 59 154 59 688 59 156 59 653 59 121 59 126 59 121 59 686 59 154 59 130 59 658 59 126 59 658 59 653 59 126 59 658 59 130 59 662 59 747 59 745 59 215 59 169 59 703 59 171 59 662 59 130 59 152 59 662 59 152 59 684 59 745 59 592 59 213 59 684 59 152 59 134 59 672 59 682 59 150 59 682 59 666 59 134 59 666 59 684 59 134 59 592 59 586 59 60 59 586 59 748 59 54 59 705 59 173 59 171 59 748 59 754 59 216 59 173 59 707 59 175 59 754 59 752 59 222 59 752 59 577 59 220 59 755 59 573 59 223 59 573 59 569 59 41 59 175 59 613 59 81 59 577 59 755 59 45 59 569 59 564 59 37 59 564 59 757 59 32 59 713 59 181 59 179 59 680 59 672 59 140 59 682 59 134 59 150 59 147 59 679 59 677 59 677 59 680 59 148 59 145 59 147 59 677 59 150 59 140 59 672 59 140 59 148 59 680 59 148 59 145 59 677 59 607 59 75 59 81 59 602 59 70 59 177 59 75 59 709 59 177 59 70 59 711 59 179 59 757 59 759 59 225 59 759 59 761 59 227 59 721 59 189 59 185 59 181 59 717 59 185 59 761 59 763 59 229 59 763 59 765 59 231 59 189 59 725 59 193 59 197 59 733 59 201 59 209 59 747 59 215 59 201 59 737 59 205 59 767 59 771 59 235 59 771 59 777 59 239 59 193 59 729 59 197 59 765 59 767 59 233 59 777 59 775 59 245 59 775 59 778 59 243 59 205 59 741 59 209 59 748 59 216 59 54 59 215 59 745 59 213 59 778 59 780 59 246 59 786 59 784 59 254 59 784 59 787 59 252 59 213 59 592 59 60 59 780 59 786 59 248 59 216 59 754 59 222 59 222 59 752 59 220 59 577 59 45 59 220 59 223 59 573 59 41 59 60 59 586 59 54 59 791 59 949 59 417 59 787 59 791 59 255 59 45 59 755 59 223 59 791 59 417 59 259 59 255 59 252 59 787 59 252 59 254 59 784 59 791 59 259 59 255 59 37 59 564 59 32 59 41 59 569 59 37 59 248 59 246 59 780 59 246 59 243 59 778 59 254 59 248 59 786 59 225 59 759 59 227 59 32 59 757 59 225 59 245 59 239 59 777 59 239 59 235 59 771 59 243 59 245 59 775 59 233 59 231 59 765 59 231 59 229 59 763 59 235 59 233 59 767 59</p>
        </triangles>
        <triangles material="Material-material" count="648">
          <input semantic="VERTEX" source="#Mesh-mesh-vertices" offset="0"/>
          <input semantic="NORMAL" source="#Mesh-mesh-normals" offset="1"/>
          <p>30 5 32 5 29 5 35 6 37 6 34 6 39 7 41 7 38 7 43 8 45 8 42 8 52 7 54 7 51 7 58 10 60 10 57 10 68 7 70 7 67 7 73 14 75 14 72 14 79 15 81 15 78 15 92 16 94 16 91 16 97 18 99 18 96 18 103 19 105 19 102 19 110 20 112 20 109 20 119 21 121 21 118 21 124 22 126 22 123 22 128 23 130 23 127 23 132 21 134 21 131 21 138 21 140 21 137 21 158 27 161 27 114 27 183 33 66 33 181 33 186 34 188 34 185 34 189 35 191 35 192 35 193 36 195 36 196 36 198 37 200 37 197 37 202 38 204 38 201 38 206 38 208 38 205 38 209 39 211 39 212 39 218 41 56 41 216 41 237 42 20 42 235 42 240 43 242 43 239 43 250 44 13 44 248 44 255 45 258 45 8 45 259 46 261 46 262 46 350 61 352 61 349 61 354 62 356 62 353 62 358 62 360 62 357 62 368 61 370 61 367 61 372 64 374 64 371 64 378 61 380 61 375 61 384 65 386 65 381 65 396 66 377 66 395 66 410 66 412 66 409 66 147 46 4 46 3 46 258 67 259 67 262 67 7 14 255 14 8 14 10 21 252 21 6 21 251 16 254 16 9 16 12 16 248 16 13 16 15 22 246 22 11 22 17 67 243 67 14 67 238 21 239 21 242 21 26 22 229 22 23 22 28 68 227 68 25 68 33 7 225 7 27 7 49 7 220 7 50 7 219 16 222 16 48 16 55 6 216 6 56 6 62 14 213 14 63 14 203 70 205 70 208 70 65 76 181 76 66 76 71 78 179 78 64 78 76 79 177 79 77 79 113 67 158 67 114 67 135 20 152 20 136 20 145 45 143 45 5 45 148 80 138 80 144 80 151 42 137 42 140 42 155 81 118 81 121 81 157 82 115 82 154 82 111 83 117 83 156 83 164 84 107 84 106 84 104 85 108 85 162 85 98 86 102 86 105 86 166 87 96 87 99 87 165 39 92 39 101 39 168 88 91 88 94 88 167 89 90 89 89 89 169 90 88 90 87 90 171 91 86 91 85 91 176 87 82 87 173 87 74 92 78 92 81 92 45 41 46 41 42 41 41 100 35 100 38 100 231 46 22 46 21 46 236 101 18 101 233 101 393 61 361 61 394 61 376 65 395 65 377 65 387 61 405 61 388 61 389 64 403 64 390 64 391 61 363 61 392 61 351 66 441 66 443 66 379 66 371 66 374 66 369 66 366 66 399 66 400 66 364 66 401 66 408 66 381 66 386 66 385 66 442 66 444 66 261 22 417 22 418 22 19 16 235 16 20 16 22 16 233 16 18 16 24 67 231 67 21 67 46 7 223 7 47 7 211 79 215 79 61 79 207 108 209 108 212 108 199 78 201 78 204 78 195 109 197 109 200 109 191 110 193 110 196 110 187 111 189 111 192 111 184 112 185 112 188 112 86 76 173 76 82 76 88 7 171 7 85 7 90 7 169 7 87 7 95 14 167 14 89 14 100 113 165 113 101 113 107 7 162 7 108 7 161 22 164 22 106 22 116 21 156 21 117 21 122 114 154 114 115 114 143 22 148 22 144 22 4 22 145 22 5 22 133 115 142 115 150 115 153 83 131 83 134 83 152 116 128 116 136 116 130 117 124 117 127 117 126 118 119 118 123 118 112 116 113 116 109 116 175 39 79 39 84 39 75 41 76 41 72 41 69 119 77 119 177 119 180 120 67 120 70 120 182 121 64 121 179 121 213 41 58 41 63 41 60 122 52 122 57 122 54 39 55 39 51 39 222 39 49 39 48 39 44 123 50 123 220 123 31 124 34 124 37 124 226 42 29 42 32 42 228 125 27 125 225 125 227 45 26 45 25 45 245 126 17 126 16 126 243 46 15 46 14 46 246 46 12 46 11 46 253 127 9 127 254 127 256 43 6 43 252 43 355 61 401 61 364 61 365 61 399 61 366 61 397 65 443 65 441 65 359 61 409 61 412 61 411 61 444 61 442 61 398 133 375 133 380 133 373 66 367 66 370 66 362 66 392 66 363 66 402 66 390 66 403 66 404 62 388 62 405 62 406 66 383 66 407 66 241 14 245 14 16 14 83 113 175 113 84 113 141 134 150 134 142 134 214 136 61 136 215 136 223 91 39 91 47 91 229 116 24 116 23 116 382 61 407 61 383 61 564 175 562 175 561 175 569 176 567 176 566 176 573 177 571 177 570 177 577 178 575 178 574 178 586 180 584 180 583 180 592 181 590 181 589 181 602 184 600 184 599 184 607 186 605 186 604 186 613 180 611 180 610 180 626 177 624 177 623 177 631 188 629 188 628 188 637 189 635 189 634 189 644 190 642 190 641 190 653 184 651 184 650 184 658 191 656 191 655 191 662 191 660 191 659 191 666 184 664 184 663 184 672 184 670 184 669 184 690 195 693 195 692 195 598 201 715 201 713 201 720 202 718 202 717 202 721 203 723 203 722 203 725 204 727 204 726 204 732 201 730 201 729 201 736 205 734 205 733 205 740 205 738 205 737 205 741 206 743 206 742 206 588 208 750 208 748 208 552 209 769 209 767 209 774 210 772 210 771 210 545 211 782 211 780 211 787 212 790 212 789 212 791 213 793 213 792 213 884 225 882 225 881 225 888 226 886 226 885 226 892 226 890 226 889 226 902 225 900 225 899 225 906 227 904 227 903 227 912 225 910 225 907 225 918 228 916 228 913 228 909 229 928 229 927 229 944 229 942 229 941 229 679 230 536 230 678 230 791 231 790 231 794 231 787 232 539 232 540 232 784 184 542 184 538 184 786 184 783 184 541 184 780 176 544 176 545 176 778 231 547 231 543 231 775 233 549 233 546 233 771 184 770 184 774 184 761 234 558 234 555 234 759 235 560 235 557 235 757 184 565 184 559 184 752 184 581 184 582 184 754 177 751 177 580 177 748 176 587 176 588 176 745 232 594 232 595 232 737 237 735 237 740 237 713 184 597 184 598 184 711 244 603 244 596 244 709 180 608 180 609 180 690 233 645 233 646 233 684 190 667 190 668 190 677 195 675 195 681 195 680 245 670 245 671 245 669 209 683 209 672 209 650 246 687 246 653 246 647 247 689 247 686 247 649 248 643 248 688 248 696 249 639 249 695 249 640 250 636 250 694 250 634 247 630 247 637 247 628 251 698 251 631 251 697 206 624 206 625 206 623 252 700 252 626 252 699 253 622 253 702 253 701 206 620 206 704 206 703 206 618 206 706 206 614 254 708 254 705 254 610 255 606 255 613 255 577 263 578 263 756 263 573 264 567 264 568 264 763 265 554 265 766 265 550 266 768 266 765 266 893 225 925 225 926 225 927 228 908 228 909 228 937 225 919 225 920 225 935 227 921 227 922 227 895 225 923 225 924 225 973 229 883 229 975 229 903 229 911 229 906 229 898 229 901 229 931 229 896 229 932 229 933 229 913 229 940 229 918 229 974 229 917 229 976 229 949 234 793 234 950 234 767 176 551 176 552 176 765 176 554 176 550 176 763 231 556 231 553 231 755 184 578 184 579 184 747 180 743 180 593 180 741 269 739 269 744 269 733 270 731 270 736 270 729 271 727 271 732 271 725 272 723 272 728 272 721 273 719 273 724 273 717 274 716 274 720 274 705 184 618 184 614 184 703 184 620 184 617 184 701 184 622 184 619 184 699 232 627 232 621 232 697 275 632 275 633 275 694 184 639 184 640 184 696 191 693 191 638 191 688 276 648 276 649 276 686 277 654 277 647 277 680 234 675 234 676 234 677 234 536 234 537 234 674 278 665 278 682 278 663 279 685 279 666 279 684 248 660 248 661 248 662 212 656 212 657 212 658 245 651 245 652 245 644 248 645 248 691 248 707 206 611 206 612 206 607 280 608 280 710 280 609 281 601 281 709 281 599 282 712 282 602 282 596 283 714 283 711 283 745 284 590 284 591 284 592 285 584 285 585 285 586 206 587 206 749 206 754 206 581 206 753 206 582 286 576 286 752 286 566 205 563 205 569 205 561 209 758 209 564 209 559 287 760 287 757 287 759 212 558 212 762 212 777 212 549 212 776 212 775 213 547 213 779 213 778 288 544 288 781 288 541 289 785 289 786 289 538 210 788 210 784 210 933 225 887 225 896 225 931 225 897 225 898 225 975 228 929 228 973 228 941 225 891 225 944 225 976 225 943 225 974 225 907 295 930 295 912 295 899 229 905 229 902 229 924 229 894 229 895 229 922 229 934 229 935 229 920 226 936 226 937 226 915 229 938 229 939 229 777 232 773 232 548 232 707 275 615 275 616 275 682 297 673 297 674 297 593 286 746 286 747 286 755 299 571 299 572 299 761 248 556 248 764 248 939 225 914 225 915 225 30 331 31 331 32 331 35 332 36 332 37 332 39 333 40 333 41 333 43 334 44 334 45 334 52 335 53 335 54 335 58 336 59 336 60 336 68 333 69 333 70 333 73 337 74 337 75 337 79 335 80 335 81 335 92 333 93 333 94 333 97 338 98 338 99 338 103 339 104 339 105 339 110 340 111 340 112 340 119 341 120 341 121 341 124 342 125 342 126 342 128 342 129 342 130 342 132 340 133 340 134 340 138 343 139 343 140 343 158 344 160 344 161 344 183 345 184 345 66 345 186 346 187 346 188 346 189 347 190 347 191 347 193 348 194 348 195 348 198 349 199 349 200 349 202 349 203 349 204 349 206 350 207 350 208 350 209 351 210 351 211 351 218 352 219 352 56 352 237 353 238 353 20 353 240 354 241 354 242 354 250 355 251 355 13 355 255 356 257 356 258 356 259 357 260 357 261 357 350 365 351 365 352 365 354 66 355 66 356 66 358 66 359 66 360 66 368 61 369 61 370 61 372 61 373 61 374 61 378 61 379 61 380 61 384 365 385 365 386 365 396 66 397 66 377 66 410 66 411 66 412 66 147 366 146 366 4 366 258 342 257 342 259 342 7 340 256 340 255 340 10 340 253 340 252 340 251 340 250 340 254 340 12 367 249 367 248 367 15 342 247 342 246 342 17 342 244 342 243 342 238 340 237 340 239 340 26 368 230 368 229 368 28 369 228 369 227 369 33 340 226 340 225 340 49 340 221 340 220 340 219 333 218 333 222 333 55 332 217 332 216 332 62 370 214 370 213 370 203 371 202 371 205 371 65 371 182 371 181 371 71 333 180 333 179 333 76 372 178 372 177 372 113 368 159 368 158 368 135 340 153 340 152 340 145 344 149 344 143 344 148 373 139 373 138 373 151 374 141 374 137 374 155 375 122 375 118 375 157 375 116 375 115 375 111 376 110 376 117 376 164 377 163 377 107 377 104 378 103 378 108 378 98 378 97 378 102 378 166 91 100 91 96 91 165 351 93 351 92 351 168 379 95 379 91 379 167 380 170 380 90 380 169 351 172 351 88 351 171 351 174 351 86 351 176 381 83 381 82 381 74 382 73 382 78 382 45 383 224 383 46 383 41 384 36 384 35 384 231 385 234 385 22 385 236 386 19 386 18 386 393 61 362 61 361 61 376 61 398 61 395 61 387 64 406 64 405 64 389 61 404 61 403 61 391 61 402 61 363 61 351 66 350 66 441 66 379 66 378 66 371 66 369 66 368 66 366 66 400 66 365 66 364 66 408 66 382 66 381 66 385 66 384 66 442 66 261 342 260 342 417 342 19 387 236 387 235 387 22 388 234 388 233 388 24 342 232 342 231 342 46 389 224 389 223 389 211 335 210 335 215 335 207 390 206 390 209 390 199 391 198 391 201 391 195 392 194 392 197 392 191 393 190 393 193 393 187 370 186 370 189 370 184 394 183 394 185 394 86 395 174 395 173 395 88 340 172 340 171 340 90 396 170 396 169 396 95 369 168 369 167 369 100 370 166 370 165 370 107 341 163 341 162 341 161 342 160 342 164 342 116 387 157 387 156 387 122 339 155 339 154 339 143 368 149 368 148 368 4 397 146 397 145 397 133 375 132 375 142 375 153 376 135 376 131 376 152 398 129 398 128 398 130 356 125 356 124 356 126 373 120 373 119 373 112 398 159 398 113 398 175 351 80 351 79 351 75 399 178 399 76 399 69 400 68 400 77 400 180 39 71 39 67 39 182 345 65 345 64 345 213 401 59 401 58 401 60 402 53 402 52 402 54 351 217 351 55 351 222 351 221 351 49 351 44 403 43 403 50 403 31 404 30 404 34 404 226 405 33 405 29 405 228 406 28 406 27 406 227 356 230 356 26 356 245 356 244 356 17 356 243 357 247 357 15 357 246 407 249 407 12 407 253 404 10 404 9 404 256 408 7 408 6 408 355 64 354 64 401 64 365 61 400 61 399 61 397 61 396 61 443 61 359 65 358 65 409 65 411 65 410 65 444 65 398 66 376 66 375 66 373 66 372 66 367 66 362 66 393 66 392 66 402 66 391 66 390 66 404 66 389 66 388 66 406 66 387 66 383 66 241 413 240 413 245 413 83 370 176 370 175 370 141 339 151 339 150 339 214 458 62 458 61 458 223 459 40 459 39 459 229 398 232 398 24 398 382 61 408 61 407 61 564 471 563 471 562 471 569 472 568 472 567 472 573 473 572 473 571 473 577 277 576 277 575 277 586 474 585 474 584 474 592 475 591 475 590 475 602 474 601 474 600 474 607 476 606 476 605 476 613 476 612 476 611 476 626 476 625 476 624 476 631 477 630 477 629 477 637 478 636 478 635 478 644 479 643 479 642 479 653 480 652 480 651 480 658 481 657 481 656 481 662 481 661 481 660 481 666 479 665 479 664 479 672 482 671 482 670 482 690 483 646 483 693 483 598 484 716 484 715 484 720 485 719 485 718 485 721 486 724 486 723 486 725 487 728 487 727 487 732 488 731 488 730 488 736 489 735 489 734 489 740 282 739 282 738 282 741 490 744 490 743 490 588 491 751 491 750 491 552 492 770 492 769 492 774 493 773 493 772 493 545 494 783 494 782 494 787 495 540 495 790 495 791 496 794 496 793 496 884 503 883 503 882 503 888 229 887 229 886 229 892 229 891 229 890 229 902 225 901 225 900 225 906 225 905 225 904 225 912 225 911 225 910 225 918 503 917 503 916 503 909 229 929 229 928 229 944 229 943 229 942 229 679 496 535 496 536 496 791 481 789 481 790 481 787 479 788 479 539 479 784 479 785 479 542 479 786 473 782 473 783 473 780 504 781 504 544 504 778 481 779 481 547 481 775 481 776 481 549 481 771 479 769 479 770 479 761 481 762 481 558 481 759 479 760 479 560 479 757 473 758 473 565 473 752 476 753 476 581 476 754 476 750 476 751 476 748 472 749 472 587 472 745 505 746 505 594 505 737 506 734 506 735 506 713 476 714 476 597 476 711 506 712 506 603 506 709 507 710 507 608 507 690 481 691 481 645 481 684 479 685 479 667 479 677 495 537 495 675 495 680 508 676 508 670 508 669 509 673 509 683 509 650 510 654 510 687 510 647 511 648 511 689 511 649 512 642 512 643 512 696 513 638 513 639 513 640 510 635 510 636 510 634 510 629 510 630 510 628 514 632 514 698 514 697 490 633 490 624 490 623 515 627 515 700 515 699 516 621 516 622 516 701 517 619 517 620 517 703 518 617 518 618 518 614 519 615 519 708 519 610 520 605 520 606 520 577 521 574 521 578 521 573 522 570 522 567 522 763 496 553 496 554 496 550 494 551 494 768 494 893 225 894 225 925 225 927 225 930 225 908 225 937 227 938 227 919 227 935 225 936 225 921 225 895 225 934 225 923 225 973 229 882 229 883 229 903 229 910 229 911 229 898 229 900 229 901 229 896 229 897 229 932 229 913 229 914 229 940 229 974 229 916 229 917 229 949 481 792 481 793 481 767 473 768 473 551 473 765 504 766 504 554 504 763 481 764 481 556 481 755 507 756 507 578 507 747 476 742 476 743 476 741 506 738 506 739 506 733 506 730 506 731 506 729 524 726 524 727 524 725 525 722 525 723 525 721 505 718 505 719 505 717 526 715 526 716 526 705 527 706 527 618 527 703 476 704 476 620 476 701 507 702 507 622 507 699 479 700 479 627 479 697 476 698 476 632 476 694 528 695 528 639 528 696 481 692 481 693 481 688 473 689 473 648 473 686 478 687 478 654 478 680 275 681 275 675 275 677 275 678 275 536 275 674 511 664 511 665 511 663 512 667 512 685 512 684 529 668 529 660 529 662 530 659 530 656 530 658 531 655 531 651 531 644 529 641 529 645 529 707 490 616 490 611 490 607 521 604 521 608 521 609 532 600 532 601 532 599 514 603 514 712 514 596 282 597 282 714 282 745 521 595 521 590 521 592 533 589 533 584 533 586 490 583 490 587 490 754 490 580 490 581 490 582 515 575 515 576 515 566 534 562 534 563 534 561 535 565 535 758 535 559 536 560 536 760 536 759 495 557 495 558 495 777 537 548 537 549 537 775 496 546 496 547 496 778 496 543 496 544 496 541 491 542 491 785 491 538 512 539 512 788 512 933 227 886 227 887 227 931 225 932 225 897 225 975 225 928 225 929 225 941 228 890 228 891 228 976 228 942 228 943 228 907 229 908 229 930 229 899 229 904 229 905 229 924 229 925 229 894 229 922 229 923 229 934 229 920 229 921 229 936 229 915 229 919 229 938 229 777 541 772 541 773 541 707 505 708 505 615 505 682 478 683 478 673 478 593 584 594 584 746 584 755 518 579 518 571 518 761 529 555 529 556 529 939 225 940 225 914 225</p>
        </triangles>
        <triangles material="Material_004-material" count="48">
          <input semantic="VERTEX" source="#Mesh-mesh-vertices" offset="0"/>
          <input semantic="NORMAL" source="#Mesh-mesh-normals" offset="1"/>
          <p>325 55 327 55 328 55 329 56 331 56 332 56 333 57 335 57 336 57 337 58 339 58 340 58 316 104 268 104 267 104 324 105 311 105 321 105 271 57 307 57 272 57 304 129 276 129 275 129 279 104 299 104 280 104 296 58 284 58 283 58 287 58 291 58 288 58 263 131 319 131 264 131 857 223 859 223 858 223 861 224 863 224 862 224 865 224 867 224 866 224 869 148 871 148 870 148 848 268 800 268 847 268 856 224 843 224 844 224 803 291 839 291 840 291 836 292 808 292 835 292 811 291 831 291 832 291 828 148 816 148 827 148 819 294 823 294 824 294 795 148 851 148 852 148 325 364 326 364 327 364 329 105 330 105 331 105 333 105 334 105 335 105 337 58 338 58 339 58 316 56 315 56 268 56 324 105 312 105 311 105 271 104 308 104 307 104 304 410 303 410 276 410 279 104 300 104 299 104 296 58 295 58 284 58 287 412 292 412 291 412 263 58 320 58 319 58 857 502 860 502 859 502 861 268 864 268 863 268 865 302 868 302 867 302 869 148 872 148 871 148 848 291 799 291 800 291 856 224 853 224 843 224 803 302 804 302 839 302 836 539 807 539 808 539 811 291 812 291 831 291 828 148 815 148 816 148 819 148 820 148 823 148 795 296 796 296 851 296</p>
        </triangles>
        <triangles material="Material_005-material" count="240">
          <input semantic="VERTEX" source="#Mesh-mesh-vertices" offset="0"/>
          <input semantic="NORMAL" source="#Mesh-mesh-normals" offset="1"/>
          <p>0 0 1 0 2 0 263 47 265 47 2 47 266 48 268 48 269 48 271 49 273 49 270 49 274 48 276 48 277 48 279 47 281 47 278 47 282 48 284 48 285 48 287 47 289 47 286 47 291 50 293 50 290 50 295 51 297 51 294 51 299 52 301 52 298 52 303 51 305 51 302 51 307 53 309 53 306 53 311 54 313 54 310 54 315 51 317 51 314 51 319 54 1 54 318 54 322 49 324 49 321 49 289 48 291 48 290 48 320 51 2 51 1 51 265 48 319 48 318 48 273 48 307 48 306 48 419 48 327 48 420 48 304 49 274 49 305 49 421 102 331 102 422 102 333 47 424 47 423 47 281 48 299 48 298 48 296 47 282 47 297 47 292 51 286 51 293 51 284 54 294 54 285 54 300 51 278 51 301 51 335 54 426 54 425 54 330 51 428 51 427 51 276 50 302 50 277 50 326 51 430 51 429 51 308 103 270 103 309 103 339 54 432 54 431 54 433 49 337 49 340 49 433 48 339 48 431 48 316 128 266 128 317 128 322 48 311 48 310 48 325 49 419 49 430 49 424 102 335 102 425 102 334 51 423 51 426 51 331 50 427 50 422 50 327 50 429 50 420 50 312 103 323 103 313 103 268 50 314 50 269 50 338 51 434 51 432 51 421 130 329 130 332 130 289 131 290 131 451 131 265 56 432 56 434 56 433 56 314 56 317 56 266 104 313 104 323 104 273 137 429 137 430 137 419 55 302 55 305 55 274 137 427 137 428 137 424 0 301 0 278 0 282 56 293 56 286 56 294 104 281 104 298 104 426 105 421 105 422 105 309 138 322 138 310 138 532 170 534 170 533 170 797 214 795 214 534 214 798 215 800 215 799 215 805 216 803 216 802 216 806 217 808 217 807 217 813 214 811 214 810 214 814 215 816 215 815 215 821 214 819 214 818 214 825 218 823 218 822 218 829 219 827 219 826 219 833 220 831 220 830 220 837 219 835 219 834 219 841 221 839 221 838 221 845 222 843 222 842 222 849 219 847 219 846 219 533 222 851 222 850 222 856 216 854 216 853 216 821 215 823 215 820 215 534 219 852 219 533 219 797 215 851 215 796 215 805 217 839 217 804 217 951 217 859 217 860 217 806 216 836 216 837 216 953 215 863 215 864 215 956 214 865 214 955 214 813 215 831 215 812 215 814 214 828 214 829 214 818 219 824 219 825 219 826 222 816 222 817 222 810 219 832 219 833 219 958 222 867 222 957 222 960 219 862 219 959 219 834 218 808 218 809 218 962 219 858 219 961 219 802 267 840 267 841 267 964 222 871 222 963 222 869 216 965 216 872 216 965 215 871 215 872 215 798 290 848 290 849 290 854 215 843 215 853 215 951 216 857 216 962 216 956 215 867 215 868 215 955 219 866 219 958 219 959 218 863 218 954 218 961 218 859 218 952 218 855 267 844 267 845 267 846 218 800 218 801 218 966 219 870 219 964 219 861 293 953 293 864 293 821 296 983 296 822 296 797 291 964 291 850 291 965 300 846 300 963 300 798 296 845 296 801 296 805 301 961 301 838 301 951 292 834 292 952 292 806 301 959 301 809 301 956 291 833 291 957 291 814 300 825 300 817 300 826 268 813 268 829 268 958 302 953 302 955 302 841 224 854 224 802 224 263 49 264 49 265 49 266 358 267 358 268 358 271 47 272 47 273 47 274 359 275 359 276 359 279 49 280 49 281 49 282 358 283 358 284 358 287 49 288 49 289 49 291 54 292 54 293 54 295 360 296 360 297 360 299 361 300 361 301 361 303 362 304 362 305 362 307 363 308 363 309 363 311 50 312 50 313 50 315 360 316 360 317 360 319 50 320 50 1 50 322 47 323 47 324 47 289 358 288 358 291 358 320 360 263 360 2 360 265 358 264 358 319 358 273 359 272 359 307 359 419 359 328 359 327 359 304 47 275 47 274 47 421 358 332 358 331 358 333 47 336 47 424 47 281 358 280 358 299 358 296 49 283 49 282 49 292 360 287 360 286 360 284 50 295 50 294 50 300 360 279 360 278 360 335 50 334 50 426 50 330 362 329 362 428 362 276 54 303 54 302 54 326 362 325 362 430 362 308 360 271 360 270 360 339 50 338 50 432 50 433 47 434 47 337 47 433 358 340 358 339 358 316 409 267 409 266 409 322 358 321 358 311 358 325 47 328 47 419 47 424 358 336 358 335 358 334 360 333 360 423 360 331 54 330 54 427 54 327 54 326 54 429 54 312 360 324 360 323 360 268 54 315 54 314 54 338 360 337 360 434 360 421 411 428 411 329 411 265 104 318 104 432 104 433 460 431 460 314 460 266 131 269 131 313 131 273 425 306 425 429 425 419 410 420 410 302 410 274 425 277 425 427 425 424 104 425 104 301 104 282 460 285 460 293 460 294 56 297 56 281 56 426 57 423 57 421 57 309 105 270 105 322 105 797 216 796 216 795 216 798 497 801 497 800 497 805 214 804 214 803 214 806 497 809 497 808 497 813 216 812 216 811 216 814 497 817 497 816 497 821 216 820 216 819 216 825 222 824 222 823 222 829 498 828 498 827 498 833 499 832 499 831 499 837 500 836 500 835 500 841 501 840 501 839 501 845 218 844 218 843 218 849 498 848 498 847 498 533 218 852 218 851 218 856 214 855 214 854 214 821 497 822 497 823 497 534 498 795 498 852 498 797 497 850 497 851 497 805 497 838 497 839 497 951 497 952 497 859 497 806 214 807 214 836 214 953 523 954 523 863 523 956 214 868 214 865 214 813 497 830 497 831 497 814 216 815 216 828 216 818 498 819 498 824 498 826 218 827 218 816 218 810 498 811 498 832 498 958 218 866 218 867 218 960 500 861 500 862 500 834 222 835 222 808 222 962 500 857 500 858 500 802 498 803 498 840 498 964 218 870 218 871 218 869 214 966 214 965 214 965 497 963 497 871 497 798 538 799 538 848 538 854 497 842 497 843 497 951 214 860 214 857 214 956 523 957 523 867 523 955 498 865 498 866 498 959 222 862 222 863 222 961 222 858 222 859 222 855 498 856 498 844 498 846 222 847 222 800 222 966 498 869 498 870 498 861 540 960 540 953 540 797 268 966 268 964 268 965 268 849 268 846 268 798 291 855 291 845 291 805 585 962 585 961 585 951 502 837 502 834 502 806 585 960 585 959 585 956 170 810 170 833 170 814 268 818 268 825 268 826 291 830 291 813 291 958 224 954 224 953 224 841 586 842 586 854 586</p>
        </triangles>
      </mesh>
    </geometry>
    <geometry id="Mesh_024-mesh" name="Mesh.024">
      <mesh>
        <source id="Mesh_024-mesh-positions">
          <float_array id="Mesh_024-mesh-positions-array" count="300">7 2 -8 3.223607 0.111803 -8 2.75 0 -8 7 2 8 2.75 0 8 3.223607 0.111803 8 7 3 -8 7 3 -5.75 7 3 8 7 3 -4.75 7 3 4.75 7 3 5.75 7 3 -0.5 7 3 0.5 8 3 -5.75 8 3 -8 8 3 8 8 3 5.75 8 3 -4.75 8 3 4.75 8 3 0.5 8 3 -0.5 7 4.5 0.5 5.65836 5.170821 0.5 5.65836 5.170821 -0.5 7 4.5 -0.5 5.65836 5.170821 -5.75 5.65836 5.170821 -4.75 6.15836 6.170821 -4.75 6.15836 6.170821 -5.75 5.65836 5.170821 4.75 5.65836 5.170821 5.75 6.15836 6.170821 5.75 6.15836 6.170821 4.75 8 5.25 -0.5 6.15836 6.170821 -0.5 6.15836 6.170821 0.5 8 5.25 0.5 8 2 8 8 2 -8 7 4.5 5.75 7 4.5 4.75 7 4.5 -4.75 7 4.5 -5.75 8 5.25 5.75 8 5.25 4.75 8 5.25 -4.75 8 5.25 -5.75 -7 2 -8 -3.223607 0.111803 -8 -2.75 0 -8 -7 2 8 -2.75 0 8 -3.223607 0.111803 8 -7 3 -8 -7 3 -5.75 -7 3 8 -7 3 -4.75 -7 3 4.75 -7 3 5.75 -7 3 -0.5 -7 3 0.5 -8 3 -5.75 -8 3 -8 -8 3 8 -8 3 5.75 -8 3 -4.75 -8 3 4.75 -8 3 0.5 -8 3 -0.5 -7 4.5 0.5 -5.65836 5.170821 0.5 -5.65836 5.170821 -0.5 -7 4.5 -0.5 -5.65836 5.170821 -5.75 -5.65836 5.170821 -4.75 -6.15836 6.170821 -4.75 -6.15836 6.170821 -5.75 -5.65836 5.170821 4.75 -5.65836 5.170821 5.75 -6.15836 6.170821 5.75 -6.15836 6.170821 4.75 -8 5.25 -0.5 -6.15836 6.170821 -0.5 -6.15836 6.170821 0.5 -8 5.25 0.5 -8 2 8 -8 2 -8 -7 4.5 5.75 -7 4.5 4.75 -7 4.5 -4.75 -7 4.5 -5.75 -8 5.25 5.75 -8 5.25 4.75 -8 5.25 -4.75 -8 5.25 -5.75 8 2 0 7 2 0 -8 2 0 -7 2 0</float_array>
          <technique_common>
            <accessor source="#Mesh_024-mesh-positions-array" count="100" stride="3">
              <param name="X" type="float"/>
              <param name="Y" type="float"/>
              <param name="Z" type="float"/>
            </accessor>
          </technique_common>
        </source>
        <source id="Mesh_024-mesh-normals">
          <float_array id="Mesh_024-mesh-normals-array" count="117">0.229752 0.9732492 0 -1 0 0 0 1 0 -0.4472138 -0.8944271 0 -0.8944273 0.4472137 0 0.4472138 0.8944272 0 0 0 1 0 0 -1 -0.4472141 -0.894427 0 -0.4472137 -0.8944273 0 0.447214 0.8944271 0 0.4472137 0.8944273 0 1 0 0 0 0 -1 5.68661e-7 0 1 -4.14272e-7 0 1 -4.14272e-7 0 -1 0 0 -1 1.13732e-6 0 -1 0.4472137 0.8944271 0 0.4472138 -0.8944271 0 0.8944273 0.4472137 0 -0.4472138 0.8944272 0 0.4472141 -0.894427 0 0.4472137 -0.8944273 0 -0.447214 0.8944271 0 -0.4472137 0.8944273 0 -5.68661e-7 0 1 4.14272e-7 0 1 4.14272e-7 0 -1 -1.13732e-6 0 -1 -1 -2.11928e-7 0 -0.229752 0.9732492 0 -0.4472137 0.8944271 0 -0.4472138 -0.8944271 0 0.4472138 0.8944272 0 -1 2.78155e-7 0 0.4472138 -0.8944271 0 -0.4472138 0.8944272 0</float_array>
          <technique_common>
            <accessor source="#Mesh_024-mesh-normals-array" count="39" stride="3">
              <param name="X" type="float"/>
              <param name="Y" type="float"/>
              <param name="Z" type="float"/>
            </accessor>
          </technique_common>
        </source>
        <vertices id="Mesh_024-mesh-vertices">
          <input semantic="POSITION" source="#Mesh_024-mesh-positions"/>
        </vertices>
        <triangles count="180">
          <input semantic="VERTEX" source="#Mesh_024-mesh-vertices" offset="0"/>
          <input semantic="NORMAL" source="#Mesh_024-mesh-normals" offset="1"/>
          <p>53 0 50 0 49 0 13 1 12 1 97 1 93 1 65 1 92 1 7 2 15 2 6 2 17 2 8 2 16 2 10 2 20 2 13 2 23 3 25 3 22 3 27 4 29 4 26 4 31 4 33 4 30 4 35 5 37 5 34 5 38 6 8 6 3 6 15 7 0 7 6 7 31 8 41 8 40 8 27 9 43 9 42 9 23 4 35 4 24 4 44 10 33 10 32 10 46 11 29 11 28 11 17 12 16 12 38 12 7 7 43 7 14 7 10 7 41 7 19 7 17 6 40 6 11 6 18 6 42 6 9 6 12 13 25 13 21 13 20 6 22 6 13 6 25 7 35 7 34 7 22 6 20 6 37 6 22 6 36 6 23 6 22 6 37 6 36 6 40 6 17 6 44 6 40 14 32 14 31 14 40 15 44 15 32 15 41 7 33 7 45 7 42 6 18 6 46 6 42 6 28 6 27 6 42 6 46 6 28 6 43 16 29 16 47 16 47 7 14 7 43 7 45 7 19 7 41 7 34 17 21 17 25 17 30 7 33 7 41 7 26 18 29 18 43 18 35 7 25 7 24 7 21 12 37 12 20 12 42 1 7 1 9 1 40 1 10 1 11 1 22 1 12 1 13 1 60 12 61 12 99 12 11 1 3 1 8 1 14 12 46 12 18 12 99 19 53 19 49 19 69 2 57 2 66 2 87 1 62 1 63 1 63 2 55 2 54 2 56 2 65 2 64 2 44 12 19 12 45 12 61 2 67 2 58 2 9 2 21 2 18 2 73 20 71 20 70 20 77 21 75 21 74 21 81 21 79 21 78 21 85 22 83 22 82 22 56 6 86 6 51 6 48 7 63 7 54 7 89 23 79 23 88 23 91 24 75 24 90 24 83 21 71 21 72 21 81 25 92 25 80 25 77 26 94 26 76 26 55 7 62 7 91 7 58 7 67 7 89 7 65 6 59 6 88 6 66 6 57 6 90 6 60 13 69 13 73 13 68 6 61 6 70 6 73 7 82 7 83 7 70 6 85 6 68 6 70 6 71 6 84 6 70 6 84 6 85 6 88 6 92 6 65 6 88 27 79 27 80 27 88 28 80 28 92 28 89 7 93 7 81 7 90 6 94 6 66 6 90 6 75 6 76 6 90 6 76 6 94 6 91 29 95 29 77 29 95 7 91 7 62 7 93 7 89 7 67 7 82 17 73 17 69 17 78 7 89 7 81 7 74 30 91 30 77 30 83 7 72 7 73 7 68 31 82 31 69 31 55 12 90 12 57 12 58 12 88 12 59 12 60 12 70 12 61 12 52 2 2 2 50 2 2 32 5 32 1 32 66 1 95 1 62 1 7 1 6 1 0 1 51 12 59 12 56 12 55 12 48 12 54 12 97 33 1 33 5 33 14 12 39 12 15 12 39 12 14 12 18 12 66 1 87 1 98 1 64 1 65 1 86 1 19 12 17 12 38 12 20 12 96 12 21 12 21 12 96 12 18 12 20 12 19 12 96 12 96 12 19 12 38 12 96 12 39 12 18 12 12 1 9 1 97 1 9 1 7 1 0 1 97 1 9 1 0 1 97 1 3 1 10 1 3 1 11 1 10 1 10 1 13 1 97 1 55 12 57 12 48 12 57 12 60 12 99 12 61 12 58 12 99 12 58 12 59 12 51 12 99 12 58 12 51 12 57 12 99 12 48 12 86 1 65 1 67 1 67 1 68 1 98 1 68 1 69 1 98 1 67 1 98 1 86 1 66 1 62 1 87 1 69 1 66 1 98 1 49 19 48 19 99 19 99 19 51 19 53 19 5 33 3 33 97 33 97 33 0 33 1 33 53 0 52 0 50 0 93 1 67 1 65 1 7 2 14 2 15 2 17 2 11 2 8 2 10 2 19 2 20 2 23 34 24 34 25 34 27 4 28 4 29 4 31 4 32 4 33 4 35 35 36 35 37 35 38 6 16 6 8 6 15 7 39 7 0 7 31 9 30 9 41 9 27 8 26 8 43 8 23 4 36 4 35 4 44 11 45 11 33 11 46 10 47 10 29 10 21 12 34 12 37 12 42 1 43 1 7 1 40 1 41 1 10 1 22 36 25 36 12 36 14 12 47 12 46 12 69 2 60 2 57 2 63 2 62 2 55 2 56 2 59 2 65 2 44 12 17 12 19 12 61 2 68 2 67 2 9 2 12 2 21 2 73 37 72 37 71 37 77 21 76 21 75 21 81 21 80 21 79 21 85 38 84 38 83 38 56 6 64 6 86 6 48 7 87 7 63 7 89 24 78 24 79 24 91 23 74 23 75 23 83 21 84 21 71 21 81 26 93 26 92 26 77 25 95 25 94 25 68 1 85 1 82 1 55 12 91 12 90 12 58 12 89 12 88 12 60 12 73 12 70 12 52 2 4 2 2 2 2 32 4 32 5 32 66 1 94 1 95 1</p>
        </triangles>
      </mesh>
    </geometry>
  </library_geometries>
  <library_controllers/>
  <library_visual_scenes>
    <visual_scene id="Scene" name="Scene">
      <node id="Segment" name="Segment" type="NODE">
        <matrix sid="transform">1 0 0 0 0 -4.37114e-8 -1 0 0 1 -4.37114e-8 0 0 0 0 1</matrix>
        <instance_geometry url="#Mesh-mesh" name="Segment"/>
      </node>
      <node id="SegmentCollision-colonly" name="SegmentCollision-colonly" type="NODE">
        <matrix sid="transform">1 0 0 0 0 -4.37114e-8 -1 0 0 1 -4.37114e-8 0 0 0 0 1</matrix>
        <instance_geometry url="#Mesh_024-mesh" name="SegmentCollision-colonly"/>
      </node>
    </visual_scene>
  </library_visual_scenes>
  <scene>
    <instance_visual_scene url="#Scene"/>
  </scene>
</COLLADA>